./eq_temp150.000000105707//36dumped.pdb
./eq_temp150.000000105707//37dumped.pdb
./eq_temp150.000000001087//17dumped.pdb
./eq_temp150.000000001087//19dumped.pdb
./eq_temp150.00000000035//176dumped.pdb
./eq_temp150.00000000035//177dumped.pdb
./eq_temp150.00000000035//178dumped.pdb
./eq_temp150.00000000035//179dumped.pdb
./eq_temp150.00000000035//180dumped.pdb
./eq_temp150.00000000035//181dumped.pdb
./eq_temp150.00000000035//182dumped.pdb
./eq_temp150.00000000035//183dumped.pdb
./eq_temp150.00000000035//184dumped.pdb
./eq_temp150.00000000013//339dumped.pdb
./eq_temp150.00000000013//340dumped.pdb
./eq_temp150.00000000013//341dumped.pdb
./eq_temp150.00000000013//342dumped.pdb
./eq_temp150.00000000013//343dumped.pdb
./eq_temp150.00000000013//344dumped.pdb
./eq_temp150.00000000013//345dumped.pdb
./eq_temp150.000000006499//15dumped.pdb
./eq_temp150.000000006499//16dumped.pdb
./eq_temp150.000000006499//17dumped.pdb
./eq_temp150.000000006499//18dumped.pdb
./eq_temp150.000000006499//19dumped.pdb
./eq_temp150.000000006499//20dumped.pdb
./eq_temp150.000000006499//21dumped.pdb
./eq_temp150.000000006499//26dumped.pdb
./eq_temp150.000000000931//44dumped.pdb
./eq_temp150.000000006007//692dumped.pdb
./eq_temp150.000000006007//693dumped.pdb
./eq_temp150.000000006007//694dumped.pdb
./eq_temp150.000000003916//86dumped.pdb
./eq_temp150.00000000037//880dumped.pdb
./eq_temp150.00000000037//881dumped.pdb
./eq_temp150.000000000091//32dumped.pdb
./eq_temp150.000000000244//16dumped.pdb
./eq_temp150.000000000244//17dumped.pdb
./eq_temp150.000000000244//18dumped.pdb
./eq_temp150.000000000244//19dumped.pdb
./eq_temp150.000000000244//20dumped.pdb
./eq_temp150.000000000244//21dumped.pdb
./eq_temp150.000000000244//22dumped.pdb
./eq_temp150.000000000244//23dumped.pdb
./eq_temp150.000000000244//25dumped.pdb
./eq_temp150.000000000244//26dumped.pdb
./eq_temp150.000000004506//81dumped.pdb
./eq_temp150.000000004506//82dumped.pdb
./eq_temp150.000000004506//83dumped.pdb
./eq_temp150.000000004506//84dumped.pdb
./eq_temp150.000000004506//85dumped.pdb
./eq_temp150.000000004506//86dumped.pdb
./eq_temp150.000000004506//87dumped.pdb
./eq_temp150.000000000666//49dumped.pdb
./eq_temp150.000000000666//50dumped.pdb
./eq_temp150.000000000666//51dumped.pdb
./eq_temp150.000000000666//52dumped.pdb
./eq_temp150.000000000666//53dumped.pdb
./eq_temp150.000000000666//54dumped.pdb
./eq_temp150.000000000666//55dumped.pdb
./eq_temp150.000000000666//58dumped.pdb
./eq_temp150.000000000666//59dumped.pdb
./eq_temp150.000000000666//60dumped.pdb
./eq_temp150.000000000666//61dumped.pdb
./eq_temp150.000000000666//62dumped.pdb
./eq_temp150.000000000666//63dumped.pdb
./eq_temp150.000000000666//64dumped.pdb
./eq_temp150.00000000477//144dumped.pdb
./eq_temp150.00000000477//145dumped.pdb
./eq_temp150.00000000477//146dumped.pdb
./eq_temp150.00000000477//147dumped.pdb
./eq_temp150.000000004906//18dumped.pdb
./eq_temp150.000000004906//19dumped.pdb
./eq_temp150.000000004906//20dumped.pdb
./eq_temp150.000000004906//21dumped.pdb
./eq_temp150.000000004906//22dumped.pdb
./eq_temp150.000000004906//23dumped.pdb
./eq_temp150.000000004906//24dumped.pdb
./eq_temp150.00000000039//16dumped.pdb
./eq_temp150.00000000039//17dumped.pdb
./eq_temp150.00000000039//18dumped.pdb
./eq_temp150.00000000039//20dumped.pdb
./eq_temp150.00000000039//21dumped.pdb
./eq_temp150.00000000039//22dumped.pdb
./eq_temp150.00000000039//23dumped.pdb
./eq_temp150.00000000039//24dumped.pdb
./eq_temp150.00000000039//25dumped.pdb
./eq_temp150.00000000001//151dumped.pdb
./eq_temp150.00000000054//107dumped.pdb
./eq_temp150.00000000054//108dumped.pdb
./eq_temp150.00000000054//109dumped.pdb
./eq_temp150.00000000054//110dumped.pdb
./eq_temp150.00000000054//112dumped.pdb
./eq_temp150.00000000054//113dumped.pdb
./eq_temp150.00000000054//114dumped.pdb
./eq_temp150.00000000054//115dumped.pdb
./eq_temp150.00000000054//116dumped.pdb
./eq_temp150.00000000054//117dumped.pdb
./eq_temp150.000000000321//79dumped.pdb
./eq_temp150.00000000012//61dumped.pdb
./eq_temp150.00000000012//62dumped.pdb
./eq_temp150.00000000012//63dumped.pdb
./eq_temp150.00000000012//64dumped.pdb
./eq_temp150.00000000012//65dumped.pdb
./eq_temp150.000000001456//85dumped.pdb
./eq_temp150.000000000325//394dumped.pdb
./eq_temp150.000000000325//395dumped.pdb
./eq_temp150.000000000325//396dumped.pdb
./eq_temp150.000000000325//397dumped.pdb
./eq_temp150.000000000325//398dumped.pdb
./eq_temp150.000000000325//399dumped.pdb
./eq_temp150.000000000325//400dumped.pdb
./eq_temp150.000000000325//401dumped.pdb
./eq_temp150.000000000325//402dumped.pdb
./eq_temp150.000000102753//14dumped.pdb
./eq_temp150.000000102753//15dumped.pdb
./eq_temp150.000000102753//16dumped.pdb
./eq_temp150.000000102753//17dumped.pdb
./eq_temp150.000000007237//35dumped.pdb
./eq_temp150.000000007237//36dumped.pdb
./eq_temp150.000000007237//37dumped.pdb
./eq_temp150.000000007237//38dumped.pdb
./eq_temp150.000000011908//46dumped.pdb
./eq_temp150.000000011908//47dumped.pdb
./eq_temp150.000000011908//48dumped.pdb
./eq_temp150.000000011908//49dumped.pdb
./eq_temp150.000000011908//50dumped.pdb
./eq_temp150.000000011908//51dumped.pdb
./eq_temp150.000000011908//52dumped.pdb
./eq_temp150.000000001545//193dumped.pdb
./eq_temp150.000000001545//194dumped.pdb
./eq_temp150.000000001545//195dumped.pdb
./eq_temp150.000000001545//196dumped.pdb
./eq_temp150.000000001545//197dumped.pdb
./eq_temp150.000000004063//42dumped.pdb
./eq_temp150.000000004063//43dumped.pdb
./eq_temp150.000000004063//44dumped.pdb
./eq_temp150.000000004063//45dumped.pdb
./eq_temp150.000000004063//46dumped.pdb
./eq_temp150.000000001032//13dumped.pdb
./eq_temp150.000000001032//14dumped.pdb
./eq_temp150.000000001032//15dumped.pdb
./eq_temp150.000000001032//16dumped.pdb
./eq_temp150.000000001032//17dumped.pdb
./eq_temp150.000000001032//18dumped.pdb
./eq_temp150.000000001032//19dumped.pdb
./eq_temp150.000000001032//20dumped.pdb
./eq_temp150.000000001032//23dumped.pdb
./eq_temp150.000000001032//24dumped.pdb
./eq_temp150.000000002303//118dumped.pdb
./eq_temp150.000000002303//119dumped.pdb
./eq_temp150.000000002303//120dumped.pdb
./eq_temp150.000000002303//121dumped.pdb
./eq_temp150.000000002303//122dumped.pdb
./eq_temp150.000000002303//123dumped.pdb
./eq_temp150.000000002523//11dumped.pdb
./eq_temp150.000000002523//12dumped.pdb
./eq_temp150.000000002523//13dumped.pdb
./eq_temp150.000000002523//14dumped.pdb
./eq_temp150.000000002523//15dumped.pdb
./eq_temp150.000000002523//16dumped.pdb
./eq_temp150.000000002523//17dumped.pdb
./eq_temp150.000000002523//18dumped.pdb
./eq_temp150.000000002523//20dumped.pdb
./eq_temp150.00000000066//163dumped.pdb
./eq_temp150.00000000066//164dumped.pdb
./eq_temp150.00000000066//165dumped.pdb
./eq_temp150.00000000066//166dumped.pdb
./eq_temp150.00000000066//167dumped.pdb
./eq_temp150.00000000066//168dumped.pdb
./eq_temp150.00000000066//169dumped.pdb
./eq_temp150.00000000066//170dumped.pdb
./eq_temp150.00000000066//171dumped.pdb
./eq_temp150.00000000066//172dumped.pdb
./eq_temp150.00000000066//173dumped.pdb
./eq_temp150.00000000066//174dumped.pdb
./eq_temp150.00000000066//175dumped.pdb
./eq_temp150.00000000066//177dumped.pdb
./eq_temp150.000000032512//26dumped.pdb
./eq_temp150.000000032512//27dumped.pdb
./eq_temp150.000000032512//28dumped.pdb
./eq_temp150.000000032512//29dumped.pdb
./eq_temp150.000000032512//30dumped.pdb
./eq_temp150.000000004723//470dumped.pdb
./eq_temp150.000000004723//471dumped.pdb
./eq_temp150.000000004723//472dumped.pdb
./eq_temp150.000000027664//189dumped.pdb
./eq_temp150.000000027664//190dumped.pdb
./eq_temp150.000000000302//77dumped.pdb
./eq_temp150.000000000302//78dumped.pdb
./eq_temp150.000000000302//79dumped.pdb
./eq_temp150.000000001165//69dumped.pdb
./eq_temp150.000000001165//70dumped.pdb
./eq_temp150.000000001165//71dumped.pdb
./eq_temp150.000000001165//73dumped.pdb
./eq_temp150.000000000103//93dumped.pdb
./eq_temp150.000000000103//94dumped.pdb
./eq_temp150.000000028876//144dumped.pdb
./eq_temp150.000000028876//145dumped.pdb
./eq_temp150.000000028876//146dumped.pdb
./eq_temp150.000000003052//502dumped.pdb
./eq_temp150.000000003052//503dumped.pdb
./eq_temp150.000000003052//504dumped.pdb
./eq_temp150.000000003052//505dumped.pdb
./eq_temp150.000000003052//506dumped.pdb
./eq_temp150.000000017968//118dumped.pdb
./eq_temp150.000000017968//119dumped.pdb
./eq_temp150.000000000474//97dumped.pdb
./eq_temp150.000000000474//98dumped.pdb
./eq_temp150.000000000474//99dumped.pdb
./eq_temp150.000000000474//100dumped.pdb
./eq_temp150.000000000474//101dumped.pdb
./eq_temp150.000000000474//102dumped.pdb
./eq_temp150.000000000474//103dumped.pdb
./eq_temp150.000000000474//104dumped.pdb
./eq_temp150.000000000474//105dumped.pdb
./eq_temp150.000000000474//106dumped.pdb
./eq_temp150.000000000474//107dumped.pdb
./eq_temp150.000000000474//108dumped.pdb
./eq_temp150.000000000474//109dumped.pdb
./eq_temp150.000000000474//110dumped.pdb
./eq_temp150.0000000035//99dumped.pdb
./eq_temp150.0000000035//100dumped.pdb
./eq_temp150.0000000035//101dumped.pdb
./eq_temp150.000000003378//320dumped.pdb
./eq_temp150.000000003378//321dumped.pdb
./eq_temp150.000000003378//322dumped.pdb
./eq_temp150.000000003378//323dumped.pdb
./eq_temp150.00000000023//27dumped.pdb
./eq_temp150.00000000023//28dumped.pdb
./eq_temp150.00000000023//29dumped.pdb
./eq_temp150.00000000023//30dumped.pdb
./eq_temp150.00000000023//31dumped.pdb
./eq_temp150.00000000023//32dumped.pdb
./eq_temp150.00000000023//33dumped.pdb
./eq_temp150.00000000023//34dumped.pdb
./eq_temp150.00000000023//36dumped.pdb
./eq_temp150.00000000023//37dumped.pdb
./eq_temp150.00000000023//38dumped.pdb
./eq_temp150.00000000073//536dumped.pdb
./eq_temp150.00000000073//537dumped.pdb
./eq_temp150.000000000263//16dumped.pdb
./eq_temp150.000000000263//17dumped.pdb
./eq_temp150.000000000263//18dumped.pdb
./eq_temp150.000000000263//19dumped.pdb
./eq_temp150.000000000263//20dumped.pdb
./eq_temp150.000000000589//183dumped.pdb
./eq_temp150.000000000589//184dumped.pdb
./eq_temp150.000000000589//185dumped.pdb
./eq_temp150.000000000589//186dumped.pdb
./eq_temp150.00000000058//140dumped.pdb
./eq_temp150.000000005023//330dumped.pdb
./eq_temp150.000000005023//331dumped.pdb
./eq_temp150.000000005023//332dumped.pdb
./eq_temp150.000000005023//333dumped.pdb
./eq_temp150.000000005023//334dumped.pdb
./eq_temp150.000000005023//335dumped.pdb
./eq_temp150.000000002203//106dumped.pdb
./eq_temp150.000000002203//107dumped.pdb
./eq_temp150.000000002203//108dumped.pdb
./eq_temp150.000000002203//109dumped.pdb
./eq_temp150.000000002203//110dumped.pdb
./eq_temp150.000000002203//111dumped.pdb
./eq_temp150.000000002203//112dumped.pdb
./eq_temp150.000000002203//113dumped.pdb
./eq_temp150.000000002203//114dumped.pdb
./eq_temp150.000000002203//115dumped.pdb
./eq_temp150.000000005406//228dumped.pdb
./eq_temp150.000000005406//229dumped.pdb
./eq_temp150.00000010423//151dumped.pdb
./eq_temp150.00000010423//152dumped.pdb
./eq_temp150.00000010423//153dumped.pdb
./eq_temp150.00000010423//154dumped.pdb
./eq_temp150.000000010696//75dumped.pdb
./eq_temp150.000000010696//76dumped.pdb
./eq_temp150.000000010696//77dumped.pdb
./eq_temp150.000000010696//78dumped.pdb
./eq_temp150.000000010696//79dumped.pdb
./eq_temp150.000000010696//80dumped.pdb
./eq_temp150.000000004234//53dumped.pdb
./eq_temp150.000000004234//54dumped.pdb
./eq_temp150.000000000129//95dumped.pdb
./eq_temp150.000000003962//5dumped.pdb
./eq_temp150.000000003962//6dumped.pdb
./eq_temp150.000000003962//7dumped.pdb
./eq_temp150.000000000551//239dumped.pdb
./eq_temp150.000000000551//240dumped.pdb
./eq_temp150.000000000551//241dumped.pdb
./eq_temp150.000000000551//242dumped.pdb
./eq_temp150.000000000551//243dumped.pdb
./eq_temp150.000000000551//244dumped.pdb
./eq_temp150.000000000551//245dumped.pdb
./eq_temp150.000000000551//246dumped.pdb
./eq_temp150.0000000005//194dumped.pdb
./eq_temp150.0000000005//195dumped.pdb
./eq_temp150.0000000005//196dumped.pdb
./eq_temp150.0000000005//197dumped.pdb
./eq_temp150.0000000005//198dumped.pdb
./eq_temp150.0000000005//199dumped.pdb
./eq_temp150.0000000005//200dumped.pdb
./eq_temp150.000000000001//256dumped.pdb
./eq_temp150.000000000001//257dumped.pdb
./eq_temp150.000000000001//258dumped.pdb
./eq_temp150.000000000001//259dumped.pdb
./eq_temp150.000000001069//134dumped.pdb
./eq_temp150.000000001069//135dumped.pdb
./eq_temp150.000000001069//136dumped.pdb
./eq_temp150.000000001069//137dumped.pdb
./eq_temp150.000000001069//138dumped.pdb
./eq_temp150.000000001069//139dumped.pdb
./eq_temp150.000000001069//140dumped.pdb
./eq_temp150.000000001069//141dumped.pdb
./eq_temp150.000000001069//142dumped.pdb
./eq_temp150.000000001069//143dumped.pdb
./eq_temp150.000000001069//144dumped.pdb
./eq_temp150.000000004039//113dumped.pdb
./eq_temp150.000000004039//114dumped.pdb
./eq_temp150.000000001803//89dumped.pdb
./eq_temp150.000000001803//90dumped.pdb
./eq_temp150.000000001803//91dumped.pdb
./eq_temp150.000000001803//92dumped.pdb
./eq_temp150.000000002278//33dumped.pdb
./eq_temp150.000000002278//34dumped.pdb
./eq_temp150.000000002278//36dumped.pdb
./eq_temp150.000000105074//44dumped.pdb
./eq_temp150.000000105074//45dumped.pdb
./eq_temp150.000000105074//46dumped.pdb
./eq_temp150.000000105074//47dumped.pdb
./eq_temp150.000000105074//48dumped.pdb
./eq_temp150.00000000025//274dumped.pdb
./eq_temp150.00000000025//275dumped.pdb
./eq_temp150.00000000025//276dumped.pdb
./eq_temp150.00000000025//277dumped.pdb
./eq_temp150.00000000025//278dumped.pdb
./eq_temp150.00000000025//279dumped.pdb
./eq_temp150.00000000025//280dumped.pdb
./eq_temp150.00000000025//281dumped.pdb
./eq_temp150.00000000025//282dumped.pdb
./eq_temp150.00000000025//285dumped.pdb
./eq_temp150.000000002767//95dumped.pdb
./eq_temp150.000000002767//96dumped.pdb
./eq_temp150.000000002767//97dumped.pdb
./eq_temp150.00000000077//25dumped.pdb
./eq_temp150.00000000077//26dumped.pdb
./eq_temp150.00000000077//27dumped.pdb
./eq_temp150.00000000077//28dumped.pdb
./eq_temp150.00000000077//29dumped.pdb
./eq_temp150.00000000077//31dumped.pdb
./eq_temp150.00000000077//32dumped.pdb
./eq_temp150.00000000077//33dumped.pdb
./eq_temp150.00000000077//34dumped.pdb
./eq_temp150.00000000077//35dumped.pdb
./eq_temp150.00000000077//36dumped.pdb
./eq_temp150.00000000011//83dumped.pdb
./eq_temp150.00000000011//84dumped.pdb
./eq_temp150.000000001002//162dumped.pdb
./eq_temp150.000000001002//163dumped.pdb
./eq_temp150.000000001002//164dumped.pdb
./eq_temp150.000000001002//165dumped.pdb
./eq_temp150.000000001002//166dumped.pdb
./eq_temp150.000000001002//168dumped.pdb
./eq_temp150.000000001002//171dumped.pdb
./eq_temp150.000000004205//199dumped.pdb
./eq_temp150.000000004205//200dumped.pdb
./eq_temp150.000000004205//201dumped.pdb
./eq_temp150.000000004205//202dumped.pdb
./eq_temp150.000000004205//203dumped.pdb
./eq_temp150.000000004205//204dumped.pdb
./eq_temp150.000000004205//205dumped.pdb
./eq_temp150.000000004205//206dumped.pdb
./eq_temp150.000000004205//207dumped.pdb
./eq_temp150.000000004205//208dumped.pdb
./eq_temp150.000000004205//209dumped.pdb
./eq_temp150.000000004205//210dumped.pdb
./eq_temp150.000000004205//211dumped.pdb
./eq_temp150.000000004205//212dumped.pdb
./eq_temp150.000000004205//213dumped.pdb
./eq_temp150.000000101909//41dumped.pdb
./eq_temp150.000000101909//42dumped.pdb
./eq_temp150.000000101909//43dumped.pdb
./eq_temp150.000000101909//44dumped.pdb
./eq_temp150.00000000052//40dumped.pdb
./eq_temp150.00000000052//41dumped.pdb
./eq_temp150.00000000052//42dumped.pdb
./eq_temp150.00000000052//43dumped.pdb
./eq_temp150.00000000052//44dumped.pdb
./eq_temp150.00000000052//45dumped.pdb
./eq_temp150.00000000052//46dumped.pdb
./eq_temp150.00000000052//47dumped.pdb
./eq_temp150.00000000052//48dumped.pdb
./eq_temp150.00000000052//49dumped.pdb
./eq_temp150.00000000052//50dumped.pdb
./eq_temp150.00000000052//51dumped.pdb
./eq_temp150.00000000052//52dumped.pdb
./eq_temp150.00000000052//53dumped.pdb
./eq_temp150.00000000052//54dumped.pdb
./eq_temp150.00000000052//55dumped.pdb
./eq_temp150.000000038572//31dumped.pdb
./eq_temp150.000000038572//32dumped.pdb
./eq_temp150.000000005884//43dumped.pdb
./eq_temp150.000000005884//44dumped.pdb
./eq_temp150.000000005884//45dumped.pdb
./eq_temp150.000000005884//46dumped.pdb
./eq_temp150.000000005884//47dumped.pdb
./eq_temp150.000000005884//48dumped.pdb
./eq_temp150.000000005884//49dumped.pdb
./eq_temp150.000000005884//51dumped.pdb
./eq_temp150.000000005884//52dumped.pdb
./eq_temp150.000000005884//53dumped.pdb
./eq_temp150.000000005884//56dumped.pdb
./eq_temp150.000000005884//58dumped.pdb
./eq_temp150.000000005884//60dumped.pdb
./eq_temp150.000000005884//61dumped.pdb
./eq_temp150.000000004356//67dumped.pdb
./eq_temp150.000000004356//68dumped.pdb
./eq_temp150.000000000398//71dumped.pdb
./eq_temp150.000000000398//72dumped.pdb
./eq_temp150.000000000398//73dumped.pdb
./eq_temp150.000000000398//74dumped.pdb
./eq_temp150.000000000398//75dumped.pdb
./eq_temp150.000000000398//76dumped.pdb
./eq_temp150.000000000398//77dumped.pdb
./eq_temp150.000000000398//79dumped.pdb
./eq_temp150.000000000398//82dumped.pdb
./eq_temp150.000000002504//134dumped.pdb
./eq_temp150.000000002504//135dumped.pdb
./eq_temp150.000000003254//164dumped.pdb
./eq_temp150.000000003254//165dumped.pdb
./eq_temp150.000000003254//166dumped.pdb
./eq_temp150.000000003254//169dumped.pdb
./eq_temp150.000000102331//971dumped.pdb
./eq_temp150.000000102331//972dumped.pdb
./eq_temp150.000000102331//973dumped.pdb
./eq_temp150.000000002446//151dumped.pdb
./eq_temp150.000000002446//152dumped.pdb
./eq_temp150.000000002446//153dumped.pdb
./eq_temp150.000000002446//154dumped.pdb
./eq_temp150.000000002446//156dumped.pdb
./eq_temp150.000000002446//159dumped.pdb
./eq_temp150.000000002446//161dumped.pdb
./eq_temp150.000000002446//162dumped.pdb
./eq_temp150.000000002446//163dumped.pdb
./eq_temp150.000000002446//164dumped.pdb
./eq_temp150.00000000009//77dumped.pdb
./eq_temp150.00000000009//78dumped.pdb
./eq_temp150.00000000009//79dumped.pdb
./eq_temp150.00000000009//80dumped.pdb
./eq_temp150.00000000009//81dumped.pdb
./eq_temp150.00000000009//82dumped.pdb
./eq_temp150.00000000009//83dumped.pdb
./eq_temp150.00000000009//84dumped.pdb
./eq_temp150.00000000009//85dumped.pdb
./eq_temp150.000000004105//102dumped.pdb
./eq_temp150.000000004105//103dumped.pdb
./eq_temp150.000000104652//177dumped.pdb
./eq_temp150.000000104652//178dumped.pdb
./eq_temp150.000000104652//179dumped.pdb
./eq_temp150.000000104652//180dumped.pdb
./eq_temp150.000000001579//10dumped.pdb
./eq_temp150.000000001579//11dumped.pdb
./eq_temp150.000000001579//12dumped.pdb
./eq_temp150.000000001579//13dumped.pdb
./eq_temp150.000000001579//17dumped.pdb
./eq_temp150.000000001579//18dumped.pdb
./eq_temp150.000000001579//19dumped.pdb
./eq_temp150.000000001579//20dumped.pdb
./eq_temp150.000000003505//173dumped.pdb
./eq_temp150.000000003505//174dumped.pdb
./eq_temp150.000000003505//175dumped.pdb
./eq_temp150.000000003505//176dumped.pdb
./eq_temp150.000000003505//177dumped.pdb
./eq_temp150.000000003505//178dumped.pdb
./eq_temp150.000000003505//179dumped.pdb
./eq_temp150.000000003505//181dumped.pdb
./eq_temp150.000000101487//88dumped.pdb
./eq_temp150.000000101487//89dumped.pdb
./eq_temp150.000000101487//90dumped.pdb
./eq_temp150.000000101487//91dumped.pdb
./eq_temp150.000000003055//109dumped.pdb
./eq_temp150.000000003055//110dumped.pdb
./eq_temp150.000000003055//111dumped.pdb
./eq_temp150.000000003055//112dumped.pdb
./eq_temp150.000000003055//113dumped.pdb
./eq_temp150.000000003055//114dumped.pdb
./eq_temp150.000000000052//52dumped.pdb
./eq_temp150.000000001088//93dumped.pdb
./eq_temp150.00000000006//88dumped.pdb
./eq_temp150.00000000006//89dumped.pdb
./eq_temp150.00000000006//90dumped.pdb
./eq_temp150.000000002648//196dumped.pdb
./eq_temp150.000000002648//197dumped.pdb
./eq_temp150.000000002648//198dumped.pdb
./eq_temp150.000000002648//199dumped.pdb
./eq_temp150.000000002648//201dumped.pdb
./eq_temp150.00000002524//150dumped.pdb
./eq_temp150.00000002524//151dumped.pdb
./eq_temp150.00000002524//152dumped.pdb
./eq_temp150.00000002524//153dumped.pdb
./eq_temp150.00000002524//154dumped.pdb
./eq_temp150.00000002524//155dumped.pdb
./eq_temp150.00000002524//156dumped.pdb
./eq_temp150.00000002524//157dumped.pdb
./eq_temp150.00000002524//158dumped.pdb
./eq_temp150.00000002524//159dumped.pdb
./eq_temp150.00000000062//652dumped.pdb
./eq_temp150.00000000074//729dumped.pdb
./eq_temp150.00000000074//730dumped.pdb
./eq_temp150.00000000074//731dumped.pdb
./eq_temp150.00000000074//732dumped.pdb
./eq_temp150.00000000074//733dumped.pdb
./eq_temp150.00000000074//734dumped.pdb
./eq_temp150.00000000074//735dumped.pdb
./eq_temp150.00000000074//736dumped.pdb
./eq_temp150.000000002889//11dumped.pdb
./eq_temp150.000000002889//289dumped.pdb
./eq_temp150.000000002889//290dumped.pdb
./eq_temp150.000000002889//291dumped.pdb
./eq_temp150.000000000513//42dumped.pdb
./eq_temp150.000000000513//43dumped.pdb
./eq_temp150.000000000513//44dumped.pdb
./eq_temp150.000000000513//45dumped.pdb
./eq_temp150.000000000513//46dumped.pdb
./eq_temp150.000000002071//53dumped.pdb
./eq_temp150.000000002071//54dumped.pdb
./eq_temp150.000000002071//55dumped.pdb
./eq_temp150.000000003204//253dumped.pdb
./eq_temp150.000000003204//254dumped.pdb
./eq_temp150.000000105918//10dumped.pdb
./eq_temp150.000000105918//11dumped.pdb
./eq_temp150.000000105918//12dumped.pdb
./eq_temp150.000000105918//13dumped.pdb
./eq_temp150.000000105918//14dumped.pdb
./eq_temp150.000000105918//15dumped.pdb
./eq_temp150.00000000038//326dumped.pdb
./eq_temp150.00000000038//327dumped.pdb
./eq_temp150.0000000003//393dumped.pdb
./eq_temp150.00000000028//133dumped.pdb
./eq_temp150.00000000028//134dumped.pdb
./eq_temp150.00000000028//135dumped.pdb
./eq_temp150.00000000028//136dumped.pdb
./eq_temp150.00000000028//137dumped.pdb
./eq_temp150.00000000028//138dumped.pdb
./eq_temp150.00000000028//139dumped.pdb
./eq_temp150.00000000028//140dumped.pdb
./eq_temp150.00000000028//141dumped.pdb
./eq_temp150.0000000024//133dumped.pdb
./eq_temp150.0000000024//134dumped.pdb
./eq_temp150.000000005807//53dumped.pdb
./eq_temp150.000000005807//54dumped.pdb
./eq_temp150.000000005807//55dumped.pdb
./eq_temp150.000000005807//56dumped.pdb
./eq_temp150.000000005807//57dumped.pdb
./eq_temp150.000000005807//58dumped.pdb
./eq_temp150.000000005807//59dumped.pdb
./eq_temp150.000000005807//60dumped.pdb
./eq_temp150.000000005807//61dumped.pdb
./eq_temp150.000000005807//62dumped.pdb
./eq_temp150.000000001903//123dumped.pdb
./eq_temp150.000000001903//124dumped.pdb
./eq_temp150.000000001903//125dumped.pdb
./eq_temp150.000000001903//126dumped.pdb
./eq_temp150.000000001903//127dumped.pdb
./eq_temp150.000000001903//128dumped.pdb
./eq_temp150.000000001903//129dumped.pdb
./eq_temp150.000000001903//130dumped.pdb
./eq_temp150.000000001703//9dumped.pdb
./eq_temp150.000000001703//10dumped.pdb
./eq_temp150.000000001703//11dumped.pdb
./eq_temp150.000000001703//12dumped.pdb
./eq_temp150.000000001703//13dumped.pdb
./eq_temp150.000000001703//16dumped.pdb
./eq_temp150.000000001703//17dumped.pdb
./eq_temp150.000000001703//18dumped.pdb
./eq_temp150.000000001436//45dumped.pdb
./eq_temp150.000000001436//46dumped.pdb
./eq_temp150.000000001436//47dumped.pdb
./eq_temp150.000000001436//48dumped.pdb
./eq_temp150.000000001436//49dumped.pdb
./eq_temp150.000000001436//51dumped.pdb
./eq_temp150.000000003301//106dumped.pdb
./eq_temp150.000000003301//107dumped.pdb
./eq_temp150.000000006745//9dumped.pdb
./eq_temp150.000000006745//10dumped.pdb
./eq_temp150.000000006745//11dumped.pdb
./eq_temp150.000000006745//12dumped.pdb
./eq_temp150.000000003745//452dumped.pdb
./eq_temp150.000000003745//453dumped.pdb
./eq_temp150.000000003745//454dumped.pdb
./eq_temp150.000000002645//7dumped.pdb
./eq_temp150.000000002645//8dumped.pdb
./eq_temp150.000000002645//9dumped.pdb
./eq_temp150.000000002645//10dumped.pdb
./eq_temp150.000000002645//11dumped.pdb
./eq_temp150.000000002645//12dumped.pdb
./eq_temp150.000000000206//36dumped.pdb
./eq_temp150.000000000206//37dumped.pdb
./eq_temp150.000000000206//38dumped.pdb
./eq_temp150.000000000206//39dumped.pdb
./eq_temp150.000000003805//743dumped.pdb
./eq_temp150.000000003805//744dumped.pdb
./eq_temp150.000000003805//745dumped.pdb
./eq_temp150.000000004408//516dumped.pdb
./eq_temp150.000000004408//517dumped.pdb
./eq_temp150.000000004408//518dumped.pdb
./eq_temp150.000000004408//519dumped.pdb
./eq_temp150.000000004408//520dumped.pdb
./eq_temp150.000000004408//521dumped.pdb
./eq_temp150.000000004408//522dumped.pdb
./eq_temp150.000000004408//523dumped.pdb
./eq_temp150.000000004467//45dumped.pdb
./eq_temp150.000000004467//46dumped.pdb
./eq_temp150.000000004467//47dumped.pdb
./eq_temp150.000000004467//48dumped.pdb
./eq_temp150.000000004467//49dumped.pdb
./eq_temp150.000000004467//50dumped.pdb
./eq_temp150.000000004467//51dumped.pdb
./eq_temp150.000000005269//121dumped.pdb
./eq_temp150.000000005269//122dumped.pdb
./eq_temp150.000000005269//124dumped.pdb
./eq_temp150.000000000101//92dumped.pdb
./eq_temp150.000000000101//93dumped.pdb
./eq_temp150.000000000101//94dumped.pdb
./eq_temp150.000000000101//95dumped.pdb
./eq_temp150.000000000101//96dumped.pdb
./eq_temp150.000000000101//97dumped.pdb
./eq_temp150.000000000101//101dumped.pdb
./eq_temp150.000000000101//102dumped.pdb
./eq_temp150.000000000101//103dumped.pdb
./eq_temp150.000000000101//105dumped.pdb
./eq_temp150.000000000101//106dumped.pdb
./eq_temp150.000000000101//107dumped.pdb
./eq_temp150.000000005515//11dumped.pdb
./eq_temp150.000000005515//12dumped.pdb
./eq_temp150.000000005515//13dumped.pdb
./eq_temp150.000000005515//14dumped.pdb
./eq_temp150.000000005515//15dumped.pdb
./eq_temp150.000000005515//16dumped.pdb
./eq_temp150.000000005515//17dumped.pdb
./eq_temp150.000000004972//126dumped.pdb
./eq_temp150.000000001911//129dumped.pdb
./eq_temp150.000000001911//130dumped.pdb
./eq_temp150.000000001911//131dumped.pdb
./eq_temp150.000000001911//132dumped.pdb
./eq_temp150.000000009484//7dumped.pdb
./eq_temp150.000000009484//8dumped.pdb
./eq_temp150.000000009484//9dumped.pdb
./eq_temp150.000000009484//10dumped.pdb
./eq_temp150.000000009484//11dumped.pdb
./eq_temp150.000000009484//12dumped.pdb
./eq_temp150.00000000019//64dumped.pdb
./eq_temp150.00000000019//65dumped.pdb
./eq_temp150.00000000019//67dumped.pdb
./eq_temp150.00000000019//68dumped.pdb
./eq_temp150.000000000973//18dumped.pdb
./eq_temp150.000000000973//19dumped.pdb
./eq_temp150.000000000973//20dumped.pdb
./eq_temp150.000000000973//21dumped.pdb
./eq_temp150.000000000973//22dumped.pdb
./eq_temp150.000000000724//24dumped.pdb
./eq_temp150.000000000724//25dumped.pdb
./eq_temp150.000000000724//26dumped.pdb
./eq_temp150.000000005106//160dumped.pdb
./eq_temp150.000000001422//74dumped.pdb
./eq_temp150.000000001422//75dumped.pdb
./eq_temp150.000000001422//76dumped.pdb
./eq_temp150.000000001422//77dumped.pdb
./eq_temp150.000000001422//78dumped.pdb
./eq_temp150.000000001422//79dumped.pdb
./eq_temp150.000000001422//80dumped.pdb
./eq_temp150.000000000033//265dumped.pdb
./eq_temp150.000000000033//266dumped.pdb
./eq_temp150.000000000033//267dumped.pdb
./eq_temp150.000000000033//268dumped.pdb
./eq_temp150.000000000033//269dumped.pdb
./eq_temp150.000000000033//270dumped.pdb
./eq_temp150.000000000033//271dumped.pdb
./eq_temp150.000000036148//84dumped.pdb
./eq_temp150.000000036148//85dumped.pdb
./eq_temp150.000000036148//86dumped.pdb
./eq_temp150.000000036148//87dumped.pdb
./eq_temp150.000000036148//88dumped.pdb
./eq_temp150.000000036148//96dumped.pdb
./eq_temp150.000000004871//250dumped.pdb
./eq_temp150.000000004871//251dumped.pdb
./eq_temp150.000000004871//252dumped.pdb
./eq_temp150.000000004871//253dumped.pdb
./eq_temp150.000000004871//254dumped.pdb
./eq_temp150.000000004871//255dumped.pdb
./eq_temp150.000000004871//256dumped.pdb
./eq_temp150.000000004871//257dumped.pdb
./eq_temp150.000000004871//258dumped.pdb
./eq_temp150.000000001302//339dumped.pdb
./eq_temp150.000000001302//340dumped.pdb
./eq_temp150.000000001302//341dumped.pdb
./eq_temp150.000000000743//332dumped.pdb
./eq_temp150.000000000743//333dumped.pdb
./eq_temp150.000000000743//334dumped.pdb
./eq_temp150.000000000743//335dumped.pdb
./eq_temp150.000000000743//336dumped.pdb
./eq_temp150.000000000743//337dumped.pdb
./eq_temp150.000000003989//46dumped.pdb
./eq_temp150.000000002804//87dumped.pdb
./eq_temp150.000000002804//88dumped.pdb
./eq_temp150.000000002804//89dumped.pdb
./eq_temp150.000000002804//90dumped.pdb
./eq_temp150.000000002804//91dumped.pdb
./eq_temp150.0000000004//5dumped.pdb
./eq_temp150.0000000004//6dumped.pdb
./eq_temp150.0000000004//7dumped.pdb
./eq_temp150.0000000004//8dumped.pdb
./eq_temp150.000000005376//23dumped.pdb
./eq_temp150.000000005376//24dumped.pdb
./eq_temp150.000000005376//25dumped.pdb
./eq_temp150.000000005376//26dumped.pdb
./eq_temp150.000000005376//27dumped.pdb
./eq_temp150.000000005376//28dumped.pdb
./eq_temp150.000000005376//29dumped.pdb
./eq_temp150.000000005376//30dumped.pdb
./eq_temp150.000000005376//31dumped.pdb
./eq_temp150.000000005376//32dumped.pdb
./eq_temp150.000000005376//33dumped.pdb
./eq_temp150.000000005376//34dumped.pdb
./eq_temp150.000000005376//36dumped.pdb
./eq_temp150.000000005376//37dumped.pdb
./eq_temp150.000000005376//38dumped.pdb
./eq_temp150.000000005376//39dumped.pdb
./eq_temp150.000000005376//40dumped.pdb
./eq_temp150.000000000841//28dumped.pdb
./eq_temp150.000000000841//29dumped.pdb
./eq_temp150.00000000017//406dumped.pdb
./eq_temp150.00000000017//407dumped.pdb
./eq_temp150.00000000017//408dumped.pdb
./eq_temp150.00000000017//409dumped.pdb
./eq_temp150.000000001739//281dumped.pdb
./eq_temp150.000000001739//282dumped.pdb
./eq_temp150.000000001739//283dumped.pdb
./eq_temp150.000000001739//284dumped.pdb
./eq_temp150.0000000007//168dumped.pdb
./eq_temp150.0000000007//169dumped.pdb
./eq_temp150.0000000007//170dumped.pdb
./eq_temp150.000000001202//31dumped.pdb
./eq_temp150.000000001202//32dumped.pdb
./eq_temp150.000000001202//33dumped.pdb
./eq_temp150.000000001202//34dumped.pdb
./eq_temp150.000000000436//4dumped.pdb
./eq_temp150.000000104019//117dumped.pdb
./eq_temp150.000000104019//118dumped.pdb
./eq_temp150.000000104019//119dumped.pdb
./eq_temp150.00000000067//543dumped.pdb
./eq_temp150.00000000067//544dumped.pdb
./eq_temp150.00000000067//545dumped.pdb
./eq_temp150.00000000067//546dumped.pdb
./eq_temp150.00000000067//547dumped.pdb
./eq_temp150.00000000067//548dumped.pdb
./eq_temp150.00000000067//549dumped.pdb
./eq_temp150.00000000067//550dumped.pdb
./eq_temp150.00000000048//121dumped.pdb
./eq_temp150.00000000048//122dumped.pdb
./eq_temp150.00000000055//137dumped.pdb
./eq_temp150.00000000055//138dumped.pdb
./eq_temp150.00000000055//139dumped.pdb
./eq_temp150.00000000071//2dumped.pdb
./eq_temp150.00000000071//3dumped.pdb
./eq_temp150.00000000071//4dumped.pdb
./eq_temp150.00000000071//5dumped.pdb
./eq_temp150.00000000071//6dumped.pdb
./eq_temp150.00000000071//7dumped.pdb
./eq_temp150.00000000071//8dumped.pdb
./eq_temp150.00000000071//10dumped.pdb
./eq_temp150.000000005848//62dumped.pdb
./eq_temp150.000000005848//63dumped.pdb
./eq_temp150.000000005848//64dumped.pdb
./eq_temp150.000000005848//65dumped.pdb
./eq_temp150.000000005848//66dumped.pdb
./eq_temp150.000000005848//67dumped.pdb
./eq_temp150.000000001702//233dumped.pdb
./eq_temp150.000000001702//234dumped.pdb
./eq_temp150.000000001702//235dumped.pdb
./eq_temp150.000000001702//236dumped.pdb
./eq_temp150.000000001702//237dumped.pdb
./eq_temp150.000000001702//238dumped.pdb
./eq_temp150.000000001702//239dumped.pdb
./eq_temp150.000000001702//240dumped.pdb
./eq_temp150.000000001702//241dumped.pdb
./eq_temp150.000000001702//242dumped.pdb
./eq_temp150.000000001702//243dumped.pdb
./eq_temp150.000000001702//244dumped.pdb
./eq_temp150.000000001702//245dumped.pdb
./eq_temp150.000000001702//246dumped.pdb
./eq_temp150.000000001702//247dumped.pdb
./eq_temp150.000000000201//244dumped.pdb
./eq_temp150.000000000201//245dumped.pdb
./eq_temp150.000000000201//246dumped.pdb
./eq_temp150.000000000201//247dumped.pdb
./eq_temp150.000000000201//248dumped.pdb
./eq_temp150.000000000201//249dumped.pdb
./eq_temp150.000000000201//250dumped.pdb
./eq_temp150.000000000201//253dumped.pdb
./eq_temp150.000000005275//116dumped.pdb
./eq_temp150.000000005275//117dumped.pdb
./eq_temp150.000000105496//190dumped.pdb
./eq_temp150.000000105496//191dumped.pdb
./eq_temp150.000000006253//173dumped.pdb
./eq_temp150.000000006253//174dumped.pdb
./eq_temp150.000000006253//175dumped.pdb
./eq_temp150.000000006253//176dumped.pdb
./eq_temp150.000000006253//177dumped.pdb
./eq_temp150.000000006253//178dumped.pdb
./eq_temp150.000000006253//179dumped.pdb
./eq_temp150.000000006253//180dumped.pdb
./eq_temp150.000000006253//181dumped.pdb
./eq_temp150.000000006253//182dumped.pdb
./eq_temp150.000000006253//183dumped.pdb
./eq_temp150.00000000061//425dumped.pdb
./eq_temp150.00000000061//499dumped.pdb
./eq_temp150.00000000061//500dumped.pdb
./eq_temp150.00000000061//501dumped.pdb
./eq_temp150.00000000061//502dumped.pdb
./eq_temp150.00000000064//156dumped.pdb
./eq_temp150.00000000064//157dumped.pdb
./eq_temp150.000000001107//67dumped.pdb
./eq_temp150.000000001107//68dumped.pdb
./eq_temp150.000000001107//69dumped.pdb
./eq_temp150.000000001107//70dumped.pdb
./eq_temp150.000000001107//71dumped.pdb
./eq_temp150.000000001107//72dumped.pdb
./eq_temp150.000000001941//458dumped.pdb
./eq_temp150.000000001941//459dumped.pdb
./eq_temp150.000000001941//460dumped.pdb
./eq_temp150.000000001941//461dumped.pdb
./eq_temp150.000000002951//86dumped.pdb
./eq_temp150.000000002951//87dumped.pdb
./eq_temp150.000000002951//88dumped.pdb
./eq_temp150.000000000455//198dumped.pdb
./eq_temp150.000000000455//199dumped.pdb
./eq_temp150.000000000455//200dumped.pdb
./eq_temp150.000000000455//201dumped.pdb
./eq_temp150.000000000455//202dumped.pdb
./eq_temp150.000000000455//203dumped.pdb
./eq_temp150.000000000455//204dumped.pdb
./eq_temp150.000000000455//205dumped.pdb
./eq_temp150.000000000455//206dumped.pdb
./eq_temp150.000000000455//207dumped.pdb
./eq_temp150.000000000455//208dumped.pdb
./eq_temp150.000000000455//209dumped.pdb
./eq_temp150.000000000455//210dumped.pdb
./eq_temp150.000000003178//234dumped.pdb
./eq_temp150.000000003178//235dumped.pdb
./eq_temp150.000000003178//236dumped.pdb
./eq_temp150.000000003178//237dumped.pdb
./eq_temp150.000000003178//238dumped.pdb
./eq_temp150.000000002345//241dumped.pdb
./eq_temp150.000000002345//242dumped.pdb
./eq_temp150.000000002345//243dumped.pdb
./eq_temp150.000000002345//244dumped.pdb
./eq_temp150.000000005578//372dumped.pdb
./eq_temp150.000000005578//408dumped.pdb
./eq_temp150.000000005578//409dumped.pdb
./eq_temp150.000000005578//410dumped.pdb
./eq_temp150.000000005578//411dumped.pdb
./eq_temp150.000000005578//413dumped.pdb
./eq_temp150.000000005578//415dumped.pdb
./eq_temp150.00000000078//108dumped.pdb
./eq_temp150.00000000078//110dumped.pdb
./eq_temp150.00000000078//111dumped.pdb
./eq_temp150.000000015544//695dumped.pdb
./eq_temp150.000000015544//696dumped.pdb
./eq_temp150.000000015544//697dumped.pdb
./eq_temp150.000000015544//698dumped.pdb
./eq_temp150.000000015544//699dumped.pdb
./eq_temp150.000000015544//700dumped.pdb
./eq_temp150.000000015544//701dumped.pdb
./eq_temp150.000000015544//702dumped.pdb
./eq_temp150.000000004164//208dumped.pdb
./eq_temp150.000000004164//209dumped.pdb
./eq_temp150.000000004164//210dumped.pdb
./eq_temp150.000000004164//211dumped.pdb
./eq_temp150.000000004164//212dumped.pdb
./eq_temp150.000000004164//213dumped.pdb
./eq_temp150.000000004164//214dumped.pdb
./eq_temp150.000000004164//215dumped.pdb
./eq_temp150.000000004164//216dumped.pdb
./eq_temp150.000000004164//217dumped.pdb
./eq_temp150.000000004164//218dumped.pdb
./eq_temp150.000000004654//100dumped.pdb
./eq_temp150.000000004654//101dumped.pdb
./eq_temp150.000000004654//102dumped.pdb
./eq_temp150.000000004654//103dumped.pdb
./eq_temp150.000000005477//168dumped.pdb
./eq_temp150.000000005477//169dumped.pdb
./eq_temp150.000000005477//172dumped.pdb
./eq_temp150.000000000123//26dumped.pdb
./eq_temp150.000000000123//27dumped.pdb
./eq_temp150.000000004636//58dumped.pdb
./eq_temp150.000000004636//59dumped.pdb
./eq_temp150.000000004636//60dumped.pdb
./eq_temp150.000000004636//61dumped.pdb
./eq_temp150.000000004636//63dumped.pdb
./eq_temp150.000000004636//65dumped.pdb
./eq_temp150.000000004777//153dumped.pdb
./eq_temp150.000000004405//9dumped.pdb
./eq_temp150.000000004405//10dumped.pdb
./eq_temp150.000000004405//11dumped.pdb
./eq_temp150.000000004405//12dumped.pdb
./eq_temp150.000000002904//87dumped.pdb
./eq_temp150.000000002904//88dumped.pdb
./eq_temp150.000000002904//89dumped.pdb
./eq_temp150.000000002904//90dumped.pdb
./eq_temp150.000000002904//91dumped.pdb
./eq_temp150.000000002904//92dumped.pdb
./eq_temp150.000000002904//93dumped.pdb
./eq_temp150.000000002904//94dumped.pdb
./eq_temp150.000000000704//31dumped.pdb
./eq_temp150.000000000704//32dumped.pdb
./eq_temp150.000000000704//33dumped.pdb
./eq_temp150.000000000704//34dumped.pdb
./eq_temp150.000000000704//35dumped.pdb
./eq_temp150.000000000704//36dumped.pdb
./eq_temp150.000000000704//37dumped.pdb
./eq_temp150.000000000704//38dumped.pdb
./eq_temp150.000000000704//39dumped.pdb
./eq_temp150.000000000704//40dumped.pdb
./eq_temp150.000000000704//41dumped.pdb
./eq_temp150.000000000704//42dumped.pdb
./eq_temp150.000000000704//43dumped.pdb
./eq_temp150.000000000704//44dumped.pdb
./eq_temp150.000000000704//45dumped.pdb
./eq_temp150.00000000043//34dumped.pdb
./eq_temp150.00000000043//128dumped.pdb
./eq_temp150.00000000043//129dumped.pdb
./eq_temp150.00000000043//130dumped.pdb
./eq_temp150.00000000043//131dumped.pdb
./eq_temp150.000000000992//84dumped.pdb
./eq_temp150.000000000992//85dumped.pdb
./eq_temp150.000000000992//86dumped.pdb
./eq_temp150.000000000992//87dumped.pdb
./eq_temp150.000000000992//88dumped.pdb
./eq_temp150.000000000992//89dumped.pdb
./eq_temp150.000000000992//92dumped.pdb
./eq_temp150.000000103386//284dumped.pdb
./eq_temp150.000000103386//285dumped.pdb
./eq_temp150.000000103386//286dumped.pdb
./eq_temp150.00000000105//546dumped.pdb
./eq_temp150.00000000105//547dumped.pdb
./eq_temp150.00000000105//548dumped.pdb
./eq_temp150.00000000105//549dumped.pdb
./eq_temp150.00000000105//550dumped.pdb
./eq_temp150.00000000105//551dumped.pdb
./eq_temp150.00000000105//552dumped.pdb
./eq_temp150.00000000105//554dumped.pdb
./eq_temp150.000000003905//450dumped.pdb
./eq_temp150.000000000702//77dumped.pdb
./eq_temp150.000000000702//78dumped.pdb
./eq_temp150.000000000702//79dumped.pdb
./eq_temp150.00000000059//138dumped.pdb
./eq_temp150.00000000059//139dumped.pdb
./eq_temp150.00000000059//140dumped.pdb
./eq_temp150.00000000059//141dumped.pdb
./eq_temp150.00000000059//143dumped.pdb
./test/eq_temp150.000000000091//16dumped.pdb
./test/eq_temp150.00000000001//151dumped.pdb
./test/eq_temp150.000000000001//256dumped.pdb
./test/eq_temp150.000000000001//257dumped.pdb
./test/eq_temp150.000000000001//258dumped.pdb
./test/eq_temp150.000000000001//259dumped.pdb
./test/eq_temp150.00000000009//77dumped.pdb
./test/eq_temp150.00000000009//78dumped.pdb
./test/eq_temp150.00000000009//79dumped.pdb
./test/eq_temp150.00000000009//80dumped.pdb
./test/eq_temp150.00000000009//81dumped.pdb
./test/eq_temp150.00000000009//82dumped.pdb
./test/eq_temp150.00000000009//83dumped.pdb
./test/eq_temp150.00000000009//84dumped.pdb
./test/eq_temp150.00000000009//85dumped.pdb
./test/eq_temp150.000000000052//52dumped.pdb
./test/eq_temp150.00000000006//88dumped.pdb
./test/eq_temp150.00000000006//89dumped.pdb
./test/eq_temp150.00000000006//90dumped.pdb
./test/eq_temp150.000000000033//265dumped.pdb
./test/eq_temp150.000000000033//266dumped.pdb
./test/eq_temp150.000000000033//267dumped.pdb
./test/eq_temp150.000000000033//268dumped.pdb
./test/eq_temp150.000000000033//269dumped.pdb
./test/eq_temp150.000000000033//270dumped.pdb
./test/eq_temp150.000000000033//271dumped.pdb
./test/eq_temp150.000000000014//5dumped.pdb
./test/eq_temp150.000000000014//6dumped.pdb
./eq_temp150.000000000602//123dumped.pdb
./eq_temp150.000000000602//124dumped.pdb
./eq_temp150.000000001825//54dumped.pdb
./eq_temp150.000000001825//55dumped.pdb
./eq_temp150.000000001825//56dumped.pdb
./eq_temp150.000000001825//57dumped.pdb
./eq_temp150.000000001825//58dumped.pdb
./eq_temp150.000000000935//287dumped.pdb
./eq_temp150.000000000935//288dumped.pdb
./eq_temp150.000000000935//289dumped.pdb
./eq_temp150.000000000964//514dumped.pdb
./eq_temp150.000000000964//515dumped.pdb
./eq_temp150.000000000964//516dumped.pdb
./eq_temp150.000000000964//517dumped.pdb
./eq_temp150.000000000964//518dumped.pdb
./eq_temp150.000000000964//519dumped.pdb
./eq_temp150.000000000014//10dumped.pdb
./eq_temp150.000000000014//11dumped.pdb
./eq_temp150.000000000014//12dumped.pdb
./eq_temp150.000000000595//376dumped.pdb
./eq_temp150.000000000595//377dumped.pdb
./eq_temp150.000000000595//378dumped.pdb
./eq_temp150.000000000595//379dumped.pdb
./eq_temp150.000000000595//380dumped.pdb
./eq_temp150.000000000595//381dumped.pdb
./eq_temp150.000000001402//16dumped.pdb
./eq_temp150.000000001402//17dumped.pdb
./eq_temp150.000000001402//18dumped.pdb
./eq_temp150.000000001402//19dumped.pdb
./eq_temp150.00000001918//20dumped.pdb
./eq_temp150.00000001918//21dumped.pdb
./eq_temp150.00000001918//22dumped.pdb
./eq_temp150.00000001918//23dumped.pdb
./eq_temp150.00000000036//609dumped.pdb
./eq_temp150.00000000036//610dumped.pdb
./eq_temp150.00000000036//611dumped.pdb
./eq_temp150.00000000036//613dumped.pdb
./eq_temp150.000000000378//108dumped.pdb
./eq_temp150.000000000378//109dumped.pdb
./eq_temp150.000000000378//110dumped.pdb
./eq_temp150.000000000378//111dumped.pdb
./eq_temp150.000000000378//112dumped.pdb
./eq_temp150.000000003867//82dumped.pdb
./eq_temp150.000000003867//83dumped.pdb
./eq_temp150.000000003867//84dumped.pdb
./eq_temp150.000000003867//85dumped.pdb
./eq_temp150.000000003867//86dumped.pdb
./eq_temp150.000000003867//87dumped.pdb
./eq_temp150.000000000839//240dumped.pdb
./eq_temp150.000000000839//241dumped.pdb
./eq_temp150.000000000839//242dumped.pdb
./eq_temp150.000000000839//243dumped.pdb
./eq_temp150.000000000839//244dumped.pdb
./eq_temp150.000000000839//245dumped.pdb
./eq_temp150.000000000839//246dumped.pdb
./eq_temp150.000000000839//247dumped.pdb
./eq_temp150.000000001031//226dumped.pdb
./eq_temp150.000000001031//227dumped.pdb
./eq_temp150.000000001031//228dumped.pdb
./eq_temp150.000000001031//229dumped.pdb
./eq_temp150.000000001031//230dumped.pdb
./eq_temp150.000000001031//231dumped.pdb
./eq_temp150.000000001031//232dumped.pdb
./eq_temp150.000000006083//15dumped.pdb
./eq_temp150.000000006083//16dumped.pdb
./eq_temp150.000000006083//17dumped.pdb
./eq_temp150.000000006083//18dumped.pdb
./eq_temp150.000000006083//19dumped.pdb
./eq_temp150.000000006083//20dumped.pdb
./eq_temp150.000000006083//21dumped.pdb
./eq_temp150.000000006083//22dumped.pdb
./eq_temp150.000000006083//23dumped.pdb
./eq_temp150.000000006083//24dumped.pdb
./eq_temp150.000000006083//25dumped.pdb
./eq_temp150.000000006083//26dumped.pdb
