./eq_temp150.000000105707//45dumped.pdb
./eq_temp150.000000105707//46dumped.pdb
./eq_temp150.000000105707//47dumped.pdb
./eq_temp150.000000105707//48dumped.pdb
./eq_temp150.000000105707//49dumped.pdb
./eq_temp150.000000105707//50dumped.pdb
./eq_temp150.000000105707//51dumped.pdb
./eq_temp150.000000105707//52dumped.pdb
./eq_temp150.000000105707//53dumped.pdb
./eq_temp150.000000105707//54dumped.pdb
./eq_temp150.000000105707//55dumped.pdb
./eq_temp150.000000105707//56dumped.pdb
./eq_temp150.000000105707//57dumped.pdb
./eq_temp150.000000105707//58dumped.pdb
./eq_temp150.000000105707//59dumped.pdb
./eq_temp150.000000105707//60dumped.pdb
./eq_temp150.000000105707//61dumped.pdb
./eq_temp150.000000105707//62dumped.pdb
./eq_temp150.000000105707//63dumped.pdb
./eq_temp150.000000105707//64dumped.pdb
./eq_temp150.000000000931//57dumped.pdb
./eq_temp150.000000000931//58dumped.pdb
./eq_temp150.000000000931//59dumped.pdb
./eq_temp150.000000000931//60dumped.pdb
./eq_temp150.000000000931//61dumped.pdb
./eq_temp150.000000000931//62dumped.pdb
./eq_temp150.000000000931//63dumped.pdb
./eq_temp150.000000000931//64dumped.pdb
./eq_temp150.000000000931//65dumped.pdb
./eq_temp150.000000000931//66dumped.pdb
./eq_temp150.000000000931//67dumped.pdb
./eq_temp150.000000000931//68dumped.pdb
./eq_temp150.000000000931//69dumped.pdb
./eq_temp150.000000000931//70dumped.pdb
./eq_temp150.000000000931//71dumped.pdb
./eq_temp150.000000000931//72dumped.pdb
./eq_temp150.000000000931//73dumped.pdb
./eq_temp150.000000000931//74dumped.pdb
./eq_temp150.000000000931//75dumped.pdb
./eq_temp150.000000000931//76dumped.pdb
./eq_temp150.000000000931//77dumped.pdb
./eq_temp150.000000000931//78dumped.pdb
./eq_temp150.000000000931//80dumped.pdb
./eq_temp150.000000000931//81dumped.pdb
./eq_temp150.000000000931//82dumped.pdb
./eq_temp150.000000000931//83dumped.pdb
./eq_temp150.000000000931//84dumped.pdb
./eq_temp150.000000000931//85dumped.pdb
./eq_temp150.000000000931//86dumped.pdb
./eq_temp150.000000000931//87dumped.pdb
./eq_temp150.000000003916//95dumped.pdb
./eq_temp150.000000003916//96dumped.pdb
./eq_temp150.000000003916//97dumped.pdb
./eq_temp150.000000003916//98dumped.pdb
./eq_temp150.000000003916//99dumped.pdb
./eq_temp150.000000003916//100dumped.pdb
./eq_temp150.000000000244//34dumped.pdb
./eq_temp150.000000000244//35dumped.pdb
./eq_temp150.000000000244//36dumped.pdb
./eq_temp150.00000000477//156dumped.pdb
./eq_temp150.00000000477//157dumped.pdb
./eq_temp150.00000000477//158dumped.pdb
./eq_temp150.00000000477//159dumped.pdb
./eq_temp150.00000000477//160dumped.pdb
./eq_temp150.00000000477//161dumped.pdb
./eq_temp150.00000000477//162dumped.pdb
./eq_temp150.00000000003//292dumped.pdb
./eq_temp150.000000004906//29dumped.pdb
./eq_temp150.000000004906//30dumped.pdb
./eq_temp150.000000004906//31dumped.pdb
./eq_temp150.000000004906//32dumped.pdb
./eq_temp150.000000004906//33dumped.pdb
./eq_temp150.000000004906//34dumped.pdb
./eq_temp150.000000004906//35dumped.pdb
./eq_temp150.000000004906//36dumped.pdb
./eq_temp150.000000004906//37dumped.pdb
./eq_temp150.000000004906//38dumped.pdb
./eq_temp150.000000004906//39dumped.pdb
./eq_temp150.000000004906//40dumped.pdb
./eq_temp150.000000004906//41dumped.pdb
./eq_temp150.00000000039//27dumped.pdb
./eq_temp150.00000000039//28dumped.pdb
./eq_temp150.00000000001//163dumped.pdb
./eq_temp150.00000000001//164dumped.pdb
./eq_temp150.00000000001//165dumped.pdb
./eq_temp150.00000000001//166dumped.pdb
./eq_temp150.00000000001//167dumped.pdb
./eq_temp150.00000000054//125dumped.pdb
./eq_temp150.00000000054//126dumped.pdb
./eq_temp150.00000000054//127dumped.pdb
./eq_temp150.00000000054//128dumped.pdb
./eq_temp150.00000000054//129dumped.pdb
./eq_temp150.00000000054//130dumped.pdb
./eq_temp150.00000000054//131dumped.pdb
./eq_temp150.00000000054//132dumped.pdb
./eq_temp150.00000000054//133dumped.pdb
./eq_temp150.00000000054//134dumped.pdb
./eq_temp150.00000000054//135dumped.pdb
./eq_temp150.00000000054//136dumped.pdb
./eq_temp150.00000000054//137dumped.pdb
./eq_temp150.00000000054//138dumped.pdb
./eq_temp150.00000000054//139dumped.pdb
./eq_temp150.00000000054//140dumped.pdb
./eq_temp150.00000000054//141dumped.pdb
./eq_temp150.00000000054//142dumped.pdb
./eq_temp150.00000000054//143dumped.pdb
./eq_temp150.00000000054//144dumped.pdb
./eq_temp150.00000000054//145dumped.pdb
./eq_temp150.00000000054//146dumped.pdb
./eq_temp150.00000000054//147dumped.pdb
./eq_temp150.00000000054//148dumped.pdb
./eq_temp150.00000000054//149dumped.pdb
./eq_temp150.00000000054//150dumped.pdb
./eq_temp150.000000001456//96dumped.pdb
./eq_temp150.000000001456//97dumped.pdb
./eq_temp150.000000001456//98dumped.pdb
./eq_temp150.000000001456//99dumped.pdb
./eq_temp150.000000001456//100dumped.pdb
./eq_temp150.000000001456//101dumped.pdb
./eq_temp150.000000001456//102dumped.pdb
./eq_temp150.000000001456//103dumped.pdb
./eq_temp150.000000001456//104dumped.pdb
./eq_temp150.000000001456//105dumped.pdb
./eq_temp150.000000001456//106dumped.pdb
./eq_temp150.000000001456//107dumped.pdb
./eq_temp150.000000000325//404dumped.pdb
./eq_temp150.000000000325//405dumped.pdb
./eq_temp150.000000000325//406dumped.pdb
./eq_temp150.000000000325//407dumped.pdb
./eq_temp150.000000000325//408dumped.pdb
./eq_temp150.000000007237//45dumped.pdb
./eq_temp150.000000007237//46dumped.pdb
./eq_temp150.000000007237//47dumped.pdb
./eq_temp150.000000007237//48dumped.pdb
./eq_temp150.000000011908//56dumped.pdb
./eq_temp150.000000011908//57dumped.pdb
./eq_temp150.000000011908//58dumped.pdb
./eq_temp150.000000001545//203dumped.pdb
./eq_temp150.000000001545//204dumped.pdb
./eq_temp150.000000001545//205dumped.pdb
./eq_temp150.000000001545//206dumped.pdb
./eq_temp150.000000001545//207dumped.pdb
./eq_temp150.000000001545//208dumped.pdb
./eq_temp150.000000001545//209dumped.pdb
./eq_temp150.000000001545//210dumped.pdb
./eq_temp150.000000001545//211dumped.pdb
./eq_temp150.000000001545//212dumped.pdb
./eq_temp150.000000001545//213dumped.pdb
./eq_temp150.000000001545//214dumped.pdb
./eq_temp150.000000001545//215dumped.pdb
./eq_temp150.000000004063//50dumped.pdb
./eq_temp150.000000004063//51dumped.pdb
./eq_temp150.000000004063//52dumped.pdb
./eq_temp150.000000004063//53dumped.pdb
./eq_temp150.000000004063//54dumped.pdb
./eq_temp150.000000004063//55dumped.pdb
./eq_temp150.000000004063//56dumped.pdb
./eq_temp150.000000004063//57dumped.pdb
./eq_temp150.000000001032//26dumped.pdb
./eq_temp150.000000001032//27dumped.pdb
./eq_temp150.000000001032//28dumped.pdb
./eq_temp150.000000001032//29dumped.pdb
./eq_temp150.000000001032//30dumped.pdb
./eq_temp150.000000001032//31dumped.pdb
./eq_temp150.000000001032//32dumped.pdb
./eq_temp150.000000002303//140dumped.pdb
./eq_temp150.000000002303//141dumped.pdb
./eq_temp150.000000002303//142dumped.pdb
./eq_temp150.000000002303//143dumped.pdb
./eq_temp150.000000002303//144dumped.pdb
./eq_temp150.000000002303//145dumped.pdb
./eq_temp150.000000032512//34dumped.pdb
./eq_temp150.000000032512//35dumped.pdb
./eq_temp150.000000032512//36dumped.pdb
./eq_temp150.000000032512//37dumped.pdb
./eq_temp150.000000032512//38dumped.pdb
./eq_temp150.000000032512//39dumped.pdb
./eq_temp150.000000032512//40dumped.pdb
./eq_temp150.000000004723//483dumped.pdb
./eq_temp150.000000004723//484dumped.pdb
./eq_temp150.000000004723//485dumped.pdb
./eq_temp150.000000004723//486dumped.pdb
./eq_temp150.000000004723//487dumped.pdb
./eq_temp150.000000004723//488dumped.pdb
./eq_temp150.000000004723//489dumped.pdb
./eq_temp150.000000004723//490dumped.pdb
./eq_temp150.000000004723//491dumped.pdb
./eq_temp150.000000004723//492dumped.pdb
./eq_temp150.000000004723//493dumped.pdb
./eq_temp150.000000004723//494dumped.pdb
./eq_temp150.000000004723//495dumped.pdb
./eq_temp150.000000004723//496dumped.pdb
./eq_temp150.000000004723//497dumped.pdb
./eq_temp150.000000004723//498dumped.pdb
./eq_temp150.000000004723//499dumped.pdb
./eq_temp150.000000004723//500dumped.pdb
./eq_temp150.000000004723//501dumped.pdb
./eq_temp150.000000004723//502dumped.pdb
./eq_temp150.000000027664//208dumped.pdb
./eq_temp150.000000027664//209dumped.pdb
./eq_temp150.000000027664//210dumped.pdb
./eq_temp150.000000027664//211dumped.pdb
./eq_temp150.000000027664//212dumped.pdb
./eq_temp150.000000027664//213dumped.pdb
./eq_temp150.000000027664//214dumped.pdb
./eq_temp150.000000027664//215dumped.pdb
./eq_temp150.000000027664//216dumped.pdb
./eq_temp150.000000027664//217dumped.pdb
./eq_temp150.000000027664//218dumped.pdb
./eq_temp150.000000027664//219dumped.pdb
./eq_temp150.000000027664//220dumped.pdb
./eq_temp150.000000027664//221dumped.pdb
./eq_temp150.000000027664//222dumped.pdb
./eq_temp150.000000027664//223dumped.pdb
./eq_temp150.000000027664//224dumped.pdb
./eq_temp150.000000000302//87dumped.pdb
./eq_temp150.000000000302//88dumped.pdb
./eq_temp150.000000001165//81dumped.pdb
./eq_temp150.000000001165//82dumped.pdb
./eq_temp150.000000000103//104dumped.pdb
./eq_temp150.000000000103//105dumped.pdb
./eq_temp150.000000000103//106dumped.pdb
./eq_temp150.000000000103//107dumped.pdb
./eq_temp150.000000000103//108dumped.pdb
./eq_temp150.000000000103//109dumped.pdb
./eq_temp150.000000000103//110dumped.pdb
./eq_temp150.000000000103//111dumped.pdb
./eq_temp150.000000000103//112dumped.pdb
./eq_temp150.000000000103//113dumped.pdb
./eq_temp150.000000000103//114dumped.pdb
./eq_temp150.000000000103//115dumped.pdb
./eq_temp150.000000000103//116dumped.pdb
./eq_temp150.000000028876//160dumped.pdb
./eq_temp150.000000028876//161dumped.pdb
./eq_temp150.000000028876//162dumped.pdb
./eq_temp150.000000028876//163dumped.pdb
./eq_temp150.000000028876//164dumped.pdb
./eq_temp150.000000028876//165dumped.pdb
./eq_temp150.000000028876//166dumped.pdb
./eq_temp150.000000003052//512dumped.pdb
./eq_temp150.000000003052//513dumped.pdb
./eq_temp150.000000003052//514dumped.pdb
./eq_temp150.000000003052//515dumped.pdb
./eq_temp150.000000003052//516dumped.pdb
./eq_temp150.000000003052//517dumped.pdb
./eq_temp150.000000003052//518dumped.pdb
./eq_temp150.000000003052//519dumped.pdb
./eq_temp150.000000003052//520dumped.pdb
./eq_temp150.000000003052//521dumped.pdb
./eq_temp150.000000003052//522dumped.pdb
./eq_temp150.000000003052//523dumped.pdb
./eq_temp150.000000003052//524dumped.pdb
./eq_temp150.000000003052//525dumped.pdb
./eq_temp150.000000003052//526dumped.pdb
./eq_temp150.000000003052//527dumped.pdb
./eq_temp150.000000003052//528dumped.pdb
./eq_temp150.000000003052//529dumped.pdb
./eq_temp150.000000003052//530dumped.pdb
./eq_temp150.000000003052//531dumped.pdb
./eq_temp150.000000003052//532dumped.pdb
./eq_temp150.000000003052//533dumped.pdb
./eq_temp150.000000003052//534dumped.pdb
./eq_temp150.000000003052//535dumped.pdb
./eq_temp150.000000003052//536dumped.pdb
./eq_temp150.000000003052//537dumped.pdb
./eq_temp150.000000003052//538dumped.pdb
./eq_temp150.000000017968//138dumped.pdb
./eq_temp150.000000017968//139dumped.pdb
./eq_temp150.000000017968//140dumped.pdb
./eq_temp150.000000017968//141dumped.pdb
./eq_temp150.000000003378//326dumped.pdb
./eq_temp150.000000003378//327dumped.pdb
./eq_temp150.000000003378//328dumped.pdb
./eq_temp150.000000003378//329dumped.pdb
./eq_temp150.000000003378//330dumped.pdb
./eq_temp150.000000003378//331dumped.pdb
./eq_temp150.000000003378//332dumped.pdb
./eq_temp150.000000003378//333dumped.pdb
./eq_temp150.000000003378//334dumped.pdb
./eq_temp150.00000000023//52dumped.pdb
./eq_temp150.00000000023//53dumped.pdb
./eq_temp150.00000000023//54dumped.pdb
./eq_temp150.00000000023//55dumped.pdb
./eq_temp150.00000000023//56dumped.pdb
./eq_temp150.00000000023//57dumped.pdb
./eq_temp150.00000000023//58dumped.pdb
./eq_temp150.00000000023//59dumped.pdb
./eq_temp150.00000000023//60dumped.pdb
./eq_temp150.00000000023//61dumped.pdb
./eq_temp150.00000000023//62dumped.pdb
./eq_temp150.00000000073//548dumped.pdb
./eq_temp150.00000000073//549dumped.pdb
./eq_temp150.00000000073//550dumped.pdb
./eq_temp150.00000000073//551dumped.pdb
./eq_temp150.00000000073//552dumped.pdb
./eq_temp150.00000000073//553dumped.pdb
./eq_temp150.00000000073//554dumped.pdb
./eq_temp150.00000000073//555dumped.pdb
./eq_temp150.00000000073//556dumped.pdb
./eq_temp150.00000000073//557dumped.pdb
./eq_temp150.000000000263//26dumped.pdb
./eq_temp150.000000000263//27dumped.pdb
./eq_temp150.000000000263//28dumped.pdb
./eq_temp150.000000000263//29dumped.pdb
./eq_temp150.000000000263//30dumped.pdb
./eq_temp150.000000000263//31dumped.pdb
./eq_temp150.000000000263//32dumped.pdb
./eq_temp150.000000000263//33dumped.pdb
./eq_temp150.000000000263//34dumped.pdb
./eq_temp150.000000000263//35dumped.pdb
./eq_temp150.000000000263//36dumped.pdb
./eq_temp150.000000000263//37dumped.pdb
./eq_temp150.000000000263//38dumped.pdb
./eq_temp150.000000000263//39dumped.pdb
./eq_temp150.000000000263//40dumped.pdb
./eq_temp150.000000000263//41dumped.pdb
./eq_temp150.000000000263//42dumped.pdb
./eq_temp150.000000000263//43dumped.pdb
./eq_temp150.000000000263//44dumped.pdb
./eq_temp150.00000000058//145dumped.pdb
./eq_temp150.00000000058//146dumped.pdb
./eq_temp150.00000000058//147dumped.pdb
./eq_temp150.00000000058//148dumped.pdb
./eq_temp150.00000000058//149dumped.pdb
./eq_temp150.00000000058//150dumped.pdb
./eq_temp150.000000005023//344dumped.pdb
./eq_temp150.000000005023//345dumped.pdb
./eq_temp150.000000002203//120dumped.pdb
./eq_temp150.000000002203//121dumped.pdb
./eq_temp150.000000002203//122dumped.pdb
./eq_temp150.000000002203//123dumped.pdb
./eq_temp150.000000002203//124dumped.pdb
./eq_temp150.000000000129//100dumped.pdb
./eq_temp150.000000000129//101dumped.pdb
./eq_temp150.000000000129//102dumped.pdb
./eq_temp150.000000000129//103dumped.pdb
./eq_temp150.000000000129//104dumped.pdb
./eq_temp150.000000000129//105dumped.pdb
./eq_temp150.000000000129//106dumped.pdb
./eq_temp150.000000000129//107dumped.pdb
./eq_temp150.000000000129//108dumped.pdb
./eq_temp150.000000000129//109dumped.pdb
./eq_temp150.000000000129//110dumped.pdb
./eq_temp150.000000000129//111dumped.pdb
./eq_temp150.000000003962//14dumped.pdb
./eq_temp150.000000003962//15dumped.pdb
./eq_temp150.000000003962//16dumped.pdb
./eq_temp150.000000003962//17dumped.pdb
./eq_temp150.000000003962//18dumped.pdb
./eq_temp150.000000003962//19dumped.pdb
./eq_temp150.000000003962//20dumped.pdb
./eq_temp150.000000003962//21dumped.pdb
./eq_temp150.00000000075//95dumped.pdb
./eq_temp150.00000000075//96dumped.pdb
./eq_temp150.00000000075//97dumped.pdb
./eq_temp150.00000000075//98dumped.pdb
./eq_temp150.0000000005//206dumped.pdb
./eq_temp150.0000000005//207dumped.pdb
./eq_temp150.0000000005//208dumped.pdb
./eq_temp150.0000000005//209dumped.pdb
./eq_temp150.000000000001//265dumped.pdb
./eq_temp150.000000000001//266dumped.pdb
./eq_temp150.000000000001//267dumped.pdb
./eq_temp150.000000000001//268dumped.pdb
./eq_temp150.000000000001//269dumped.pdb
./eq_temp150.000000000001//270dumped.pdb
./eq_temp150.000000000001//271dumped.pdb
./eq_temp150.000000000001//272dumped.pdb
./eq_temp150.000000000001//273dumped.pdb
./eq_temp150.000000000001//274dumped.pdb
./eq_temp150.000000000001//275dumped.pdb
./eq_temp150.000000000001//276dumped.pdb
./eq_temp150.000000000001//277dumped.pdb
./eq_temp150.000000000001//278dumped.pdb
./eq_temp150.000000000001//279dumped.pdb
./eq_temp150.000000000001//280dumped.pdb
./eq_temp150.000000000001//281dumped.pdb
./eq_temp150.000000000001//282dumped.pdb
./eq_temp150.000000001069//152dumped.pdb
./eq_temp150.000000001069//153dumped.pdb
./eq_temp150.000000001069//154dumped.pdb
./eq_temp150.000000001069//155dumped.pdb
./eq_temp150.000000001069//156dumped.pdb
./eq_temp150.000000001069//157dumped.pdb
./eq_temp150.000000001069//158dumped.pdb
./eq_temp150.000000001069//159dumped.pdb
./eq_temp150.000000001069//160dumped.pdb
./eq_temp150.000000001069//161dumped.pdb
./eq_temp150.000000001069//162dumped.pdb
./eq_temp150.000000001069//163dumped.pdb
./eq_temp150.000000001069//164dumped.pdb
./eq_temp150.000000001069//165dumped.pdb
./eq_temp150.000000001069//166dumped.pdb
./eq_temp150.000000001069//167dumped.pdb
./eq_temp150.000000001069//168dumped.pdb
./eq_temp150.000000001069//169dumped.pdb
./eq_temp150.000000001069//170dumped.pdb
./eq_temp150.000000001069//171dumped.pdb
./eq_temp150.000000001069//172dumped.pdb
./eq_temp150.000000001069//173dumped.pdb
./eq_temp150.000000001069//174dumped.pdb
./eq_temp150.000000001069//175dumped.pdb
./eq_temp150.000000001069//176dumped.pdb
./eq_temp150.000000001069//177dumped.pdb
./eq_temp150.000000001069//178dumped.pdb
./eq_temp150.000000001069//179dumped.pdb
./eq_temp150.000000004039//119dumped.pdb
./eq_temp150.000000004039//120dumped.pdb
./eq_temp150.000000004039//121dumped.pdb
./eq_temp150.000000004039//122dumped.pdb
./eq_temp150.000000004039//123dumped.pdb
./eq_temp150.000000004039//124dumped.pdb
./eq_temp150.000000004039//125dumped.pdb
./eq_temp150.000000004039//126dumped.pdb
./eq_temp150.000000004039//127dumped.pdb
./eq_temp150.000000004039//128dumped.pdb
./eq_temp150.000000004039//129dumped.pdb
./eq_temp150.000000001803//119dumped.pdb
./eq_temp150.000000001803//120dumped.pdb
./eq_temp150.000000001803//121dumped.pdb
./eq_temp150.000000001803//122dumped.pdb
./eq_temp150.000000001803//123dumped.pdb
./eq_temp150.000000001803//124dumped.pdb
./eq_temp150.000000001803//125dumped.pdb
./eq_temp150.000000001803//126dumped.pdb
./eq_temp150.000000001803//127dumped.pdb
./eq_temp150.000000001803//128dumped.pdb
./eq_temp150.000000001803//129dumped.pdb
./eq_temp150.000000105074//56dumped.pdb
./eq_temp150.000000105074//57dumped.pdb
./eq_temp150.000000105074//58dumped.pdb
./eq_temp150.00000000025//292dumped.pdb
./eq_temp150.00000000025//293dumped.pdb
./eq_temp150.00000000025//294dumped.pdb
./eq_temp150.00000000025//296dumped.pdb
./eq_temp150.000000001002//180dumped.pdb
./eq_temp150.000000001002//181dumped.pdb
./eq_temp150.000000001002//182dumped.pdb
./eq_temp150.000000001002//183dumped.pdb
./eq_temp150.000000001002//184dumped.pdb
./eq_temp150.000000001002//185dumped.pdb
./eq_temp150.000000001002//186dumped.pdb
./eq_temp150.000000001002//187dumped.pdb
./eq_temp150.000000001002//188dumped.pdb
./eq_temp150.000000001002//189dumped.pdb
./eq_temp150.000000001002//190dumped.pdb
./eq_temp150.000000001002//191dumped.pdb
./eq_temp150.000000001002//192dumped.pdb
./eq_temp150.000000001002//193dumped.pdb
./eq_temp150.000000038572//36dumped.pdb
./eq_temp150.000000038572//37dumped.pdb
./eq_temp150.000000038572//38dumped.pdb
./eq_temp150.000000038572//39dumped.pdb
./eq_temp150.000000038572//40dumped.pdb
./eq_temp150.000000005884//65dumped.pdb
./eq_temp150.000000005884//66dumped.pdb
./eq_temp150.000000005884//67dumped.pdb
./eq_temp150.000000005884//68dumped.pdb
./eq_temp150.000000005884//69dumped.pdb
./eq_temp150.000000005884//70dumped.pdb
./eq_temp150.000000005884//71dumped.pdb
./eq_temp150.000000005884//72dumped.pdb
./eq_temp150.000000005884//73dumped.pdb
./eq_temp150.000000005884//74dumped.pdb
./eq_temp150.000000005884//75dumped.pdb
./eq_temp150.000000005884//76dumped.pdb
./eq_temp150.000000005884//77dumped.pdb
./eq_temp150.000000004356//78dumped.pdb
./eq_temp150.000000004356//79dumped.pdb
./eq_temp150.000000004356//80dumped.pdb
./eq_temp150.000000004356//81dumped.pdb
./eq_temp150.000000004356//82dumped.pdb
./eq_temp150.000000000398//98dumped.pdb
./eq_temp150.000000000398//99dumped.pdb
./eq_temp150.000000000398//100dumped.pdb
./eq_temp150.000000000398//101dumped.pdb
./eq_temp150.000000000398//102dumped.pdb
./eq_temp150.000000000398//103dumped.pdb
./eq_temp150.000000000398//104dumped.pdb
./eq_temp150.000000000398//105dumped.pdb
./eq_temp150.000000000398//106dumped.pdb
./eq_temp150.000000000398//107dumped.pdb
./eq_temp150.000000000398//108dumped.pdb
./eq_temp150.000000000398//109dumped.pdb
./eq_temp150.000000000398//110dumped.pdb
./eq_temp150.000000000398//111dumped.pdb
./eq_temp150.000000000398//112dumped.pdb
./eq_temp150.000000002504//144dumped.pdb
./eq_temp150.000000002504//145dumped.pdb
./eq_temp150.000000002504//146dumped.pdb
./eq_temp150.000000002504//147dumped.pdb
./eq_temp150.000000002504//148dumped.pdb
./eq_temp150.000000002504//149dumped.pdb
./eq_temp150.000000002504//150dumped.pdb
./eq_temp150.000000003254//183dumped.pdb
./eq_temp150.000000003254//184dumped.pdb
./eq_temp150.000000003254//185dumped.pdb
./eq_temp150.000000003254//186dumped.pdb
./eq_temp150.000000102331//984dumped.pdb
./eq_temp150.000000102331//985dumped.pdb
./eq_temp150.000000102331//986dumped.pdb
./eq_temp150.000000102331//987dumped.pdb
./eq_temp150.000000102331//988dumped.pdb
./eq_temp150.000000102331//989dumped.pdb
./eq_temp150.000000102331//990dumped.pdb
./eq_temp150.000000102331//991dumped.pdb
./eq_temp150.000000102331//992dumped.pdb
./eq_temp150.000000102331//993dumped.pdb
./eq_temp150.000000102331//994dumped.pdb
./eq_temp150.000000102331//995dumped.pdb
./eq_temp150.000000102331//996dumped.pdb
./eq_temp150.000000102331//997dumped.pdb
./eq_temp150.000000102331//998dumped.pdb
./eq_temp150.000000102331//999dumped.pdb
./eq_temp150.000000102331//1000dumped.pdb
./eq_temp150.000000102331//1001dumped.pdb
./eq_temp150.000000102331//1002dumped.pdb
./eq_temp150.000000102331//1003dumped.pdb
./eq_temp150.000000102331//1004dumped.pdb
./eq_temp150.000000002446//170dumped.pdb
./eq_temp150.000000002446//171dumped.pdb
./eq_temp150.000000002446//172dumped.pdb
./eq_temp150.000000002446//173dumped.pdb
./eq_temp150.000000002446//174dumped.pdb
./eq_temp150.000000002446//175dumped.pdb
./eq_temp150.000000002446//176dumped.pdb
./eq_temp150.000000002446//177dumped.pdb
./eq_temp150.000000002446//178dumped.pdb
./eq_temp150.000000002446//179dumped.pdb
./eq_temp150.000000002446//180dumped.pdb
./eq_temp150.000000002446//181dumped.pdb
./eq_temp150.000000002446//182dumped.pdb
./eq_temp150.000000004105//119dumped.pdb
./eq_temp150.000000004105//120dumped.pdb
./eq_temp150.000000104652//186dumped.pdb
./eq_temp150.000000104652//187dumped.pdb
./eq_temp150.000000104652//188dumped.pdb
./eq_temp150.000000104652//189dumped.pdb
./eq_temp150.000000104652//191dumped.pdb
./eq_temp150.000000104652//192dumped.pdb
./eq_temp150.000000104652//193dumped.pdb
./eq_temp150.000000104652//194dumped.pdb
./eq_temp150.000000104652//195dumped.pdb
./eq_temp150.000000104652//196dumped.pdb
./eq_temp150.000000104652//197dumped.pdb
./eq_temp150.000000104652//198dumped.pdb
./eq_temp150.000000104652//199dumped.pdb
./eq_temp150.000000104652//200dumped.pdb
./eq_temp150.000000104652//201dumped.pdb
./eq_temp150.000000104652//202dumped.pdb
./eq_temp150.000000104652//203dumped.pdb
./eq_temp150.000000104652//204dumped.pdb
./eq_temp150.000000104652//205dumped.pdb
./eq_temp150.000000104652//206dumped.pdb
./eq_temp150.000000104652//207dumped.pdb
./eq_temp150.000000104652//208dumped.pdb
./eq_temp150.000000104652//209dumped.pdb
./eq_temp150.000000104652//210dumped.pdb
./eq_temp150.000000104652//211dumped.pdb
./eq_temp150.000000104652//212dumped.pdb
./eq_temp150.000000104652//213dumped.pdb
./eq_temp150.000000104652//214dumped.pdb
./eq_temp150.000000104652//215dumped.pdb
./eq_temp150.000000003505//186dumped.pdb
./eq_temp150.000000003505//187dumped.pdb
./eq_temp150.000000003505//188dumped.pdb
./eq_temp150.000000003505//189dumped.pdb
./eq_temp150.000000003505//190dumped.pdb
./eq_temp150.000000003505//191dumped.pdb
./eq_temp150.000000003505//192dumped.pdb
./eq_temp150.000000003505//193dumped.pdb
./eq_temp150.000000003505//194dumped.pdb
./eq_temp150.000000003505//195dumped.pdb
./eq_temp150.000000003505//196dumped.pdb
./eq_temp150.000000003505//197dumped.pdb
./eq_temp150.000000003505//198dumped.pdb
./eq_temp150.000000003505//199dumped.pdb
./eq_temp150.000000003505//200dumped.pdb
./eq_temp150.000000003505//201dumped.pdb
./eq_temp150.000000003505//202dumped.pdb
./eq_temp150.000000003505//203dumped.pdb
./eq_temp150.000000003505//204dumped.pdb
./eq_temp150.000000003505//205dumped.pdb
./eq_temp150.000000003505//206dumped.pdb
./eq_temp150.000000003505//207dumped.pdb
./eq_temp150.000000003505//208dumped.pdb
./eq_temp150.000000003505//209dumped.pdb
./eq_temp150.000000101487//94dumped.pdb
./eq_temp150.000000101487//95dumped.pdb
./eq_temp150.000000003055//119dumped.pdb
./eq_temp150.000000003055//120dumped.pdb
./eq_temp150.000000003055//121dumped.pdb
./eq_temp150.000000003055//122dumped.pdb
./eq_temp150.000000003055//123dumped.pdb
./eq_temp150.000000003055//124dumped.pdb
./eq_temp150.000000003055//125dumped.pdb
./eq_temp150.000000003055//126dumped.pdb
./eq_temp150.000000003055//127dumped.pdb
./eq_temp150.000000000052//62dumped.pdb
./eq_temp150.000000000052//63dumped.pdb
./eq_temp150.000000000052//64dumped.pdb
./eq_temp150.000000000052//65dumped.pdb
./eq_temp150.000000001088//104dumped.pdb
./eq_temp150.000000001088//105dumped.pdb
./eq_temp150.000000001088//106dumped.pdb
./eq_temp150.00000002524//172dumped.pdb
./eq_temp150.00000002524//173dumped.pdb
./eq_temp150.00000002524//174dumped.pdb
./eq_temp150.00000002524//175dumped.pdb
./eq_temp150.00000002524//176dumped.pdb
./eq_temp150.00000002524//177dumped.pdb
./eq_temp150.00000002524//178dumped.pdb
./eq_temp150.00000002524//179dumped.pdb
./eq_temp150.00000002524//180dumped.pdb
./eq_temp150.00000002524//181dumped.pdb
./eq_temp150.00000002524//182dumped.pdb
./eq_temp150.00000002524//183dumped.pdb
./eq_temp150.00000002524//184dumped.pdb
./eq_temp150.00000002524//185dumped.pdb
./eq_temp150.00000002524//186dumped.pdb
./eq_temp150.00000002524//187dumped.pdb
./eq_temp150.00000002524//188dumped.pdb
./eq_temp150.00000002524//189dumped.pdb
./eq_temp150.00000002524//190dumped.pdb
./eq_temp150.00000002524//191dumped.pdb
./eq_temp150.00000002524//192dumped.pdb
./eq_temp150.00000000062//666dumped.pdb
./eq_temp150.00000000062//667dumped.pdb
./eq_temp150.00000000062//668dumped.pdb
./eq_temp150.00000000062//669dumped.pdb
./eq_temp150.00000000062//670dumped.pdb
./eq_temp150.00000000062//671dumped.pdb
./eq_temp150.00000000062//672dumped.pdb
./eq_temp150.00000000062//673dumped.pdb
./eq_temp150.00000000062//674dumped.pdb
./eq_temp150.00000000062//675dumped.pdb
./eq_temp150.00000000062//676dumped.pdb
./eq_temp150.00000000074//744dumped.pdb
./eq_temp150.00000000074//745dumped.pdb
./eq_temp150.000000002889//296dumped.pdb
./eq_temp150.000000000513//59dumped.pdb
./eq_temp150.000000000513//60dumped.pdb
./eq_temp150.000000000513//61dumped.pdb
./eq_temp150.000000000513//62dumped.pdb
./eq_temp150.000000000513//63dumped.pdb
./eq_temp150.000000000513//64dumped.pdb
./eq_temp150.000000000513//65dumped.pdb
./eq_temp150.000000000513//66dumped.pdb
./eq_temp150.000000000513//67dumped.pdb
./eq_temp150.000000000513//68dumped.pdb
./eq_temp150.000000000513//69dumped.pdb
./eq_temp150.000000000513//71dumped.pdb
./eq_temp150.000000000513//72dumped.pdb
./eq_temp150.000000000513//73dumped.pdb
./eq_temp150.000000000513//74dumped.pdb
./eq_temp150.000000000513//75dumped.pdb
./eq_temp150.000000000513//76dumped.pdb
./eq_temp150.000000000513//77dumped.pdb
./eq_temp150.000000000513//78dumped.pdb
./eq_temp150.000000000513//79dumped.pdb
./eq_temp150.000000000513//80dumped.pdb
./eq_temp150.000000000513//81dumped.pdb
./eq_temp150.000000000513//82dumped.pdb
./eq_temp150.000000000513//83dumped.pdb
./eq_temp150.000000000513//84dumped.pdb
./eq_temp150.000000000513//85dumped.pdb
./eq_temp150.000000000513//86dumped.pdb
./eq_temp150.000000000513//87dumped.pdb
./eq_temp150.000000000513//88dumped.pdb
./eq_temp150.000000000513//89dumped.pdb
./eq_temp150.000000000513//90dumped.pdb
./eq_temp150.000000000513//91dumped.pdb
./eq_temp150.000000000513//92dumped.pdb
./eq_temp150.000000000513//93dumped.pdb
./eq_temp150.000000000513//94dumped.pdb
./eq_temp150.000000000513//95dumped.pdb
./eq_temp150.000000000513//96dumped.pdb
./eq_temp150.000000000513//97dumped.pdb
./eq_temp150.000000000513//99dumped.pdb
./eq_temp150.000000000513//100dumped.pdb
./eq_temp150.000000000513//101dumped.pdb
./eq_temp150.000000000513//102dumped.pdb
./eq_temp150.000000000513//103dumped.pdb
./eq_temp150.000000105918//24dumped.pdb
./eq_temp150.000000105918//25dumped.pdb
./eq_temp150.000000105918//26dumped.pdb
./eq_temp150.00000000038//330dumped.pdb
./eq_temp150.00000000038//331dumped.pdb
./eq_temp150.00000000038//332dumped.pdb
./eq_temp150.00000000038//333dumped.pdb
./eq_temp150.00000000038//334dumped.pdb
./eq_temp150.00000000038//335dumped.pdb
./eq_temp150.00000000038//336dumped.pdb
./eq_temp150.00000000038//337dumped.pdb
./eq_temp150.00000000038//338dumped.pdb
./eq_temp150.00000000038//339dumped.pdb
./eq_temp150.00000000038//340dumped.pdb
./eq_temp150.0000000003//399dumped.pdb
./eq_temp150.0000000003//400dumped.pdb
./eq_temp150.0000000003//401dumped.pdb
./eq_temp150.0000000003//402dumped.pdb
./eq_temp150.0000000003//403dumped.pdb
./eq_temp150.0000000003//404dumped.pdb
./eq_temp150.0000000003//405dumped.pdb
./eq_temp150.0000000003//406dumped.pdb
./eq_temp150.0000000003//407dumped.pdb
./eq_temp150.0000000003//408dumped.pdb
./eq_temp150.0000000003//409dumped.pdb
./eq_temp150.0000000003//410dumped.pdb
./eq_temp150.00000000028//151dumped.pdb
./eq_temp150.00000000028//152dumped.pdb
./eq_temp150.0000000024//136dumped.pdb
./eq_temp150.0000000024//137dumped.pdb
./eq_temp150.0000000024//138dumped.pdb
./eq_temp150.000000001903//141dumped.pdb
./eq_temp150.000000001903//142dumped.pdb
./eq_temp150.000000001903//143dumped.pdb
./eq_temp150.000000001903//144dumped.pdb
./eq_temp150.000000001903//145dumped.pdb
./eq_temp150.000000001903//146dumped.pdb
./eq_temp150.000000001903//147dumped.pdb
./eq_temp150.000000001903//148dumped.pdb
./eq_temp150.000000001903//149dumped.pdb
./eq_temp150.000000001903//150dumped.pdb
./eq_temp150.000000001903//151dumped.pdb
./eq_temp150.000000001903//152dumped.pdb
./eq_temp150.000000001903//153dumped.pdb
./eq_temp150.000000001903//154dumped.pdb
./eq_temp150.000000001903//155dumped.pdb
./eq_temp150.000000001903//156dumped.pdb
./eq_temp150.000000001903//157dumped.pdb
./eq_temp150.000000001903//158dumped.pdb
./eq_temp150.000000001903//159dumped.pdb
./eq_temp150.000000001903//160dumped.pdb
./eq_temp150.000000001903//161dumped.pdb
./eq_temp150.000000001903//162dumped.pdb
./eq_temp150.000000001903//163dumped.pdb
./eq_temp150.000000001903//164dumped.pdb
./eq_temp150.000000001903//165dumped.pdb
./eq_temp150.000000001703//21dumped.pdb
./eq_temp150.000000001703//22dumped.pdb
./eq_temp150.000000001703//23dumped.pdb
./eq_temp150.000000001703//24dumped.pdb
./eq_temp150.000000001436//73dumped.pdb
./eq_temp150.000000001436//74dumped.pdb
./eq_temp150.000000001436//75dumped.pdb
./eq_temp150.000000001436//76dumped.pdb
./eq_temp150.000000001436//78dumped.pdb
./eq_temp150.000000003745//458dumped.pdb
./eq_temp150.000000003745//459dumped.pdb
./eq_temp150.000000003745//460dumped.pdb
./eq_temp150.000000003745//461dumped.pdb
./eq_temp150.000000003745//462dumped.pdb
./eq_temp150.000000003745//463dumped.pdb
./eq_temp150.000000003745//464dumped.pdb
./eq_temp150.000000002645//20dumped.pdb
./eq_temp150.000000002645//21dumped.pdb
./eq_temp150.000000002645//22dumped.pdb
./eq_temp150.000000002645//23dumped.pdb
./eq_temp150.000000002645//24dumped.pdb
./eq_temp150.000000002645//25dumped.pdb
./eq_temp150.000000002645//26dumped.pdb
./eq_temp150.000000002645//27dumped.pdb
./eq_temp150.000000002645//28dumped.pdb
./eq_temp150.000000002645//30dumped.pdb
./eq_temp150.000000002645//31dumped.pdb
./eq_temp150.000000002645//32dumped.pdb
./eq_temp150.000000002645//33dumped.pdb
./eq_temp150.000000002645//34dumped.pdb
./eq_temp150.000000002645//35dumped.pdb
./eq_temp150.000000002645//36dumped.pdb
./eq_temp150.000000002645//37dumped.pdb
./eq_temp150.000000002645//38dumped.pdb
./eq_temp150.000000002645//39dumped.pdb
./eq_temp150.000000002645//40dumped.pdb
./eq_temp150.000000002645//41dumped.pdb
./eq_temp150.000000002645//42dumped.pdb
./eq_temp150.000000002645//43dumped.pdb
./eq_temp150.000000003805//746dumped.pdb
./eq_temp150.000000003805//747dumped.pdb
./eq_temp150.000000003805//748dumped.pdb
./eq_temp150.000000003805//749dumped.pdb
./eq_temp150.000000003805//750dumped.pdb
./eq_temp150.000000003805//751dumped.pdb
./eq_temp150.000000003805//752dumped.pdb
./eq_temp150.000000003805//753dumped.pdb
./eq_temp150.000000003805//754dumped.pdb
./eq_temp150.000000003805//755dumped.pdb
./eq_temp150.000000003805//756dumped.pdb
./eq_temp150.000000003805//757dumped.pdb
./eq_temp150.000000003805//758dumped.pdb
./eq_temp150.000000003805//759dumped.pdb
./eq_temp150.000000000101//111dumped.pdb
./eq_temp150.000000000101//112dumped.pdb
./eq_temp150.000000000101//113dumped.pdb
./eq_temp150.000000000101//114dumped.pdb
./eq_temp150.000000005515//19dumped.pdb
./eq_temp150.000000005515//20dumped.pdb
./eq_temp150.000000005515//21dumped.pdb
./eq_temp150.000000005515//22dumped.pdb
./eq_temp150.000000005515//23dumped.pdb
./eq_temp150.000000005515//24dumped.pdb
./eq_temp150.000000009484//15dumped.pdb
./eq_temp150.000000000973//29dumped.pdb
./eq_temp150.000000000973//30dumped.pdb
./eq_temp150.000000000973//31dumped.pdb
./eq_temp150.000000000973//32dumped.pdb
./eq_temp150.000000000973//33dumped.pdb
./eq_temp150.000000000973//34dumped.pdb
./eq_temp150.000000000973//35dumped.pdb
./eq_temp150.000000000973//36dumped.pdb
./eq_temp150.000000000973//37dumped.pdb
./eq_temp150.000000000973//38dumped.pdb
./eq_temp150.000000000973//39dumped.pdb
./eq_temp150.000000000973//40dumped.pdb
./eq_temp150.000000000973//41dumped.pdb
./eq_temp150.000000000973//42dumped.pdb
./eq_temp150.000000000724//27dumped.pdb
./eq_temp150.000000000724//28dumped.pdb
./eq_temp150.000000000724//29dumped.pdb
./eq_temp150.000000000724//30dumped.pdb
./eq_temp150.000000001422//81dumped.pdb
./eq_temp150.000000001422//82dumped.pdb
./eq_temp150.000000001422//83dumped.pdb
./eq_temp150.000000001422//84dumped.pdb
./eq_temp150.000000001422//85dumped.pdb
./eq_temp150.000000001422//86dumped.pdb
./eq_temp150.000000001422//87dumped.pdb
./eq_temp150.000000001422//88dumped.pdb
./eq_temp150.000000000033//277dumped.pdb
./eq_temp150.000000000033//278dumped.pdb
./eq_temp150.000000000033//279dumped.pdb
./eq_temp150.000000000033//280dumped.pdb
./eq_temp150.000000000033//281dumped.pdb
./eq_temp150.000000000033//282dumped.pdb
./eq_temp150.000000000033//283dumped.pdb
./eq_temp150.000000000033//284dumped.pdb
./eq_temp150.000000000033//285dumped.pdb
./eq_temp150.000000000033//286dumped.pdb
./eq_temp150.000000000033//287dumped.pdb
./eq_temp150.000000000033//288dumped.pdb
./eq_temp150.000000000033//289dumped.pdb
./eq_temp150.000000000033//290dumped.pdb
./eq_temp150.000000000033//291dumped.pdb
./eq_temp150.000000000033//292dumped.pdb
./eq_temp150.000000000033//293dumped.pdb
./eq_temp150.000000000033//294dumped.pdb
./eq_temp150.000000000033//295dumped.pdb
./eq_temp150.000000000033//296dumped.pdb
./eq_temp150.000000000033//297dumped.pdb
./eq_temp150.000000001302//356dumped.pdb
./eq_temp150.000000001302//357dumped.pdb
./eq_temp150.000000001302//358dumped.pdb
./eq_temp150.000000001302//359dumped.pdb
./eq_temp150.000000000743//351dumped.pdb
./eq_temp150.000000000743//352dumped.pdb
./eq_temp150.000000000743//353dumped.pdb
./eq_temp150.000000000743//354dumped.pdb
./eq_temp150.000000000743//355dumped.pdb
./eq_temp150.000000002804//97dumped.pdb
./eq_temp150.000000002804//98dumped.pdb
./eq_temp150.000000002804//99dumped.pdb
./eq_temp150.000000002804//100dumped.pdb
./eq_temp150.000000002804//101dumped.pdb
./eq_temp150.000000002804//102dumped.pdb
./eq_temp150.000000002804//103dumped.pdb
./eq_temp150.000000002804//104dumped.pdb
./eq_temp150.000000002804//105dumped.pdb
./eq_temp150.000000002804//106dumped.pdb
./eq_temp150.000000000841//41dumped.pdb
./eq_temp150.000000000841//44dumped.pdb
./eq_temp150.000000000841//45dumped.pdb
./eq_temp150.000000000841//46dumped.pdb
./eq_temp150.000000000841//47dumped.pdb
./eq_temp150.000000000841//48dumped.pdb
./eq_temp150.00000000017//410dumped.pdb
./eq_temp150.00000000017//411dumped.pdb
./eq_temp150.00000000017//412dumped.pdb
./eq_temp150.00000000017//413dumped.pdb
./eq_temp150.00000000017//414dumped.pdb
./eq_temp150.00000000017//415dumped.pdb
./eq_temp150.00000000017//416dumped.pdb
./eq_temp150.0000000007//180dumped.pdb
./eq_temp150.0000000007//181dumped.pdb
./eq_temp150.0000000007//182dumped.pdb
./eq_temp150.0000000007//183dumped.pdb
./eq_temp150.000000001202//41dumped.pdb
./eq_temp150.000000001202//42dumped.pdb
./eq_temp150.000000001202//43dumped.pdb
./eq_temp150.000000001202//44dumped.pdb
./eq_temp150.000000001202//45dumped.pdb
./eq_temp150.000000001202//46dumped.pdb
./eq_temp150.000000001202//47dumped.pdb
./eq_temp150.00000000067//568dumped.pdb
./eq_temp150.00000000067//572dumped.pdb
./eq_temp150.00000000048//135dumped.pdb
./eq_temp150.00000000048//136dumped.pdb
./eq_temp150.00000000048//137dumped.pdb
./eq_temp150.00000000055//142dumped.pdb
./eq_temp150.00000000055//143dumped.pdb
./eq_temp150.00000000055//144dumped.pdb
./eq_temp150.00000000055//145dumped.pdb
./eq_temp150.00000000055//146dumped.pdb
./eq_temp150.00000000055//147dumped.pdb
./eq_temp150.00000000055//148dumped.pdb
./eq_temp150.00000000055//149dumped.pdb
./eq_temp150.00000000055//150dumped.pdb
./eq_temp150.00000000071//15dumped.pdb
./eq_temp150.00000000071//16dumped.pdb
./eq_temp150.00000000071//17dumped.pdb
./eq_temp150.00000000071//18dumped.pdb
./eq_temp150.00000000071//19dumped.pdb
./eq_temp150.00000000071//20dumped.pdb
./eq_temp150.00000000071//21dumped.pdb
./eq_temp150.00000000071//22dumped.pdb
./eq_temp150.00000000071//23dumped.pdb
./eq_temp150.000000005848//69dumped.pdb
./eq_temp150.000000005848//70dumped.pdb
./eq_temp150.000000005848//71dumped.pdb
./eq_temp150.000000005848//72dumped.pdb
./eq_temp150.000000005848//73dumped.pdb
./eq_temp150.000000005848//74dumped.pdb
./eq_temp150.000000005848//75dumped.pdb
./eq_temp150.000000005848//76dumped.pdb
./eq_temp150.000000005848//77dumped.pdb
./eq_temp150.000000001702//248dumped.pdb
./eq_temp150.000000001702//249dumped.pdb
./eq_temp150.000000001702//250dumped.pdb
./eq_temp150.000000000201//267dumped.pdb
./eq_temp150.000000000201//268dumped.pdb
./eq_temp150.000000000201//269dumped.pdb
./eq_temp150.000000000201//270dumped.pdb
./eq_temp150.000000000201//271dumped.pdb
./eq_temp150.000000000201//272dumped.pdb
./eq_temp150.000000000201//273dumped.pdb
./eq_temp150.000000000201//274dumped.pdb
./eq_temp150.000000105496//194dumped.pdb
./eq_temp150.000000105496//195dumped.pdb
./eq_temp150.000000105496//196dumped.pdb
./eq_temp150.000000105496//197dumped.pdb
./eq_temp150.000000105496//198dumped.pdb
./eq_temp150.000000105496//199dumped.pdb
./eq_temp150.000000105496//200dumped.pdb
./eq_temp150.000000105496//201dumped.pdb
./eq_temp150.000000105496//202dumped.pdb
./eq_temp150.000000105496//203dumped.pdb
./eq_temp150.000000105496//204dumped.pdb
./eq_temp150.000000105496//205dumped.pdb
./eq_temp150.000000105496//206dumped.pdb
./eq_temp150.000000105496//207dumped.pdb
./eq_temp150.000000105496//208dumped.pdb
./eq_temp150.000000105496//209dumped.pdb
./eq_temp150.000000105496//210dumped.pdb
./eq_temp150.000000105496//211dumped.pdb
./eq_temp150.000000105496//212dumped.pdb
./eq_temp150.000000105496//213dumped.pdb
./eq_temp150.000000105496//214dumped.pdb
./eq_temp150.000000105496//215dumped.pdb
./eq_temp150.000000006253//194dumped.pdb
./eq_temp150.000000006253//195dumped.pdb
./eq_temp150.000000006253//196dumped.pdb
./eq_temp150.000000006253//197dumped.pdb
./eq_temp150.000000006253//198dumped.pdb
./eq_temp150.00000000061//510dumped.pdb
./eq_temp150.00000000061//511dumped.pdb
./eq_temp150.00000000061//512dumped.pdb
./eq_temp150.00000000061//513dumped.pdb
./eq_temp150.00000000061//514dumped.pdb
./eq_temp150.00000000061//515dumped.pdb
./eq_temp150.00000000061//516dumped.pdb
./eq_temp150.00000000061//517dumped.pdb
./eq_temp150.00000000061//518dumped.pdb
./eq_temp150.00000000061//519dumped.pdb
./eq_temp150.00000000061//520dumped.pdb
./eq_temp150.00000000061//521dumped.pdb
./eq_temp150.00000000061//522dumped.pdb
./eq_temp150.00000000061//523dumped.pdb
./eq_temp150.00000000061//524dumped.pdb
./eq_temp150.00000000061//525dumped.pdb
./eq_temp150.00000000061//526dumped.pdb
./eq_temp150.00000000061//527dumped.pdb
./eq_temp150.00000000061//528dumped.pdb
./eq_temp150.00000000061//529dumped.pdb
./eq_temp150.00000000061//530dumped.pdb
./eq_temp150.00000000061//531dumped.pdb
./eq_temp150.00000000061//532dumped.pdb
./eq_temp150.00000000061//533dumped.pdb
./eq_temp150.00000000061//534dumped.pdb
./eq_temp150.00000000061//535dumped.pdb
./eq_temp150.00000000061//536dumped.pdb
./eq_temp150.00000000061//537dumped.pdb
./eq_temp150.00000000061//538dumped.pdb
./eq_temp150.00000000061//539dumped.pdb
./eq_temp150.00000000061//540dumped.pdb
./eq_temp150.00000000061//541dumped.pdb
./eq_temp150.00000000061//542dumped.pdb
./eq_temp150.00000000061//543dumped.pdb
./eq_temp150.00000000061//544dumped.pdb
./eq_temp150.00000000061//545dumped.pdb
./eq_temp150.00000000061//546dumped.pdb
./eq_temp150.00000000061//547dumped.pdb
./eq_temp150.00000000061//548dumped.pdb
./eq_temp150.00000000061//549dumped.pdb
./eq_temp150.00000000061//550dumped.pdb
./eq_temp150.00000000061//551dumped.pdb
./eq_temp150.00000000061//552dumped.pdb
./eq_temp150.00000000061//553dumped.pdb
./eq_temp150.00000000061//554dumped.pdb
./eq_temp150.000000001107//76dumped.pdb
./eq_temp150.000000001107//77dumped.pdb
./eq_temp150.000000001107//78dumped.pdb
./eq_temp150.000000001107//79dumped.pdb
./eq_temp150.000000001107//80dumped.pdb
./eq_temp150.000000001107//81dumped.pdb
./eq_temp150.000000001107//82dumped.pdb
./eq_temp150.000000001107//84dumped.pdb
./eq_temp150.000000001107//85dumped.pdb
./eq_temp150.000000001941//469dumped.pdb
./eq_temp150.000000001941//470dumped.pdb
./eq_temp150.000000001941//471dumped.pdb
./eq_temp150.000000001941//472dumped.pdb
./eq_temp150.000000001941//473dumped.pdb
./eq_temp150.000000001941//474dumped.pdb
./eq_temp150.000000002951//99dumped.pdb
./eq_temp150.000000002951//100dumped.pdb
./eq_temp150.000000002951//101dumped.pdb
./eq_temp150.000000002951//102dumped.pdb
./eq_temp150.000000002951//103dumped.pdb
./eq_temp150.000000002951//104dumped.pdb
./eq_temp150.000000002951//105dumped.pdb
./eq_temp150.000000002951//106dumped.pdb
./eq_temp150.000000003178//242dumped.pdb
./eq_temp150.000000003178//243dumped.pdb
./eq_temp150.000000003178//244dumped.pdb
./eq_temp150.000000003178//245dumped.pdb
./eq_temp150.000000003178//246dumped.pdb
./eq_temp150.000000003178//247dumped.pdb
./eq_temp150.000000003178//248dumped.pdb
./eq_temp150.000000003178//249dumped.pdb
./eq_temp150.000000003178//250dumped.pdb
./eq_temp150.000000003178//251dumped.pdb
./eq_temp150.000000003178//252dumped.pdb
./eq_temp150.000000005578//427dumped.pdb
./eq_temp150.000000005578//428dumped.pdb
./eq_temp150.000000005578//429dumped.pdb
./eq_temp150.000000005578//430dumped.pdb
./eq_temp150.000000015544//703dumped.pdb
./eq_temp150.000000015544//704dumped.pdb
./eq_temp150.000000004164//219dumped.pdb
./eq_temp150.000000004164//220dumped.pdb
./eq_temp150.000000004164//221dumped.pdb
./eq_temp150.000000004164//222dumped.pdb
./eq_temp150.000000004164//223dumped.pdb
./eq_temp150.000000004164//224dumped.pdb
./eq_temp150.000000004164//225dumped.pdb
./eq_temp150.000000004164//226dumped.pdb
./eq_temp150.000000004164//227dumped.pdb
./eq_temp150.000000004164//228dumped.pdb
./eq_temp150.000000004164//229dumped.pdb
./eq_temp150.000000004164//230dumped.pdb
./eq_temp150.000000004164//231dumped.pdb
./eq_temp150.000000005477//183dumped.pdb
./eq_temp150.000000005477//184dumped.pdb
./eq_temp150.000000005477//185dumped.pdb
./eq_temp150.00000000121//155dumped.pdb
./eq_temp150.00000000121//156dumped.pdb
./eq_temp150.00000000121//157dumped.pdb
./eq_temp150.00000000121//158dumped.pdb
./eq_temp150.00000000121//159dumped.pdb
./eq_temp150.00000000121//160dumped.pdb
./eq_temp150.00000000121//161dumped.pdb
./eq_temp150.00000000121//162dumped.pdb
./eq_temp150.00000000121//163dumped.pdb
./eq_temp150.000000004777//169dumped.pdb
./eq_temp150.000000004777//170dumped.pdb
./eq_temp150.000000004405//22dumped.pdb
./eq_temp150.000000004405//23dumped.pdb
./eq_temp150.000000000704//50dumped.pdb
./eq_temp150.00000000043//137dumped.pdb
./eq_temp150.00000000043//138dumped.pdb
./eq_temp150.00000000043//139dumped.pdb
./eq_temp150.00000000043//140dumped.pdb
./eq_temp150.00000000043//141dumped.pdb
./eq_temp150.00000000043//142dumped.pdb
./eq_temp150.00000000043//143dumped.pdb
./eq_temp150.00000000043//144dumped.pdb
./eq_temp150.00000000043//145dumped.pdb
./eq_temp150.00000000043//146dumped.pdb
./eq_temp150.00000000043//147dumped.pdb
./eq_temp150.00000000043//148dumped.pdb
./eq_temp150.00000000043//149dumped.pdb
./eq_temp150.00000000043//150dumped.pdb
./eq_temp150.00000000043//151dumped.pdb
./eq_temp150.00000000043//152dumped.pdb
./eq_temp150.00000000043//153dumped.pdb
./eq_temp150.000000000992//98dumped.pdb
./eq_temp150.000000000992//99dumped.pdb
./eq_temp150.000000000992//100dumped.pdb
./eq_temp150.000000002034//123dumped.pdb
./eq_temp150.000000002034//124dumped.pdb
./eq_temp150.000000002034//125dumped.pdb
./eq_temp150.000000002034//126dumped.pdb
./eq_temp150.000000002034//127dumped.pdb
./eq_temp150.000000002034//128dumped.pdb
./eq_temp150.000000002034//129dumped.pdb
./eq_temp150.000000103386//294dumped.pdb
./eq_temp150.000000103386//295dumped.pdb
./eq_temp150.000000103386//296dumped.pdb
./eq_temp150.000000103386//297dumped.pdb
./eq_temp150.000000103386//298dumped.pdb
./eq_temp150.000000103386//299dumped.pdb
./eq_temp150.000000103386//300dumped.pdb
./eq_temp150.000000103386//301dumped.pdb
./eq_temp150.000000103386//302dumped.pdb
./eq_temp150.000000103386//303dumped.pdb
./eq_temp150.000000103386//304dumped.pdb
./eq_temp150.000000103386//305dumped.pdb
./eq_temp150.000000103386//306dumped.pdb
./eq_temp150.000000103386//307dumped.pdb
./eq_temp150.000000103386//308dumped.pdb
./eq_temp150.000000103386//309dumped.pdb
./eq_temp150.000000103386//310dumped.pdb
./eq_temp150.000000103386//311dumped.pdb
./eq_temp150.000000103386//312dumped.pdb
./eq_temp150.000000103386//313dumped.pdb
./eq_temp150.000000103386//314dumped.pdb
./eq_temp150.000000103386//315dumped.pdb
./eq_temp150.000000103386//316dumped.pdb
./test/eq_temp150.00000000003//146dumped.pdb
./test/eq_temp150.00000000001//163dumped.pdb
./test/eq_temp150.00000000001//164dumped.pdb
./test/eq_temp150.00000000001//165dumped.pdb
./test/eq_temp150.00000000001//166dumped.pdb
./test/eq_temp150.00000000001//167dumped.pdb
./test/eq_temp150.000000000001//265dumped.pdb
./test/eq_temp150.000000000001//266dumped.pdb
./test/eq_temp150.000000000001//267dumped.pdb
./test/eq_temp150.000000000001//268dumped.pdb
./test/eq_temp150.000000000001//269dumped.pdb
./test/eq_temp150.000000000001//270dumped.pdb
./test/eq_temp150.000000000001//271dumped.pdb
./test/eq_temp150.000000000001//272dumped.pdb
./test/eq_temp150.000000000001//273dumped.pdb
./test/eq_temp150.000000000001//274dumped.pdb
./test/eq_temp150.000000000001//275dumped.pdb
./test/eq_temp150.000000000001//276dumped.pdb
./test/eq_temp150.000000000001//277dumped.pdb
./test/eq_temp150.000000000001//278dumped.pdb
./test/eq_temp150.000000000001//279dumped.pdb
./test/eq_temp150.000000000001//280dumped.pdb
./test/eq_temp150.000000000001//281dumped.pdb
./test/eq_temp150.000000000001//282dumped.pdb
./test/eq_temp150.000000000052//62dumped.pdb
./test/eq_temp150.000000000052//63dumped.pdb
./test/eq_temp150.000000000052//64dumped.pdb
./test/eq_temp150.000000000052//65dumped.pdb
./test/eq_temp150.000000000033//277dumped.pdb
./test/eq_temp150.000000000033//278dumped.pdb
./test/eq_temp150.000000000033//279dumped.pdb
./test/eq_temp150.000000000033//280dumped.pdb
./test/eq_temp150.000000000033//281dumped.pdb
./test/eq_temp150.000000000033//282dumped.pdb
./test/eq_temp150.000000000033//283dumped.pdb
./test/eq_temp150.000000000033//284dumped.pdb
./test/eq_temp150.000000000033//285dumped.pdb
./test/eq_temp150.000000000033//286dumped.pdb
./test/eq_temp150.000000000033//287dumped.pdb
./test/eq_temp150.000000000033//288dumped.pdb
./test/eq_temp150.000000000033//289dumped.pdb
./test/eq_temp150.000000000033//290dumped.pdb
./test/eq_temp150.000000000033//291dumped.pdb
./test/eq_temp150.000000000033//292dumped.pdb
./test/eq_temp150.000000000033//293dumped.pdb
./test/eq_temp150.000000000033//294dumped.pdb
./test/eq_temp150.000000000033//295dumped.pdb
./test/eq_temp150.000000000033//296dumped.pdb
./test/eq_temp150.000000000033//297dumped.pdb
./eq_temp150.000000000602//125dumped.pdb
./eq_temp150.000000000602//126dumped.pdb
./eq_temp150.000000000602//127dumped.pdb
./eq_temp150.000000000602//128dumped.pdb
./eq_temp150.000000000602//129dumped.pdb
./eq_temp150.000000000602//130dumped.pdb
./eq_temp150.000000000602//132dumped.pdb
./eq_temp150.000000000602//133dumped.pdb
./eq_temp150.000000000602//134dumped.pdb
./eq_temp150.000000000602//135dumped.pdb
./eq_temp150.000000000602//136dumped.pdb
./eq_temp150.000000000602//137dumped.pdb
./eq_temp150.000000000602//138dumped.pdb
./eq_temp150.000000000602//139dumped.pdb
./eq_temp150.000000000602//140dumped.pdb
./eq_temp150.000000000602//141dumped.pdb
./eq_temp150.000000000602//142dumped.pdb
./eq_temp150.000000000602//143dumped.pdb
./eq_temp150.000000000602//144dumped.pdb
./eq_temp150.000000000602//145dumped.pdb
./eq_temp150.000000000602//146dumped.pdb
./eq_temp150.000000000602//147dumped.pdb
./eq_temp150.000000000602//148dumped.pdb
./eq_temp150.000000000602//149dumped.pdb
./eq_temp150.000000000602//150dumped.pdb
./eq_temp150.000000000602//151dumped.pdb
./eq_temp150.000000000964//526dumped.pdb
./eq_temp150.000000000964//528dumped.pdb
./eq_temp150.000000000964//529dumped.pdb
./eq_temp150.000000000964//530dumped.pdb
./eq_temp150.000000000964//531dumped.pdb
./eq_temp150.000000000595//388dumped.pdb
./eq_temp150.000000000595//389dumped.pdb
./eq_temp150.000000000595//390dumped.pdb
./eq_temp150.000000001402//29dumped.pdb
./eq_temp150.000000001402//30dumped.pdb
./eq_temp150.000000001402//31dumped.pdb
./eq_temp150.00000001918//25dumped.pdb
./eq_temp150.00000001918//26dumped.pdb
./eq_temp150.00000001918//27dumped.pdb
./eq_temp150.00000001918//28dumped.pdb
./eq_temp150.00000001918//29dumped.pdb
./eq_temp150.00000001918//30dumped.pdb
./eq_temp150.00000001918//31dumped.pdb
./eq_temp150.00000001918//32dumped.pdb
./eq_temp150.000000000378//120dumped.pdb
./eq_temp150.000000000378//121dumped.pdb
./eq_temp150.000000000378//123dumped.pdb
./eq_temp150.000000000839//250dumped.pdb
./eq_temp150.000000000839//251dumped.pdb
./eq_temp150.000000006083//28dumped.pdb
./eq_temp150.000000006083//29dumped.pdb
./eq_temp150.000000006083//30dumped.pdb
./eq_temp150.000000006083//31dumped.pdb
./eq_temp150.000000006083//32dumped.pdb
./eq_temp150.000000006083//33dumped.pdb
./eq_temp150.000000006083//34dumped.pdb
./eq_temp150.000000006083//35dumped.pdb
