./eq_temp150.000000001537//45dumped.pdb
./eq_temp150.000000001537//46dumped.pdb
./eq_temp150.000000001537//47dumped.pdb
./eq_temp150.000000003256//158dumped.pdb
./eq_temp150.000000003256//159dumped.pdb
./eq_temp150.000000003256//162dumped.pdb
./eq_temp150.000000003256//164dumped.pdb
./eq_temp150.000000003256//166dumped.pdb
./eq_temp150.000000003256//168dumped.pdb
./eq_temp150.000000003256//171dumped.pdb
./eq_temp150.000000003256//175dumped.pdb
./eq_temp150.000000003256//176dumped.pdb
./eq_temp150.000000003256//180dumped.pdb
./eq_temp150.000000003256//183dumped.pdb
./eq_temp150.000000003256//184dumped.pdb
./eq_temp150.000000003256//186dumped.pdb
./eq_temp150.000000003256//194dumped.pdb
./eq_temp150.000000003256//196dumped.pdb
./eq_temp150.000000003256//198dumped.pdb
./eq_temp150.000000003256//199dumped.pdb
./eq_temp150.000000003256//203dumped.pdb
./eq_temp150.000000003256//204dumped.pdb
./eq_temp150.000000003256//206dumped.pdb
./eq_temp150.000000003256//209dumped.pdb
./eq_temp150.000000003256//214dumped.pdb
./eq_temp150.000000003256//217dumped.pdb
./eq_temp150.000000001234//90dumped.pdb
./eq_temp150.000000001234//92dumped.pdb
./eq_temp150.000000001234//96dumped.pdb
./eq_temp150.000000001234//99dumped.pdb
./eq_temp150.000000001234//100dumped.pdb
./eq_temp150.000000002403//129dumped.pdb
./eq_temp150.000000002403//130dumped.pdb
./eq_temp150.000000002403//131dumped.pdb
./eq_temp150.000000002403//133dumped.pdb
./eq_temp150.000000002403//136dumped.pdb
./eq_temp150.000000002403//138dumped.pdb
./eq_temp150.000000002403//139dumped.pdb
./eq_temp150.000000002403//140dumped.pdb
./eq_temp150.000000002403//141dumped.pdb
./eq_temp150.000000002403//143dumped.pdb
./eq_temp150.000000002403//146dumped.pdb
./eq_temp150.000000002403//149dumped.pdb
./eq_temp150.00000000013//285dumped.pdb
./eq_temp150.000000002244//17dumped.pdb
./eq_temp150.000000002244//33dumped.pdb
./eq_temp150.000000002244//38dumped.pdb
./eq_temp150.000000002244//39dumped.pdb
./eq_temp150.000000002244//44dumped.pdb
./eq_temp150.000000002244//47dumped.pdb
./eq_temp150.000000002244//50dumped.pdb
./eq_temp150.000000002244//56dumped.pdb
./eq_temp150.000000002244//57dumped.pdb
./eq_temp150.000000002244//58dumped.pdb
./eq_temp150.000000002244//60dumped.pdb
./eq_temp150.000000002244//62dumped.pdb
./eq_temp150.000000002244//63dumped.pdb
./eq_temp150.000000005982//4dumped.pdb
./eq_temp150.000000005982//6dumped.pdb
./eq_temp150.000000005982//7dumped.pdb
./eq_temp150.000000005982//8dumped.pdb
./eq_temp150.000000005982//9dumped.pdb
./eq_temp150.000000004112//317dumped.pdb
./eq_temp150.000000004112//341dumped.pdb
./eq_temp150.000000004112//342dumped.pdb
./eq_temp150.000000004112//343dumped.pdb
./eq_temp150.000000004112//344dumped.pdb
./eq_temp150.000000002003//149dumped.pdb
./eq_temp150.000000002003//152dumped.pdb
./eq_temp150.000000002003//153dumped.pdb
./eq_temp150.000000002003//157dumped.pdb
./eq_temp150.000000002003//159dumped.pdb
./eq_temp150.000000002003//161dumped.pdb
./eq_temp150.000000002003//164dumped.pdb
./eq_temp150.000000002003//167dumped.pdb
./eq_temp150.000000002003//169dumped.pdb
./eq_temp150.000000005707//135dumped.pdb
./eq_temp150.000000005707//141dumped.pdb
./eq_temp150.000000005707//147dumped.pdb
./eq_temp150.000000005707//152dumped.pdb
./eq_temp150.000000005707//155dumped.pdb
./eq_temp150.000000005707//157dumped.pdb
./eq_temp150.000000005707//160dumped.pdb
./eq_temp150.000000005707//163dumped.pdb
./eq_temp150.000000005707//164dumped.pdb
./eq_temp150.000000005707//166dumped.pdb
./eq_temp150.000000005707//170dumped.pdb
./eq_temp150.000000005707//171dumped.pdb
./eq_temp150.000000005707//172dumped.pdb
./eq_temp150.000000005707//180dumped.pdb
./eq_temp150.000000005707//184dumped.pdb
./eq_temp150.000000005707//185dumped.pdb
./eq_temp150.000000005707//186dumped.pdb
./eq_temp150.000000005707//188dumped.pdb
./eq_temp150.000000005707//189dumped.pdb
./eq_temp150.000000005707//192dumped.pdb
./eq_temp150.000000005707//193dumped.pdb
./eq_temp150.000000005707//197dumped.pdb
./eq_temp150.000000005707//199dumped.pdb
./eq_temp150.000000005707//201dumped.pdb
./eq_temp150.000000005707//205dumped.pdb
./eq_temp150.000000005707//206dumped.pdb
./eq_temp150.000000005707//211dumped.pdb
./eq_temp150.000000005707//212dumped.pdb
./eq_temp150.00000000002//591dumped.pdb
./eq_temp150.00000000002//595dumped.pdb
./eq_temp150.00000000002//598dumped.pdb
./eq_temp150.00000000002//599dumped.pdb
./eq_temp150.00000000002//600dumped.pdb
./eq_temp150.00000000002//604dumped.pdb
./eq_temp150.00000000002//608dumped.pdb
./eq_temp150.00000000002//874dumped.pdb
./eq_temp150.00000000002//875dumped.pdb
./eq_temp150.00000000002//890dumped.pdb
./eq_temp150.00000000002//891dumped.pdb
./eq_temp150.00000000002//896dumped.pdb
./eq_temp150.00000000002//899dumped.pdb
./eq_temp150.00000000002//901dumped.pdb
./eq_temp150.00000000002//902dumped.pdb
./eq_temp150.00000000002//905dumped.pdb
./eq_temp150.000000005392//352dumped.pdb
./eq_temp150.000000005392//355dumped.pdb
./eq_temp150.000000005392//356dumped.pdb
./eq_temp150.000000005392//357dumped.pdb
./eq_temp150.000000005392//360dumped.pdb
./eq_temp150.000000005392//362dumped.pdb
./eq_temp150.000000005392//364dumped.pdb
./eq_temp150.000000005392//365dumped.pdb
./eq_temp150.000000005392//367dumped.pdb
./eq_temp150.000000005392//368dumped.pdb
./eq_temp150.000000005392//369dumped.pdb
./eq_temp150.000000005392//371dumped.pdb
./eq_temp150.000000005392//374dumped.pdb
./eq_temp150.000000005392//383dumped.pdb
./eq_temp150.000000000148//106dumped.pdb
./eq_temp150.000000000148//107dumped.pdb
./eq_temp150.000000000091//133dumped.pdb
./eq_temp150.000000000091//139dumped.pdb
./eq_temp150.000000000091//140dumped.pdb
./eq_temp150.000000101698//118dumped.pdb
./eq_temp150.000000101698//119dumped.pdb
./eq_temp150.000000101698//120dumped.pdb
./eq_temp150.000000101698//121dumped.pdb
./eq_temp150.000000101698//123dumped.pdb
./eq_temp150.000000101698//130dumped.pdb
./eq_temp150.000000101698//134dumped.pdb
./eq_temp150.000000101698//143dumped.pdb
./eq_temp150.000000101698//154dumped.pdb
./eq_temp150.000000101698//157dumped.pdb
./eq_temp150.000000101698//164dumped.pdb
./eq_temp150.000000101698//167dumped.pdb
./eq_temp150.000000101698//169dumped.pdb
./eq_temp150.000000101698//172dumped.pdb
./eq_temp150.000000101698//179dumped.pdb
./eq_temp150.000000101698//180dumped.pdb
./eq_temp150.000000101698//183dumped.pdb
./eq_temp150.000000101698//188dumped.pdb
./eq_temp150.00000000031//136dumped.pdb
./eq_temp150.00000000031//137dumped.pdb
./eq_temp150.00000000031//138dumped.pdb
./eq_temp150.00000000031//140dumped.pdb
./eq_temp150.00000000031//141dumped.pdb
./eq_temp150.00000000031//142dumped.pdb
./eq_temp150.00000000031//143dumped.pdb
./eq_temp150.00000000031//146dumped.pdb
./eq_temp150.00000000031//148dumped.pdb
./eq_temp150.00000000031//150dumped.pdb
./eq_temp150.00000000031//153dumped.pdb
./eq_temp150.000000005679//35dumped.pdb
./eq_temp150.000000005679//36dumped.pdb
./eq_temp150.000000004601//165dumped.pdb
./eq_temp150.000000004601//166dumped.pdb
./eq_temp150.000000004601//167dumped.pdb
./eq_temp150.000000004601//169dumped.pdb
./eq_temp150.000000004601//173dumped.pdb
./eq_temp150.000000004601//174dumped.pdb
./eq_temp150.000000004601//180dumped.pdb
./eq_temp150.000000004601//183dumped.pdb
./eq_temp150.000000004601//193dumped.pdb
./eq_temp150.000000004601//195dumped.pdb
./eq_temp150.000000004601//196dumped.pdb
./eq_temp150.000000004601//198dumped.pdb
./eq_temp150.000000004601//201dumped.pdb
./eq_temp150.000000004601//205dumped.pdb
./eq_temp150.000000004601//207dumped.pdb
./eq_temp150.000000004601//213dumped.pdb
./eq_temp150.000000004601//215dumped.pdb
./eq_temp150.000000004601//235dumped.pdb
./eq_temp150.000000004601//239dumped.pdb
./eq_temp150.000000004601//241dumped.pdb
./eq_temp150.000000004601//245dumped.pdb
./eq_temp150.000000004601//250dumped.pdb
./eq_temp150.000000004601//251dumped.pdb
./eq_temp150.000000004601//253dumped.pdb
./eq_temp150.000000004601//259dumped.pdb
./eq_temp150.00000000053//353dumped.pdb
./eq_temp150.00000000053//360dumped.pdb
./eq_temp150.00000000053//361dumped.pdb
./eq_temp150.00000000053//363dumped.pdb
./eq_temp150.00000000053//364dumped.pdb
./eq_temp150.00000000053//365dumped.pdb
./eq_temp150.00000000053//366dumped.pdb
./eq_temp150.00000000053//373dumped.pdb
./eq_temp150.000000000718//30dumped.pdb
./eq_temp150.000000000071//400dumped.pdb
./eq_temp150.000000000071//401dumped.pdb
./eq_temp150.000000000071//403dumped.pdb
./eq_temp150.000000000071//404dumped.pdb
./eq_temp150.000000000071//406dumped.pdb
./eq_temp150.000000000071//411dumped.pdb
./eq_temp150.000000000071//412dumped.pdb
./eq_temp150.000000000071//414dumped.pdb
./eq_temp150.000000000071//777dumped.pdb
./eq_temp150.000000000071//781dumped.pdb
./eq_temp150.00000000578//152dumped.pdb
./eq_temp150.00000000578//153dumped.pdb
./eq_temp150.00000000578//156dumped.pdb
./eq_temp150.00000000578//159dumped.pdb
./eq_temp150.00000000578//163dumped.pdb
./eq_temp150.00000000578//165dumped.pdb
./eq_temp150.00000000578//168dumped.pdb
./eq_temp150.00000000578//183dumped.pdb
./eq_temp150.000000100432//2dumped.pdb
./eq_temp150.000000100432//3dumped.pdb
./eq_temp150.000000100432//5dumped.pdb
./eq_temp150.000000100432//6dumped.pdb
./eq_temp150.000000100432//8dumped.pdb
./eq_temp150.000000100432//9dumped.pdb
./eq_temp150.000000100432//11dumped.pdb
./eq_temp150.000000100432//12dumped.pdb
./eq_temp150.000000100432//22dumped.pdb
./eq_temp150.000000100432//23dumped.pdb
./eq_temp150.000000100432//28dumped.pdb
./eq_temp150.000000100432//35dumped.pdb
./eq_temp150.000000100432//39dumped.pdb
./eq_temp150.000000100432//42dumped.pdb
./eq_temp150.000000100432//43dumped.pdb
./eq_temp150.000000100432//44dumped.pdb
./eq_temp150.000000100432//47dumped.pdb
./eq_temp150.000000100432//55dumped.pdb
./eq_temp150.000000100432//61dumped.pdb
./eq_temp150.000000100432//62dumped.pdb
./eq_temp150.000000100432//69dumped.pdb
./eq_temp150.000000100432//73dumped.pdb
./eq_temp150.000000100432//75dumped.pdb
./eq_temp150.000000100432//77dumped.pdb
./eq_temp150.00000000003//243dumped.pdb
./eq_temp150.00000000003//246dumped.pdb
./eq_temp150.00000000003//247dumped.pdb
./eq_temp150.00000000003//249dumped.pdb
./eq_temp150.00000000003//252dumped.pdb
./eq_temp150.00000000003//253dumped.pdb
./eq_temp150.00000000003//254dumped.pdb
./eq_temp150.00000000003//256dumped.pdb
./eq_temp150.000000002563//542dumped.pdb
./eq_temp150.000000002563//548dumped.pdb
./eq_temp150.000000002563//549dumped.pdb
./eq_temp150.000000002563//550dumped.pdb
./eq_temp150.000000002563//551dumped.pdb
./eq_temp150.000000002563//552dumped.pdb
./eq_temp150.000000002563//557dumped.pdb
./eq_temp150.000000002563//558dumped.pdb
./eq_temp150.000000002563//559dumped.pdb
./eq_temp150.000000002563//560dumped.pdb
./eq_temp150.000000002563//561dumped.pdb
./eq_temp150.000000002563//562dumped.pdb
./eq_temp150.000000002563//563dumped.pdb
./eq_temp150.000000002563//564dumped.pdb
./eq_temp150.000000002563//565dumped.pdb
./eq_temp150.000000002563//571dumped.pdb
./eq_temp150.00000000015//42dumped.pdb
./eq_temp150.00000000015//45dumped.pdb
./eq_temp150.00000000015//46dumped.pdb
./eq_temp150.00000000015//59dumped.pdb
./eq_temp150.00000000015//63dumped.pdb
./eq_temp150.00000000015//64dumped.pdb
./eq_temp150.00000000015//65dumped.pdb
./eq_temp150.00000000015//66dumped.pdb
./eq_temp150.000000004845//208dumped.pdb
./eq_temp150.000000003861//49dumped.pdb
./eq_temp150.000000003861//50dumped.pdb
./eq_temp150.000000003861//51dumped.pdb
./eq_temp150.000000003861//57dumped.pdb
./eq_temp150.000000003861//60dumped.pdb
./eq_temp150.000000002704//38dumped.pdb
./eq_temp150.000000002704//40dumped.pdb
./eq_temp150.000000002704//52dumped.pdb
./eq_temp150.000000002704//56dumped.pdb
./eq_temp150.000000002547//10dumped.pdb
./eq_temp150.000000002547//11dumped.pdb
./eq_temp150.000000002547//13dumped.pdb
./eq_temp150.000000002547//20dumped.pdb
./eq_temp150.000000002547//21dumped.pdb
./eq_temp150.000000002547//22dumped.pdb
./eq_temp150.000000002547//27dumped.pdb
./eq_temp150.000000002547//32dumped.pdb
./eq_temp150.000000002547//33dumped.pdb
./eq_temp150.000000002547//36dumped.pdb
./eq_temp150.000000002547//38dumped.pdb
./eq_temp150.000000002547//40dumped.pdb
./eq_temp150.000000002547//41dumped.pdb
./eq_temp150.000000002547//44dumped.pdb
./eq_temp150.000000002547//48dumped.pdb
./eq_temp150.000000002547//49dumped.pdb
./eq_temp150.000000002547//50dumped.pdb
./eq_temp150.000000002547//59dumped.pdb
./eq_temp150.000000002547//61dumped.pdb
./eq_temp150.000000002547//65dumped.pdb
./eq_temp150.000000002547//76dumped.pdb
./eq_temp150.000000004568//182dumped.pdb
./eq_temp150.000000004568//187dumped.pdb
./eq_temp150.000000004568//196dumped.pdb
./eq_temp150.000000004568//197dumped.pdb
./eq_temp150.000000101276//14dumped.pdb
./eq_temp150.000000101276//22dumped.pdb
./eq_temp150.000000101276//23dumped.pdb
./eq_temp150.000000101276//27dumped.pdb
./eq_temp150.000000101276//28dumped.pdb
./eq_temp150.000000101276//34dumped.pdb
./eq_temp150.000000101276//36dumped.pdb
./eq_temp150.000000101276//44dumped.pdb
./eq_temp150.000000101276//50dumped.pdb
./eq_temp150.000000101276//54dumped.pdb
./eq_temp150.000000101276//55dumped.pdb
./eq_temp150.000000101276//56dumped.pdb
./eq_temp150.000000101276//59dumped.pdb
./eq_temp150.000000101276//60dumped.pdb
./eq_temp150.000000101276//64dumped.pdb
./eq_temp150.000000101276//71dumped.pdb
./eq_temp150.000000101276//72dumped.pdb
./eq_temp150.000000101276//89dumped.pdb
./eq_temp150.000000101276//90dumped.pdb
./eq_temp150.000000101276//92dumped.pdb
./eq_temp150.000000004285//49dumped.pdb
./eq_temp150.000000004285//51dumped.pdb
./eq_temp150.000000004285//53dumped.pdb
./eq_temp150.000000004285//56dumped.pdb
./eq_temp150.000000004285//58dumped.pdb
./eq_temp150.000000004285//59dumped.pdb
./eq_temp150.000000001//7dumped.pdb
./eq_temp150.000000001//13dumped.pdb
./eq_temp150.000000001//19dumped.pdb
./eq_temp150.00000000029//213dumped.pdb
./eq_temp150.00000000029//216dumped.pdb
./eq_temp150.00000000029//218dumped.pdb
./eq_temp150.00000000029//220dumped.pdb
./eq_temp150.00000000029//221dumped.pdb
./eq_temp150.00000000029//228dumped.pdb
./eq_temp150.00000000029//230dumped.pdb
./eq_temp150.00000000029//231dumped.pdb
./eq_temp150.00000000029//232dumped.pdb
./eq_temp150.00000000029//233dumped.pdb
./eq_temp150.00000000029//234dumped.pdb
./eq_temp150.00000000029//241dumped.pdb
./eq_temp150.00000000029//247dumped.pdb
./eq_temp150.00000000029//248dumped.pdb
./eq_temp150.00000000029//261dumped.pdb
./eq_temp150.00000000029//264dumped.pdb
./eq_temp150.00000000029//270dumped.pdb
./eq_temp150.00000000029//272dumped.pdb
./eq_temp150.00000000029//273dumped.pdb
./eq_temp150.00000000029//275dumped.pdb
./eq_temp150.00000000029//277dumped.pdb
./eq_temp150.00000000029//279dumped.pdb
./eq_temp150.00000000029//283dumped.pdb
./eq_temp150.00000000029//285dumped.pdb
./eq_temp150.00000000029//297dumped.pdb
./eq_temp150.00000000029//300dumped.pdb
./eq_temp150.00000000029//301dumped.pdb
./eq_temp150.00000000029//305dumped.pdb
./eq_temp150.00000000029//307dumped.pdb
./eq_temp150.00000000029//308dumped.pdb
./eq_temp150.00000000029//316dumped.pdb
./eq_temp150.00000000029//335dumped.pdb
./eq_temp150.00000000029//336dumped.pdb
./eq_temp150.00000000029//338dumped.pdb
./eq_temp150.00000000029//340dumped.pdb
./eq_temp150.00000000029//341dumped.pdb
./eq_temp150.00000000029//346dumped.pdb
./eq_temp150.00000000029//347dumped.pdb
./eq_temp150.00000000029//348dumped.pdb
./eq_temp150.00000000029//349dumped.pdb
./eq_temp150.00000000029//352dumped.pdb
./eq_temp150.00000000029//357dumped.pdb
./eq_temp150.00000000029//358dumped.pdb
./eq_temp150.00000000029//359dumped.pdb
./eq_temp150.00000000029//365dumped.pdb
./eq_temp150.00000000029//366dumped.pdb
./eq_temp150.00000000029//367dumped.pdb
./eq_temp150.00000000029//369dumped.pdb
./eq_temp150.00000000029//372dumped.pdb
./eq_temp150.00000000029//377dumped.pdb
./eq_temp150.00000000029//384dumped.pdb
./eq_temp150.00000000029//387dumped.pdb
./eq_temp150.00000000029//388dumped.pdb
./eq_temp150.00000000029//395dumped.pdb
./eq_temp150.00000000029//396dumped.pdb
./eq_temp150.00000000029//397dumped.pdb
./eq_temp150.00000000029//399dumped.pdb
./eq_temp150.00000000029//401dumped.pdb
./eq_temp150.00000000029//402dumped.pdb
./eq_temp150.00000000029//403dumped.pdb
./eq_temp150.00000000029//404dumped.pdb
./eq_temp150.00000000029//405dumped.pdb
./eq_temp150.00000000029//406dumped.pdb
./eq_temp150.00000000029//407dumped.pdb
./eq_temp150.00000000029//408dumped.pdb
./eq_temp150.00000000029//409dumped.pdb
./eq_temp150.00000000029//411dumped.pdb
./eq_temp150.00000000029//414dumped.pdb
./eq_temp150.00000000029//416dumped.pdb
./eq_temp150.00000000029//417dumped.pdb
./eq_temp150.00000000029//419dumped.pdb
./eq_temp150.00000000029//420dumped.pdb
./eq_temp150.00000000029//421dumped.pdb
./eq_temp150.00000000029//422dumped.pdb
./eq_temp150.00000000029//424dumped.pdb
./eq_temp150.00000000029//445dumped.pdb
./eq_temp150.00000000029//446dumped.pdb
./eq_temp150.00000000029//447dumped.pdb
./eq_temp150.00000000029//451dumped.pdb
./eq_temp150.00000000029//458dumped.pdb
./eq_temp150.00000000029//460dumped.pdb
./eq_temp150.00000000029//462dumped.pdb
./eq_temp150.00000000029//463dumped.pdb
./eq_temp150.00000000029//469dumped.pdb
./eq_temp150.00000000029//472dumped.pdb
./eq_temp150.00000000029//475dumped.pdb
./eq_temp150.00000000029//476dumped.pdb
./eq_temp150.00000000029//477dumped.pdb
./eq_temp150.00000000029//478dumped.pdb
./eq_temp150.00000000029//482dumped.pdb
./eq_temp150.00000000029//483dumped.pdb
./eq_temp150.00000000029//485dumped.pdb
./eq_temp150.00000000029//486dumped.pdb
./eq_temp150.00000000029//487dumped.pdb
./eq_temp150.00000000029//489dumped.pdb
./eq_temp150.00000000029//490dumped.pdb
./eq_temp150.00000000029//495dumped.pdb
./eq_temp150.00000000029//497dumped.pdb
./eq_temp150.00000000029//498dumped.pdb
./eq_temp150.00000000029//501dumped.pdb
./eq_temp150.00000000029//503dumped.pdb
./eq_temp150.00000000029//504dumped.pdb
./eq_temp150.00000000029//505dumped.pdb
./eq_temp150.00000000029//510dumped.pdb
./eq_temp150.00000000029//512dumped.pdb
./eq_temp150.00000000029//513dumped.pdb
./eq_temp150.00000000029//514dumped.pdb
./eq_temp150.00000000029//515dumped.pdb
./eq_temp150.00000000029//516dumped.pdb
./eq_temp150.00000000029//520dumped.pdb
./eq_temp150.00000000029//521dumped.pdb
./eq_temp150.00000000029//524dumped.pdb
./eq_temp150.00000000029//525dumped.pdb
./eq_temp150.00000000029//526dumped.pdb
./eq_temp150.00000000029//527dumped.pdb
./eq_temp150.00000000029//528dumped.pdb
./eq_temp150.00000000029//534dumped.pdb
./eq_temp150.00000000029//536dumped.pdb
./eq_temp150.00000000029//542dumped.pdb
./eq_temp150.00000000029//548dumped.pdb
./eq_temp150.00000000029//550dumped.pdb
./eq_temp150.00000000029//556dumped.pdb
./eq_temp150.000000000685//30dumped.pdb
./eq_temp150.000000000685//33dumped.pdb
./eq_temp150.000000000685//39dumped.pdb
./eq_temp150.000000000685//42dumped.pdb
./eq_temp150.000000000685//45dumped.pdb
./eq_temp150.000000000685//48dumped.pdb
./eq_temp150.000000000685//53dumped.pdb
./eq_temp150.000000000685//57dumped.pdb
./eq_temp150.000000000685//64dumped.pdb
./eq_temp150.000000000685//69dumped.pdb
./eq_temp150.000000000685//71dumped.pdb
./eq_temp150.000000000685//73dumped.pdb
./eq_temp150.000000003658//327dumped.pdb
./eq_temp150.000000003658//340dumped.pdb
./eq_temp150.000000003658//341dumped.pdb
./eq_temp150.000000003658//343dumped.pdb
./eq_temp150.000000003658//344dumped.pdb
./eq_temp150.000000002143//642dumped.pdb
./eq_temp150.000000002143//643dumped.pdb
./eq_temp150.000000002143//647dumped.pdb
./eq_temp150.000000002143//650dumped.pdb
./eq_temp150.000000002143//651dumped.pdb
./eq_temp150.000000002143//653dumped.pdb
./eq_temp150.000000002143//654dumped.pdb
./eq_temp150.000000002143//656dumped.pdb
./eq_temp150.000000002143//669dumped.pdb
./eq_temp150.000000002143//676dumped.pdb
./eq_temp150.000000002143//680dumped.pdb
./eq_temp150.00000000004//128dumped.pdb
./eq_temp150.00000000004//129dumped.pdb
./eq_temp150.00000000004//132dumped.pdb
./eq_temp150.00000000004//142dumped.pdb
./eq_temp150.00000000004//143dumped.pdb
./eq_temp150.00000000004//144dumped.pdb
./eq_temp150.00000000046//102dumped.pdb
./eq_temp150.00000000046//104dumped.pdb
./eq_temp150.00000000046//105dumped.pdb
./eq_temp150.00000000046//106dumped.pdb
./eq_temp150.00000000046//107dumped.pdb
./eq_temp150.00000000046//113dumped.pdb
./eq_temp150.00000000046//114dumped.pdb
./eq_temp150.00000000046//115dumped.pdb
./eq_temp150.00000000046//116dumped.pdb
./eq_temp150.00000000046//118dumped.pdb
./eq_temp150.00000000046//119dumped.pdb
./eq_temp150.00000000046//122dumped.pdb
./eq_temp150.00000000046//124dumped.pdb
./eq_temp150.00000000046//125dumped.pdb
./eq_temp150.00000000046//128dumped.pdb
./eq_temp150.00000000046//132dumped.pdb
./eq_temp150.000000003052//378dumped.pdb
./eq_temp150.000000003052//380dumped.pdb
./eq_temp150.000000003705//330dumped.pdb
./eq_temp150.000000003705//331dumped.pdb
./eq_temp150.000000003705//334dumped.pdb
./eq_temp150.000000003705//335dumped.pdb
./eq_temp150.000000003705//338dumped.pdb
./eq_temp150.000000002686//65dumped.pdb
./eq_temp150.000000002686//67dumped.pdb
./eq_temp150.000000002686//71dumped.pdb
./eq_temp150.000000002686//72dumped.pdb
./eq_temp150.000000002686//82dumped.pdb
./eq_temp150.000000002686//84dumped.pdb
./eq_temp150.000000002686//96dumped.pdb
./eq_temp150.000000002686//102dumped.pdb
./eq_temp150.000000002686//104dumped.pdb
./eq_temp150.000000002686//106dumped.pdb
./eq_temp150.000000002686//107dumped.pdb
./eq_temp150.000000002686//108dumped.pdb
./eq_temp150.000000002686//109dumped.pdb
./eq_temp150.000000002686//110dumped.pdb
./eq_temp150.000000002686//115dumped.pdb
./eq_temp150.000000002686//118dumped.pdb
./eq_temp150.000000002686//120dumped.pdb
./eq_temp150.000000002686//126dumped.pdb
./eq_temp150.000000002686//128dumped.pdb
./eq_temp150.000000002686//130dumped.pdb
./eq_temp150.000000002686//131dumped.pdb
./eq_temp150.00000000376//203dumped.pdb
./eq_temp150.000000000502//26dumped.pdb
./eq_temp150.000000000502//31dumped.pdb
./eq_temp150.000000000502//186dumped.pdb
./eq_temp150.000000000502//188dumped.pdb
./eq_temp150.000000000502//189dumped.pdb
./eq_temp150.000000000502//193dumped.pdb
./eq_temp150.000000000502//197dumped.pdb
./eq_temp150.000000000502//206dumped.pdb
./eq_temp150.000000000502//207dumped.pdb
./eq_temp150.000000000502//208dumped.pdb
./eq_temp150.000000000502//212dumped.pdb
./eq_temp150.000000000502//215dumped.pdb
./eq_temp150.000000000502//218dumped.pdb
./eq_temp150.000000000502//221dumped.pdb
./eq_temp150.000000000502//222dumped.pdb
./eq_temp150.000000000502//229dumped.pdb
./eq_temp150.000000000502//237dumped.pdb
./eq_temp150.000000000502//239dumped.pdb
./eq_temp150.000000000502//243dumped.pdb
./eq_temp150.000000000502//244dumped.pdb
./eq_temp150.000000000502//245dumped.pdb
./eq_temp150.000000000502//246dumped.pdb
./eq_temp150.000000000502//250dumped.pdb
./eq_temp150.000000000502//253dumped.pdb
./eq_temp150.000000000502//258dumped.pdb
./eq_temp150.000000000502//267dumped.pdb
./eq_temp150.000000000589//117dumped.pdb
./eq_temp150.000000000589//118dumped.pdb
./eq_temp150.000000000589//124dumped.pdb
./eq_temp150.000000000589//125dumped.pdb
./eq_temp150.000000000589//126dumped.pdb
./eq_temp150.000000000589//131dumped.pdb
./eq_temp150.000000000589//132dumped.pdb
./eq_temp150.000000000589//135dumped.pdb
./eq_temp150.000000000589//136dumped.pdb
./eq_temp150.000000000589//137dumped.pdb
./eq_temp150.000000000589//149dumped.pdb
./eq_temp150.0000000006//8dumped.pdb
./eq_temp150.0000000006//104dumped.pdb
./eq_temp150.0000000006//105dumped.pdb
./eq_temp150.0000000006//106dumped.pdb
./eq_temp150.0000000006//109dumped.pdb
./eq_temp150.0000000006//110dumped.pdb
./eq_temp150.0000000006//112dumped.pdb
./eq_temp150.0000000006//266dumped.pdb
./eq_temp150.0000000006//267dumped.pdb
./eq_temp150.0000000006//270dumped.pdb
./eq_temp150.0000000006//273dumped.pdb
./eq_temp150.0000000006//274dumped.pdb
./eq_temp150.000000005406//6dumped.pdb
./eq_temp150.000000005406//7dumped.pdb
./eq_temp150.000000005406//9dumped.pdb
./eq_temp150.000000005406//10dumped.pdb
./eq_temp150.000000005406//11dumped.pdb
./eq_temp150.000000005406//13dumped.pdb
./eq_temp150.000000005406//17dumped.pdb
./eq_temp150.000000005406//19dumped.pdb
./eq_temp150.000000005406//20dumped.pdb
./eq_temp150.000000005406//23dumped.pdb
./eq_temp150.000000005406//24dumped.pdb
./eq_temp150.000000005406//25dumped.pdb
./eq_temp150.000000005406//26dumped.pdb
./eq_temp150.000000005406//56dumped.pdb
./eq_temp150.000000005406//60dumped.pdb
./eq_temp150.000000005406//65dumped.pdb
./eq_temp150.000000005406//74dumped.pdb
./eq_temp150.000000003304//20dumped.pdb
./eq_temp150.000000003304//21dumped.pdb
./eq_temp150.000000003304//23dumped.pdb
./eq_temp150.000000003304//26dumped.pdb
./eq_temp150.000000003304//27dumped.pdb
./eq_temp150.000000003304//28dumped.pdb
./eq_temp150.000000003304//29dumped.pdb
./eq_temp150.000000003304//31dumped.pdb
./eq_temp150.000000003304//32dumped.pdb
./eq_temp150.000000003304//33dumped.pdb
./eq_temp150.000000003304//35dumped.pdb
./eq_temp150.000000003304//37dumped.pdb
./eq_temp150.000000003304//38dumped.pdb
./eq_temp150.000000003304//41dumped.pdb
./eq_temp150.000000000417//251dumped.pdb
./eq_temp150.000000000417//252dumped.pdb
./eq_temp150.00000010212//105dumped.pdb
./eq_temp150.00000010212//106dumped.pdb
./eq_temp150.00000010212//110dumped.pdb
./eq_temp150.00000010212//120dumped.pdb
./eq_temp150.00000010212//133dumped.pdb
./eq_temp150.00000010212//136dumped.pdb
./eq_temp150.00000010212//137dumped.pdb
./eq_temp150.00000010212//139dumped.pdb
./eq_temp150.00000000014//76dumped.pdb
./eq_temp150.00000000014//77dumped.pdb
./eq_temp150.00000000014//80dumped.pdb
./eq_temp150.00000000014//81dumped.pdb
./eq_temp150.00000000014//84dumped.pdb
./eq_temp150.00000000014//86dumped.pdb
./eq_temp150.00000000014//89dumped.pdb
./eq_temp150.00000000014//90dumped.pdb
./eq_temp150.00000000014//93dumped.pdb
./eq_temp150.00000000014//94dumped.pdb
./eq_temp150.00000000014//95dumped.pdb
./eq_temp150.00000000014//97dumped.pdb
./eq_temp150.00000000014//99dumped.pdb
./eq_temp150.00000000014//103dumped.pdb
./eq_temp150.00000000014//107dumped.pdb
./eq_temp150.00000000014//114dumped.pdb
./eq_temp150.00000000014//115dumped.pdb
./eq_temp150.00000000014//118dumped.pdb
./eq_temp150.00000000014//119dumped.pdb
./eq_temp150.00000000014//120dumped.pdb
./eq_temp150.00000000014//121dumped.pdb
./eq_temp150.00000000014//127dumped.pdb
./eq_temp150.00000000014//128dumped.pdb
./eq_temp150.00000000014//135dumped.pdb
./eq_temp150.00000000014//139dumped.pdb
./eq_temp150.00000000014//146dumped.pdb
./eq_temp150.000000000609//49dumped.pdb
./eq_temp150.000000000609//50dumped.pdb
./eq_temp150.000000000609//54dumped.pdb
./eq_temp150.00000000083//30dumped.pdb
./eq_temp150.00000000083//31dumped.pdb
./eq_temp150.000000003623//135dumped.pdb
./eq_temp150.000000003623//136dumped.pdb
./eq_temp150.000000003623//139dumped.pdb
./eq_temp150.000000003623//146dumped.pdb
./eq_temp150.000000003623//149dumped.pdb
./eq_temp150.000000003623//150dumped.pdb
./eq_temp150.000000003623//160dumped.pdb
./eq_temp150.000000003623//163dumped.pdb
./eq_temp150.000000003623//167dumped.pdb
./eq_temp150.000000003623//177dumped.pdb
./eq_temp150.000000003623//180dumped.pdb
./eq_temp150.000000003623//198dumped.pdb
./eq_temp150.000000003623//200dumped.pdb
./eq_temp150.000000003623//203dumped.pdb
./eq_temp150.000000003623//206dumped.pdb
./eq_temp150.000000003623//211dumped.pdb
./eq_temp150.000000003623//214dumped.pdb
./eq_temp150.000000003623//218dumped.pdb
./eq_temp150.000000003623//220dumped.pdb
./eq_temp150.000000003623//230dumped.pdb
./eq_temp150.000000003623//233dumped.pdb
./eq_temp150.000000003623//239dumped.pdb
./eq_temp150.000000003623//241dumped.pdb
./eq_temp150.000000003623//250dumped.pdb
./eq_temp150.000000003623//251dumped.pdb
./eq_temp150.000000003623//253dumped.pdb
./eq_temp150.000000003623//260dumped.pdb
./eq_temp150.000000003623//262dumped.pdb
./eq_temp150.000000003623//265dumped.pdb
./eq_temp150.000000003623//266dumped.pdb
./eq_temp150.000000003623//268dumped.pdb
./eq_temp150.000000003623//270dumped.pdb
./eq_temp150.000000003623//280dumped.pdb
./eq_temp150.000000003623//282dumped.pdb
./eq_temp150.000000003153//52dumped.pdb
./eq_temp150.000000003153//54dumped.pdb
./eq_temp150.000000003153//60dumped.pdb
./eq_temp150.000000003153//61dumped.pdb
./eq_temp150.000000003153//62dumped.pdb
./eq_temp150.000000003153//63dumped.pdb
./eq_temp150.000000003153//65dumped.pdb
./eq_temp150.000000003153//72dumped.pdb
./eq_temp150.000000003153//75dumped.pdb
./eq_temp150.000000003153//77dumped.pdb
./eq_temp150.000000003153//78dumped.pdb
./eq_temp150.000000003153//86dumped.pdb
./eq_temp150.000000003153//89dumped.pdb
./eq_temp150.000000003153//90dumped.pdb
./eq_temp150.000000003153//95dumped.pdb
./eq_temp150.000000003153//96dumped.pdb
./eq_temp150.000000003153//98dumped.pdb
./eq_temp150.000000003153//99dumped.pdb
./eq_temp150.000000003153//100dumped.pdb
./eq_temp150.000000003153//106dumped.pdb
./eq_temp150.000000003153//109dumped.pdb
./eq_temp150.000000003153//110dumped.pdb
./eq_temp150.000000003153//111dumped.pdb
./eq_temp150.000000003153//115dumped.pdb
./eq_temp150.000000003153//121dumped.pdb
./eq_temp150.000000003153//122dumped.pdb
./eq_temp150.000000003153//124dumped.pdb
./eq_temp150.000000003153//137dumped.pdb
./eq_temp150.000000003153//138dumped.pdb
./eq_temp150.000000003153//143dumped.pdb
./eq_temp150.000000003153//147dumped.pdb
./eq_temp150.000000003153//151dumped.pdb
./eq_temp150.000000003153//156dumped.pdb
./eq_temp150.000000003153//159dumped.pdb
./eq_temp150.000000003153//160dumped.pdb
./eq_temp150.000000003153//161dumped.pdb
./eq_temp150.000000003153//167dumped.pdb
./eq_temp150.000000003153//170dumped.pdb
./eq_temp150.000000003153//174dumped.pdb
./eq_temp150.000000003153//178dumped.pdb
./eq_temp150.000000003153//181dumped.pdb
./eq_temp150.000000003153//182dumped.pdb
./eq_temp150.000000003153//183dumped.pdb
./eq_temp150.000000003153//185dumped.pdb
./eq_temp150.000000003153//186dumped.pdb
./eq_temp150.000000003153//187dumped.pdb
./eq_temp150.000000003153//188dumped.pdb
./eq_temp150.000000003153//211dumped.pdb
./eq_temp150.00000000068//134dumped.pdb
./eq_temp150.00000000068//135dumped.pdb
./eq_temp150.00000000068//138dumped.pdb
./eq_temp150.00000000068//140dumped.pdb
./eq_temp150.00000000068//145dumped.pdb
./eq_temp150.00000000068//146dumped.pdb
./eq_temp150.00000000068//147dumped.pdb
./eq_temp150.00000000068//149dumped.pdb
./eq_temp150.00000000068//170dumped.pdb
./eq_temp150.00000000068//172dumped.pdb
./eq_temp150.00000000068//174dumped.pdb
./eq_temp150.00000000068//177dumped.pdb
./eq_temp150.00000000068//179dumped.pdb
./eq_temp150.00000000068//182dumped.pdb
./eq_temp150.00000000068//184dumped.pdb
./eq_temp150.00000000068//188dumped.pdb
./eq_temp150.00000000068//189dumped.pdb
./eq_temp150.00000000068//190dumped.pdb
./eq_temp150.00000000068//191dumped.pdb
./eq_temp150.00000000068//192dumped.pdb
./eq_temp150.00000000068//193dumped.pdb
./eq_temp150.00000000068//194dumped.pdb
./eq_temp150.00000000068//200dumped.pdb
./eq_temp150.00000000068//203dumped.pdb
./eq_temp150.00000000068//204dumped.pdb
./eq_temp150.00000000068//205dumped.pdb
./eq_temp150.00000000068//207dumped.pdb
./eq_temp150.00000000068//209dumped.pdb
./eq_temp150.00000000068//220dumped.pdb
./eq_temp150.00000000068//221dumped.pdb
./eq_temp150.00000000068//224dumped.pdb
./eq_temp150.00000000068//226dumped.pdb
./eq_temp150.00000000068//229dumped.pdb
./eq_temp150.00000000068//232dumped.pdb
./eq_temp150.00000000068//233dumped.pdb
./eq_temp150.00000000068//235dumped.pdb
./eq_temp150.00000000068//236dumped.pdb
./eq_temp150.00000000068//238dumped.pdb
./eq_temp150.00000000068//239dumped.pdb
./eq_temp150.00000000068//245dumped.pdb
./eq_temp150.00000000068//246dumped.pdb
./eq_temp150.00000000068//247dumped.pdb
./eq_temp150.00000000068//248dumped.pdb
./eq_temp150.00000000068//253dumped.pdb
./eq_temp150.00000000068//255dumped.pdb
./eq_temp150.00000000068//256dumped.pdb
./eq_temp150.00000000068//656dumped.pdb
./eq_temp150.00000000068//657dumped.pdb
./eq_temp150.00000000068//659dumped.pdb
./eq_temp150.00000000068//661dumped.pdb
./eq_temp150.00000000068//662dumped.pdb
./eq_temp150.00000000068//663dumped.pdb
./eq_temp150.00000000068//664dumped.pdb
./eq_temp150.00000000068//671dumped.pdb
./eq_temp150.00000000068//678dumped.pdb
./eq_temp150.00000000068//680dumped.pdb
./eq_temp150.00000000068//682dumped.pdb
./eq_temp150.00000000068//683dumped.pdb
./eq_temp150.00000000068//684dumped.pdb
./eq_temp150.00000000068//685dumped.pdb
./eq_temp150.00000000068//687dumped.pdb
./eq_temp150.00000000068//691dumped.pdb
./eq_temp150.00000000068//692dumped.pdb
./eq_temp150.00000000068//693dumped.pdb
./eq_temp150.00000000068//699dumped.pdb
./eq_temp150.00000000068//703dumped.pdb
./eq_temp150.00000000068//708dumped.pdb
./eq_temp150.00000000068//712dumped.pdb
./eq_temp150.00000000068//713dumped.pdb
./eq_temp150.00000000068//715dumped.pdb
./eq_temp150.00000000068//716dumped.pdb
./eq_temp150.00000000068//725dumped.pdb
./eq_temp150.00000000068//728dumped.pdb
./eq_temp150.00000000068//736dumped.pdb
./eq_temp150.00000000068//738dumped.pdb
./eq_temp150.00000000068//747dumped.pdb
./eq_temp150.00000000068//763dumped.pdb
./eq_temp150.00000000068//764dumped.pdb
./eq_temp150.00000000008//331dumped.pdb
./eq_temp150.00000000008//341dumped.pdb
./eq_temp150.00000000008//345dumped.pdb
./eq_temp150.00000000008//348dumped.pdb
./eq_temp150.00000000008//361dumped.pdb
./eq_temp150.00000000008//362dumped.pdb
./eq_temp150.00000000027//583dumped.pdb
./eq_temp150.00000000027//585dumped.pdb
./eq_temp150.00000000027//586dumped.pdb
./eq_temp150.00000000027//589dumped.pdb
./eq_temp150.00000000027//590dumped.pdb
./eq_temp150.00000000027//592dumped.pdb
./eq_temp150.00000000027//597dumped.pdb
./eq_temp150.00000000027//599dumped.pdb
./eq_temp150.00000000027//600dumped.pdb
./eq_temp150.00000000027//601dumped.pdb
./eq_temp150.000000005006//92dumped.pdb
./eq_temp150.000000005006//93dumped.pdb
./eq_temp150.000000005006//97dumped.pdb
./eq_temp150.000000005006//98dumped.pdb
./eq_temp150.000000005006//103dumped.pdb
./eq_temp150.000000005006//106dumped.pdb
./eq_temp150.000000005006//110dumped.pdb
./eq_temp150.000000005006//118dumped.pdb
./eq_temp150.000000005006//120dumped.pdb
./eq_temp150.000000005006//130dumped.pdb
./eq_temp150.000000005006//137dumped.pdb
./eq_temp150.000000005006//139dumped.pdb
./eq_temp150.000000005006//141dumped.pdb
./eq_temp150.000000005006//142dumped.pdb
./eq_temp150.0000000008//57dumped.pdb
./eq_temp150.0000000008//60dumped.pdb
./eq_temp150.0000000008//61dumped.pdb
./eq_temp150.0000000008//64dumped.pdb
./eq_temp150.0000000008//66dumped.pdb
./eq_temp150.0000000008//79dumped.pdb
./eq_temp150.0000000008//80dumped.pdb
./eq_temp150.0000000008//88dumped.pdb
./eq_temp150.0000000008//90dumped.pdb
./eq_temp150.0000000008//92dumped.pdb
./eq_temp150.0000000008//94dumped.pdb
./eq_temp150.0000000008//97dumped.pdb
./eq_temp150.0000000008//98dumped.pdb
./eq_temp150.0000000008//99dumped.pdb
./eq_temp150.0000000008//100dumped.pdb
./eq_temp150.0000000008//102dumped.pdb
./eq_temp150.0000000008//103dumped.pdb
./eq_temp150.0000000008//104dumped.pdb
./eq_temp150.0000000008//106dumped.pdb
./eq_temp150.0000000008//107dumped.pdb
./eq_temp150.0000000008//111dumped.pdb
./eq_temp150.00000000005//158dumped.pdb
./eq_temp150.00000000005//159dumped.pdb
./eq_temp150.00000000005//169dumped.pdb
./eq_temp150.00000000005//173dumped.pdb
./eq_temp150.00000000005//176dumped.pdb
./eq_temp150.00000000005//193dumped.pdb
./eq_temp150.000000002194//107dumped.pdb
./eq_temp150.000000002194//108dumped.pdb
./eq_temp150.000000002194//110dumped.pdb
./eq_temp150.000000002194//115dumped.pdb
./eq_temp150.000000002194//116dumped.pdb
./eq_temp150.000000002194//124dumped.pdb
./eq_temp150.000000002194//127dumped.pdb
./eq_temp150.000000002194//132dumped.pdb
./eq_temp150.000000002194//134dumped.pdb
./eq_temp150.000000002194//135dumped.pdb
./eq_temp150.000000002194//136dumped.pdb
./eq_temp150.000000002194//138dumped.pdb
./eq_temp150.000000002194//139dumped.pdb
./eq_temp150.000000002194//143dumped.pdb
./eq_temp150.000000002194//145dumped.pdb
./eq_temp150.000000002194//147dumped.pdb
./eq_temp150.000000002194//151dumped.pdb
./eq_temp150.000000002194//154dumped.pdb
./eq_temp150.000000002194//156dumped.pdb
./eq_temp150.000000002194//158dumped.pdb
./eq_temp150.000000002194//166dumped.pdb
./eq_temp150.000000002194//167dumped.pdb
./eq_temp150.000000002194//170dumped.pdb
./eq_temp150.000000002194//172dumped.pdb
./eq_temp150.000000001789//186dumped.pdb
./eq_temp150.000000001789//188dumped.pdb
./eq_temp150.000000001789//189dumped.pdb
./eq_temp150.000000001789//190dumped.pdb
./eq_temp150.000000001789//191dumped.pdb
./eq_temp150.000000001789//193dumped.pdb
./eq_temp150.000000001789//194dumped.pdb
./eq_temp150.000000001789//195dumped.pdb
./eq_temp150.000000001789//197dumped.pdb
./eq_temp150.000000001789//200dumped.pdb
./eq_temp150.000000001789//201dumped.pdb
./eq_temp150.000000001789//203dumped.pdb
./eq_temp150.000000001789//208dumped.pdb
./eq_temp150.000000001789//215dumped.pdb
./eq_temp150.000000001789//217dumped.pdb
./eq_temp150.000000001789//219dumped.pdb
./eq_temp150.000000001789//221dumped.pdb
./eq_temp150.000000001789//222dumped.pdb
./eq_temp150.000000001789//223dumped.pdb
./eq_temp150.000000001789//224dumped.pdb
./eq_temp150.000000001789//225dumped.pdb
./eq_temp150.000000001789//229dumped.pdb
./eq_temp150.000000001789//234dumped.pdb
./eq_temp150.000000001789//236dumped.pdb
./eq_temp150.000000001789//238dumped.pdb
./eq_temp150.000000001789//240dumped.pdb
./eq_temp150.000000001789//242dumped.pdb
./eq_temp150.000000001789//256dumped.pdb
./eq_temp150.000000001789//258dumped.pdb
./eq_temp150.000000001789//259dumped.pdb
./eq_temp150.000000001789//260dumped.pdb
./eq_temp150.000000001789//262dumped.pdb
./eq_temp150.000000001789//263dumped.pdb
./eq_temp150.000000001789//264dumped.pdb
./eq_temp150.000000001789//268dumped.pdb
./eq_temp150.000000003104//244dumped.pdb
./eq_temp150.000000003104//249dumped.pdb
./eq_temp150.000000003104//289dumped.pdb
./eq_temp150.000000003104//290dumped.pdb
./eq_temp150.000000003104//293dumped.pdb
./eq_temp150.000000003104//294dumped.pdb
./eq_temp150.000000003104//304dumped.pdb
./eq_temp150.000000003104//308dumped.pdb
./eq_temp150.000000003104//309dumped.pdb
./eq_temp150.000000003104//310dumped.pdb
./eq_temp150.000000003104//311dumped.pdb
./eq_temp150.000000003355//190dumped.pdb
./eq_temp150.000000003355//192dumped.pdb
./eq_temp150.000000003355//193dumped.pdb
./eq_temp150.000000003355//194dumped.pdb
./eq_temp150.000000003355//196dumped.pdb
./eq_temp150.000000003355//197dumped.pdb
./eq_temp150.000000003355//202dumped.pdb
./eq_temp150.000000003355//203dumped.pdb
./eq_temp150.000000003355//205dumped.pdb
./eq_temp150.000000003355//209dumped.pdb
./eq_temp150.000000003355//210dumped.pdb
./eq_temp150.000000003355//211dumped.pdb
./eq_temp150.000000003355//212dumped.pdb
./eq_temp150.000000102542//84dumped.pdb
./eq_temp150.000000102542//85dumped.pdb
./eq_temp150.000000005761//61dumped.pdb
./eq_temp150.000000005761//65dumped.pdb
./eq_temp150.000000005761//67dumped.pdb
./eq_temp150.000000005761//69dumped.pdb
./eq_temp150.000000005761//72dumped.pdb
./eq_temp150.000000005761//73dumped.pdb
./eq_temp150.000000005761//79dumped.pdb
./eq_temp150.000000005761//80dumped.pdb
./eq_temp150.000000005761//86dumped.pdb
./eq_temp150.000000005761//88dumped.pdb
./eq_temp150.000000005761//89dumped.pdb
./eq_temp150.000000005761//90dumped.pdb
./eq_temp150.000000005761//95dumped.pdb
./eq_temp150.000000005761//97dumped.pdb
./eq_temp150.000000005761//98dumped.pdb
./eq_temp150.000000005761//99dumped.pdb
./eq_temp150.000000005761//104dumped.pdb
./eq_temp150.000000005761//109dumped.pdb
./eq_temp150.000000005761//110dumped.pdb
./eq_temp150.000000005761//111dumped.pdb
./eq_temp150.000000005761//114dumped.pdb
./eq_temp150.000000005761//116dumped.pdb
./eq_temp150.000000005761//117dumped.pdb
./eq_temp150.000000005761//119dumped.pdb
./eq_temp150.000000005761//120dumped.pdb
./eq_temp150.000000005761//125dumped.pdb
./eq_temp150.000000005761//126dumped.pdb
./eq_temp150.000000005761//129dumped.pdb
./eq_temp150.000000005761//130dumped.pdb
./eq_temp150.000000005761//133dumped.pdb
./eq_temp150.000000005761//138dumped.pdb
./eq_temp150.000000005761//139dumped.pdb
./eq_temp150.000000005761//140dumped.pdb
./eq_temp150.000000005761//144dumped.pdb
./eq_temp150.000000005761//146dumped.pdb
./eq_temp150.000000005761//150dumped.pdb
./eq_temp150.000000005761//294dumped.pdb
./eq_temp150.000000005761//295dumped.pdb
./eq_temp150.000000005761//297dumped.pdb
./eq_temp150.000000005761//298dumped.pdb
./eq_temp150.000000005761//299dumped.pdb
./eq_temp150.000000005761//301dumped.pdb
./eq_temp150.000000005761//304dumped.pdb
./eq_temp150.000000005761//307dumped.pdb
./eq_temp150.000000005761//308dumped.pdb
./eq_temp150.000000005761//309dumped.pdb
./eq_temp150.000000000532//216dumped.pdb
./eq_temp150.000000000532//220dumped.pdb
./eq_temp150.000000000532//221dumped.pdb
./eq_temp150.000000000532//223dumped.pdb
./eq_temp150.000000000532//225dumped.pdb
./eq_temp150.000000000532//230dumped.pdb
./eq_temp150.000000000532//231dumped.pdb
./eq_temp150.000000000532//236dumped.pdb
./eq_temp150.000000000532//239dumped.pdb
./eq_temp150.000000000532//240dumped.pdb
./eq_temp150.000000000532//241dumped.pdb
./eq_temp150.000000000532//243dumped.pdb
./eq_temp150.000000000532//247dumped.pdb
./eq_temp150.000000000858//56dumped.pdb
./eq_temp150.000000000858//57dumped.pdb
./eq_temp150.000000000858//58dumped.pdb
./eq_temp150.000000000858//59dumped.pdb
./eq_temp150.000000000858//65dumped.pdb
./eq_temp150.00000000736//206dumped.pdb
./eq_temp150.00000000736//207dumped.pdb
./eq_temp150.00000000736//210dumped.pdb
./eq_temp150.000000005507//174dumped.pdb
./eq_temp150.000000005507//175dumped.pdb
./eq_temp150.000000005507//231dumped.pdb
./eq_temp150.000000005507//232dumped.pdb
./eq_temp150.000000005507//233dumped.pdb
./eq_temp150.000000005507//235dumped.pdb
./eq_temp150.000000002103//189dumped.pdb
./eq_temp150.000000002103//190dumped.pdb
./eq_temp150.000000002103//191dumped.pdb
./eq_temp150.000000002103//202dumped.pdb
./eq_temp150.000000002103//205dumped.pdb
./eq_temp150.000000002103//209dumped.pdb
./eq_temp150.000000002103//210dumped.pdb
./eq_temp150.000000002103//214dumped.pdb
./eq_temp150.000000002103//217dumped.pdb
./eq_temp150.000000002103//218dumped.pdb
./eq_temp150.000000002103//220dumped.pdb
./eq_temp150.000000002103//224dumped.pdb
./eq_temp150.000000002103//226dumped.pdb
./eq_temp150.000000002103//230dumped.pdb
./eq_temp150.000000002103//231dumped.pdb
./eq_temp150.000000002103//232dumped.pdb
./eq_temp150.000000002103//233dumped.pdb
./eq_temp150.000000002103//238dumped.pdb
./eq_temp150.000000002103//240dumped.pdb
./eq_temp150.000000002103//241dumped.pdb
./eq_temp150.000000002103//247dumped.pdb
./eq_temp150.000000002103//248dumped.pdb
./eq_temp150.000000002103//253dumped.pdb
./eq_temp150.000000002103//255dumped.pdb
./eq_temp150.000000002103//257dumped.pdb
./eq_temp150.000000002103//263dumped.pdb
./eq_temp150.000000002103//268dumped.pdb
./eq_temp150.000000002103//270dumped.pdb
./eq_temp150.000000002103//271dumped.pdb
./eq_temp150.000000002103//296dumped.pdb
./eq_temp150.000000003557//15dumped.pdb
./eq_temp150.000000003557//19dumped.pdb
./eq_temp150.000000003557//28dumped.pdb
./eq_temp150.000000003557//32dumped.pdb
./eq_temp150.000000003557//33dumped.pdb
./eq_temp150.000000003557//36dumped.pdb
./eq_temp150.00000000022//149dumped.pdb
./eq_temp150.00000000022//150dumped.pdb
./eq_temp150.00000000022//160dumped.pdb
./eq_temp150.00000000022//161dumped.pdb
./eq_temp150.00000000022//170dumped.pdb
./eq_temp150.00000000022//175dumped.pdb
./eq_temp150.00000000022//178dumped.pdb
./eq_temp150.00000000022//179dumped.pdb
./eq_temp150.00000000022//180dumped.pdb
./eq_temp150.00000000022//183dumped.pdb
./eq_temp150.00000000022//185dumped.pdb
./eq_temp150.00000000022//186dumped.pdb
./eq_temp150.000000004162//122dumped.pdb
./eq_temp150.000000004162//123dumped.pdb
./eq_temp150.000000000226//305dumped.pdb
./eq_temp150.000000000226//309dumped.pdb
./eq_temp150.000000000226//314dumped.pdb
./eq_temp150.000000000226//317dumped.pdb
./eq_temp150.000000000226//319dumped.pdb
./eq_temp150.000000000226//320dumped.pdb
./eq_temp150.000000000226//321dumped.pdb
./eq_temp150.000000000226//324dumped.pdb
./eq_temp150.000000000226//327dumped.pdb
./eq_temp150.000000000226//331dumped.pdb
./eq_temp150.000000024028//74dumped.pdb
./eq_temp150.000000024028//84dumped.pdb
./eq_temp150.000000024028//91dumped.pdb
./eq_temp150.000000024028//94dumped.pdb
./eq_temp150.000000024028//96dumped.pdb
./eq_temp150.000000024028//101dumped.pdb
./eq_temp150.000000024028//102dumped.pdb
./eq_temp150.000000024028//107dumped.pdb
./eq_temp150.000000024028//108dumped.pdb
./eq_temp150.000000024028//113dumped.pdb
./eq_temp150.000000024028//116dumped.pdb
./eq_temp150.000000024028//117dumped.pdb
./eq_temp150.000000024028//120dumped.pdb
./eq_temp150.000000024028//123dumped.pdb
./eq_temp150.000000024028//128dumped.pdb
./eq_temp150.000000024028//129dumped.pdb
./eq_temp150.000000024028//131dumped.pdb
./eq_temp150.000000024028//132dumped.pdb
./eq_temp150.000000104863//184dumped.pdb
./eq_temp150.000000104863//189dumped.pdb
./eq_temp150.000000104863//192dumped.pdb
./eq_temp150.000000104863//197dumped.pdb
./eq_temp150.000000104863//201dumped.pdb
./eq_temp150.000000104863//209dumped.pdb
./eq_temp150.000000104863//210dumped.pdb
./eq_temp150.000000104863//211dumped.pdb
./eq_temp150.000000104863//218dumped.pdb
./eq_temp150.000000104863//220dumped.pdb
./eq_temp150.000000104863//222dumped.pdb
./eq_temp150.000000104863//225dumped.pdb
./eq_temp150.000000104863//229dumped.pdb
./eq_temp150.000000104863//231dumped.pdb
./eq_temp150.000000104863//232dumped.pdb
./eq_temp150.000000104863//242dumped.pdb
./eq_temp150.000000104863//246dumped.pdb
./eq_temp150.000000104863//247dumped.pdb
./eq_temp150.00000000042//66dumped.pdb
./eq_temp150.00000000042//71dumped.pdb
./eq_temp150.00000000042//74dumped.pdb
./eq_temp150.00000000042//75dumped.pdb
./eq_temp150.00000000042//78dumped.pdb
./eq_temp150.00000000042//80dumped.pdb
./eq_temp150.00000000042//84dumped.pdb
./eq_temp150.00000000042//87dumped.pdb
./eq_temp150.00000000042//88dumped.pdb
./eq_temp150.00000000042//90dumped.pdb
./eq_temp150.00000000042//92dumped.pdb
./eq_temp150.00000000042//96dumped.pdb
./eq_temp150.00000000042//97dumped.pdb
./eq_temp150.00000000042//100dumped.pdb
./eq_temp150.00000000042//101dumped.pdb
./eq_temp150.00000000047//144dumped.pdb
./eq_temp150.00000000047//148dumped.pdb
./eq_temp150.00000000079//38dumped.pdb
./eq_temp150.00000000079//40dumped.pdb
./eq_temp150.00000000079//49dumped.pdb
./eq_temp150.00000000079//52dumped.pdb
./eq_temp150.00000000079//54dumped.pdb
./eq_temp150.00000000079//55dumped.pdb
./eq_temp150.00000000079//57dumped.pdb
./eq_temp150.00000000079//60dumped.pdb
./eq_temp150.00000000079//61dumped.pdb
./eq_temp150.00000000079//63dumped.pdb
./eq_temp150.00000000081//634dumped.pdb
./eq_temp150.00000000081//637dumped.pdb
./eq_temp150.00000000081//659dumped.pdb
./eq_temp150.00000000081//664dumped.pdb
./eq_temp150.00000000081//671dumped.pdb
./eq_temp150.00000000081//676dumped.pdb
./eq_temp150.00000000081//677dumped.pdb
./eq_temp150.000000007114//393dumped.pdb
./eq_temp150.000000007114//394dumped.pdb
./eq_temp150.000000007114//398dumped.pdb
./eq_temp150.000000007114//403dumped.pdb
./eq_temp150.000000007114//406dumped.pdb
./eq_temp150.000000007114//409dumped.pdb
./eq_temp150.000000007114//418dumped.pdb
./eq_temp150.000000007114//425dumped.pdb
./eq_temp150.000000007114//437dumped.pdb
./eq_temp150.000000007114//438dumped.pdb
./eq_temp150.000000007114//439dumped.pdb
./eq_temp150.000000007114//442dumped.pdb
./eq_temp150.000000007114//443dumped.pdb
./eq_temp150.000000007114//444dumped.pdb
./eq_temp150.000000007114//445dumped.pdb
./eq_temp150.000000007114//448dumped.pdb
./eq_temp150.000000007114//449dumped.pdb
./eq_temp150.000000007114//455dumped.pdb
./eq_temp150.000000007114//458dumped.pdb
./eq_temp150.000000007114//461dumped.pdb
./eq_temp150.000000007114//465dumped.pdb
./eq_temp150.000000007114//466dumped.pdb
./eq_temp150.000000007114//468dumped.pdb
./eq_temp150.000000007114//476dumped.pdb
./eq_temp150.000000007114//477dumped.pdb
./eq_temp150.000000007114//487dumped.pdb
./eq_temp150.000000007114//488dumped.pdb
./eq_temp150.000000007114//489dumped.pdb
./eq_temp150.000000007114//492dumped.pdb
./eq_temp150.000000007114//494dumped.pdb
./eq_temp150.000000007114//500dumped.pdb
./eq_temp150.000000007114//502dumped.pdb
./eq_temp150.000000001638//122dumped.pdb
./eq_temp150.000000001638//123dumped.pdb
./eq_temp150.000000001638//126dumped.pdb
./eq_temp150.000000001638//129dumped.pdb
./eq_temp150.00000000045//92dumped.pdb
./eq_temp150.00000000045//96dumped.pdb
./eq_temp150.00000000045//119dumped.pdb
./eq_temp150.00000000045//122dumped.pdb
./eq_temp150.00000000045//128dumped.pdb
./eq_temp150.00000000045//130dumped.pdb
./eq_temp150.00000000045//137dumped.pdb
./eq_temp150.00000000045//145dumped.pdb
./eq_temp150.00000000045//154dumped.pdb
./eq_temp150.00000000051//50dumped.pdb
./eq_temp150.00000000051//75dumped.pdb
./eq_temp150.00000000051//83dumped.pdb
./eq_temp150.00000000051//84dumped.pdb
./eq_temp150.00000000051//85dumped.pdb
./eq_temp150.00000000051//86dumped.pdb
./eq_temp150.00000000051//95dumped.pdb
./eq_temp150.00000000051//98dumped.pdb
./eq_temp150.00000000051//100dumped.pdb
./eq_temp150.00000000051//103dumped.pdb
./eq_temp150.00000000051//107dumped.pdb
./eq_temp150.00000000051//109dumped.pdb
./eq_temp150.00000000051//114dumped.pdb
./eq_temp150.000000000628//78dumped.pdb
./eq_temp150.000000000628//80dumped.pdb
./eq_temp150.000000000628//81dumped.pdb
./eq_temp150.000000000628//84dumped.pdb
./eq_temp150.000000000628//85dumped.pdb
./eq_temp150.000000030088//26dumped.pdb
./eq_temp150.000000030088//27dumped.pdb
./eq_temp150.000000030088//39dumped.pdb
./eq_temp150.000000030088//41dumped.pdb
./eq_temp150.000000005881//172dumped.pdb
./eq_temp150.000000005881//174dumped.pdb
./eq_temp150.000000005881//179dumped.pdb
./eq_temp150.000000005881//183dumped.pdb
./eq_temp150.000000005881//184dumped.pdb
./eq_temp150.000000007483//26dumped.pdb
./eq_temp150.000000007483//27dumped.pdb
./eq_temp150.000000007483//28dumped.pdb
./eq_temp150.000000007483//32dumped.pdb
./eq_temp150.000000007483//38dumped.pdb
./eq_temp150.000000000101//23dumped.pdb
./eq_temp150.000000004531//107dumped.pdb
./eq_temp150.000000004531//110dumped.pdb
./eq_temp150.000000004531//112dumped.pdb
./eq_temp150.000000004531//113dumped.pdb
./eq_temp150.000000004531//117dumped.pdb
./eq_temp150.000000004531//119dumped.pdb
./eq_temp150.000000004531//120dumped.pdb
./eq_temp150.000000004531//121dumped.pdb
./eq_temp150.000000004531//123dumped.pdb
./eq_temp150.000000004531//125dumped.pdb
./eq_temp150.000000004531//126dumped.pdb
./eq_temp150.000000004531//132dumped.pdb
./eq_temp150.000000004531//133dumped.pdb
./eq_temp150.000000004531//135dumped.pdb
./eq_temp150.000000004606//110dumped.pdb
./eq_temp150.000000004606//112dumped.pdb
./eq_temp150.000000004606//114dumped.pdb
./eq_temp150.000000004606//117dumped.pdb
./eq_temp150.000000004606//126dumped.pdb
./eq_temp150.000000004972//37dumped.pdb
./eq_temp150.000000004972//38dumped.pdb
./eq_temp150.000000004972//39dumped.pdb
./eq_temp150.000000004972//40dumped.pdb
./eq_temp150.000000004972//41dumped.pdb
./eq_temp150.000000004972//44dumped.pdb
./eq_temp150.000000004972//392dumped.pdb
./eq_temp150.000000004972//398dumped.pdb
./eq_temp150.000000004972//400dumped.pdb
./eq_temp150.000000004972//404dumped.pdb
./eq_temp150.000000004972//405dumped.pdb
./eq_temp150.000000004972//410dumped.pdb
./eq_temp150.000000004972//412dumped.pdb
./eq_temp150.000000000401//39dumped.pdb
./eq_temp150.000000000401//40dumped.pdb
./eq_temp150.000000000401//41dumped.pdb
./eq_temp150.000000000401//47dumped.pdb
./eq_temp150.000000000401//51dumped.pdb
./eq_temp150.000000000401//55dumped.pdb
./eq_temp150.000000000401//62dumped.pdb
./eq_temp150.000000000401//63dumped.pdb
./eq_temp150.000000000401//68dumped.pdb
./eq_temp150.000000000401//75dumped.pdb
./eq_temp150.000000000401//76dumped.pdb
./eq_temp150.000000000401//77dumped.pdb
./eq_temp150.000000000349//52dumped.pdb
./eq_temp150.000000000349//54dumped.pdb
./eq_temp150.000000000349//55dumped.pdb
./eq_temp150.000000000349//56dumped.pdb
./eq_temp150.000000000349//59dumped.pdb
./eq_temp150.000000000349//62dumped.pdb
./eq_temp150.000000000349//64dumped.pdb
./eq_temp150.000000000349//69dumped.pdb
./eq_temp150.000000000349//71dumped.pdb
./eq_temp150.000000000349//73dumped.pdb
./eq_temp150.00000000032//174dumped.pdb
./eq_temp150.00000000032//175dumped.pdb
./eq_temp150.00000000032//180dumped.pdb
./eq_temp150.00000000032//181dumped.pdb
./eq_temp150.00000000032//183dumped.pdb
./eq_temp150.00000000032//186dumped.pdb
./eq_temp150.00000000032//188dumped.pdb
./eq_temp150.00000000032//190dumped.pdb
./eq_temp150.00000000032//192dumped.pdb
./eq_temp150.00000000032//204dumped.pdb
./eq_temp150.00000000032//205dumped.pdb
./eq_temp150.00000000032//207dumped.pdb
./eq_temp150.00000000032//210dumped.pdb
./eq_temp150.00000000032//213dumped.pdb
./eq_temp150.00000000032//214dumped.pdb
./eq_temp150.00000000032//216dumped.pdb
./eq_temp150.00000000032//220dumped.pdb
./eq_temp150.00000000032//222dumped.pdb
./eq_temp150.00000000032//223dumped.pdb
./eq_temp150.00000000032//227dumped.pdb
./eq_temp150.00000000032//229dumped.pdb
./eq_temp150.00000000032//232dumped.pdb
./eq_temp150.00000000032//233dumped.pdb
./eq_temp150.00000000032//234dumped.pdb
./eq_temp150.00000000032//235dumped.pdb
./eq_temp150.000000005907//13dumped.pdb
./eq_temp150.000000005907//15dumped.pdb
./eq_temp150.000000005907//16dumped.pdb
./eq_temp150.000000006622//42dumped.pdb
./eq_temp150.00000000034//54dumped.pdb
./eq_temp150.00000000034//55dumped.pdb
./eq_temp150.00000000034//57dumped.pdb
./eq_temp150.00000000034//59dumped.pdb
./eq_temp150.00000000034//65dumped.pdb
./eq_temp150.00000000034//67dumped.pdb
./eq_temp150.00000000034//68dumped.pdb
./eq_temp150.00000000034//69dumped.pdb
./eq_temp150.00000000034//70dumped.pdb
./eq_temp150.00000000034//71dumped.pdb
./eq_temp150.00000000034//72dumped.pdb
./eq_temp150.00000000034//73dumped.pdb
./eq_temp150.00000000034//74dumped.pdb
./eq_temp150.00000000034//75dumped.pdb
./eq_temp150.00000000034//77dumped.pdb
./eq_temp150.00000000034//80dumped.pdb
./eq_temp150.00000000034//83dumped.pdb
./eq_temp150.00000000034//84dumped.pdb
./eq_temp150.00000000034//85dumped.pdb
./eq_temp150.00000000034//86dumped.pdb
./eq_temp150.00000000034//87dumped.pdb
./eq_temp150.00000000034//88dumped.pdb
./eq_temp150.00000000034//91dumped.pdb
./eq_temp150.00000000034//94dumped.pdb
./eq_temp150.00000000034//95dumped.pdb
./eq_temp150.00000000034//97dumped.pdb
./eq_temp150.000000005073//37dumped.pdb
./eq_temp150.000000005073//40dumped.pdb
./eq_temp150.000000005073//44dumped.pdb
./eq_temp150.000000005073//48dumped.pdb
./eq_temp150.000000001302//248dumped.pdb
./eq_temp150.000000001302//249dumped.pdb
./eq_temp150.000000001302//254dumped.pdb
./eq_temp150.000000001302//257dumped.pdb
./eq_temp150.000000001302//258dumped.pdb
./eq_temp150.000000001302//259dumped.pdb
./eq_temp150.000000001302//260dumped.pdb
./eq_temp150.000000001302//261dumped.pdb
./eq_temp150.000000001302//262dumped.pdb
./eq_temp150.000000000743//264dumped.pdb
./eq_temp150.000000000743//265dumped.pdb
./eq_temp150.000000000743//266dumped.pdb
./eq_temp150.000000000743//271dumped.pdb
./eq_temp150.000000000743//272dumped.pdb
./eq_temp150.000000000743//273dumped.pdb
./eq_temp150.000000000743//284dumped.pdb
./eq_temp150.000000000743//289dumped.pdb
./eq_temp150.000000000743//292dumped.pdb
./eq_temp150.000000001011//335dumped.pdb
./eq_temp150.000000001011//336dumped.pdb
./eq_temp150.000000001011//340dumped.pdb
./eq_temp150.000000001011//341dumped.pdb
./eq_temp150.000000006991//14dumped.pdb
./eq_temp150.000000006991//16dumped.pdb
./eq_temp150.000000006991//23dumped.pdb
./eq_temp150.000000006991//24dumped.pdb
./eq_temp150.000000006991//26dumped.pdb
./eq_temp150.000000006991//29dumped.pdb
./eq_temp150.000000006991//30dumped.pdb
./eq_temp150.000000020392//248dumped.pdb
./eq_temp150.000000020392//249dumped.pdb
./eq_temp150.000000020392//250dumped.pdb
./eq_temp150.000000020392//251dumped.pdb
./eq_temp150.000000020392//254dumped.pdb
./eq_temp150.000000020392//259dumped.pdb
./eq_temp150.000000020392//428dumped.pdb
./eq_temp150.000000020392//430dumped.pdb
./eq_temp150.000000020392//432dumped.pdb
./eq_temp150.000000020392//434dumped.pdb
./eq_temp150.000000020392//435dumped.pdb
./eq_temp150.000000020392//437dumped.pdb
./eq_temp150.000000020392//443dumped.pdb
./eq_temp150.000000020392//444dumped.pdb
./eq_temp150.000000020392//445dumped.pdb
./eq_temp150.000000020392//451dumped.pdb
./eq_temp150.000000020392//454dumped.pdb
./eq_temp150.000000020392//455dumped.pdb
./eq_temp150.000000020392//459dumped.pdb
./eq_temp150.000000020392//463dumped.pdb
./eq_temp150.000000020392//464dumped.pdb
./eq_temp150.000000020392//470dumped.pdb
./eq_temp150.000000020392//471dumped.pdb
./eq_temp150.000000020392//472dumped.pdb
./eq_temp150.000000020392//475dumped.pdb
./eq_temp150.000000000436//415dumped.pdb
./eq_temp150.000000000436//418dumped.pdb
./eq_temp150.000000000436//419dumped.pdb
./eq_temp150.000000000436//423dumped.pdb
./eq_temp150.000000000436//429dumped.pdb
./eq_temp150.000000000436//430dumped.pdb
./eq_temp150.000000000436//435dumped.pdb
./eq_temp150.000000000436//437dumped.pdb
./eq_temp150.000000000436//439dumped.pdb
./eq_temp150.000000000436//443dumped.pdb
./eq_temp150.000000104019//66dumped.pdb
./eq_temp150.000000104019//75dumped.pdb
./eq_temp150.000000104019//82dumped.pdb
./eq_temp150.000000104019//84dumped.pdb
./eq_temp150.000000104019//90dumped.pdb
./eq_temp150.000000104019//99dumped.pdb
./eq_temp150.000000104019//103dumped.pdb
./eq_temp150.000000104019//107dumped.pdb
./eq_temp150.0000000001//83dumped.pdb
./eq_temp150.0000000001//84dumped.pdb
./eq_temp150.0000000001//87dumped.pdb
./eq_temp150.0000000001//92dumped.pdb
./eq_temp150.0000000001//93dumped.pdb
./eq_temp150.0000000001//94dumped.pdb
./eq_temp150.0000000001//107dumped.pdb
./eq_temp150.0000000001//111dumped.pdb
./eq_temp150.0000000001//120dumped.pdb
./eq_temp150.0000000001//122dumped.pdb
./eq_temp150.0000000001//123dumped.pdb
./eq_temp150.0000000001//126dumped.pdb
./eq_temp150.0000000001//127dumped.pdb
./eq_temp150.0000000001//128dumped.pdb
./eq_temp150.0000000001//129dumped.pdb
./eq_temp150.0000000001//131dumped.pdb
./eq_temp150.0000000001//133dumped.pdb
./eq_temp150.0000000001//134dumped.pdb
./eq_temp150.0000000001//138dumped.pdb
./eq_temp150.0000000001//144dumped.pdb
./eq_temp150.0000000001//145dumped.pdb
./eq_temp150.0000000001//147dumped.pdb
./eq_temp150.0000000001//152dumped.pdb
./eq_temp150.0000000001//154dumped.pdb
./eq_temp150.0000000001//156dumped.pdb
./eq_temp150.0000000001//160dumped.pdb
./eq_temp150.0000000001//163dumped.pdb
./eq_temp150.0000000001//165dumped.pdb
./eq_temp150.0000000001//166dumped.pdb
./eq_temp150.0000000001//172dumped.pdb
./eq_temp150.0000000001//173dumped.pdb
./eq_temp150.0000000001//177dumped.pdb
./eq_temp150.0000000001//178dumped.pdb
./eq_temp150.0000000001//181dumped.pdb
./eq_temp150.0000000001//194dumped.pdb
./eq_temp150.000000004806//51dumped.pdb
./eq_temp150.000000004806//53dumped.pdb
./eq_temp150.000000004806//56dumped.pdb
./eq_temp150.000000004806//65dumped.pdb
./eq_temp150.00000000018//210dumped.pdb
./eq_temp150.00000000018//213dumped.pdb
./eq_temp150.00000000018//217dumped.pdb
./eq_temp150.00000000018//220dumped.pdb
./eq_temp150.00000000018//225dumped.pdb
./eq_temp150.00000000018//226dumped.pdb
./eq_temp150.00000000018//231dumped.pdb
./eq_temp150.00000000018//232dumped.pdb
./eq_temp150.00000000018//233dumped.pdb
./eq_temp150.00000000018//238dumped.pdb
./eq_temp150.00000000018//244dumped.pdb
./eq_temp150.00000000018//247dumped.pdb
./eq_temp150.00000000018//252dumped.pdb
./eq_temp150.000000002604//31dumped.pdb
./eq_temp150.000000002604//32dumped.pdb
./eq_temp150.000000002604//33dumped.pdb
./eq_temp150.000000002604//34dumped.pdb
./eq_temp150.000000002604//37dumped.pdb
./eq_temp150.000000002604//42dumped.pdb
./eq_temp150.000000002604//45dumped.pdb
./eq_temp150.000000002604//46dumped.pdb
./eq_temp150.000000002604//47dumped.pdb
./eq_temp150.000000002604//48dumped.pdb
./eq_temp150.000000002604//52dumped.pdb
./eq_temp150.000000002604//53dumped.pdb
./eq_temp150.000000002604//54dumped.pdb
./eq_temp150.000000002604//65dumped.pdb
./eq_temp150.00000000007//162dumped.pdb
./eq_temp150.000000000802//284dumped.pdb
./eq_temp150.00000000049//121dumped.pdb
./eq_temp150.00000000049//123dumped.pdb
./eq_temp150.00000000049//124dumped.pdb
./eq_temp150.00000000049//129dumped.pdb
./eq_temp150.00000000049//130dumped.pdb
./eq_temp150.00000000049//131dumped.pdb
./eq_temp150.00000000049//132dumped.pdb
./eq_temp150.00000000049//133dumped.pdb
./eq_temp150.00000000049//135dumped.pdb
./eq_temp150.00000000049//140dumped.pdb
./eq_temp150.00000000049//147dumped.pdb
./eq_temp150.000000002212//98dumped.pdb
./eq_temp150.000000002212//100dumped.pdb
./eq_temp150.000000002212//112dumped.pdb
./eq_temp150.0000000313//13dumped.pdb
./eq_temp150.0000000313//16dumped.pdb
./eq_temp150.0000000313//17dumped.pdb
./eq_temp150.0000000313//22dumped.pdb
./eq_temp150.0000000313//27dumped.pdb
./eq_temp150.0000000313//48dumped.pdb
./eq_temp150.0000000313//51dumped.pdb
./eq_temp150.0000000313//55dumped.pdb
./eq_temp150.0000000313//56dumped.pdb
./eq_temp150.0000000313//57dumped.pdb
./eq_temp150.0000000313//59dumped.pdb
./eq_temp150.0000000313//61dumped.pdb
./eq_temp150.0000000313//66dumped.pdb
./eq_temp150.0000000313//67dumped.pdb
./eq_temp150.0000000313//70dumped.pdb
./eq_temp150.0000000313//72dumped.pdb
./eq_temp150.0000000313//74dumped.pdb
./eq_temp150.0000000313//75dumped.pdb
./eq_temp150.0000000313//86dumped.pdb
./eq_temp150.000000003605//60dumped.pdb
./eq_temp150.000000003605//61dumped.pdb
./eq_temp150.000000003605//63dumped.pdb
./eq_temp150.000000003605//69dumped.pdb
./eq_temp150.000000003605//70dumped.pdb
./eq_temp150.000000003605//76dumped.pdb
./eq_temp150.000000003605//77dumped.pdb
./eq_temp150.000000003605//90dumped.pdb
./eq_temp150.000000003605//96dumped.pdb
./eq_temp150.000000003605//97dumped.pdb
./eq_temp150.000000003605//99dumped.pdb
./eq_temp150.000000003605//105dumped.pdb
./eq_temp150.000000003605//106dumped.pdb
./eq_temp150.000000003605//108dumped.pdb
./eq_temp150.000000003605//109dumped.pdb
./eq_temp150.000000003605//110dumped.pdb
./eq_temp150.000000003605//116dumped.pdb
./eq_temp150.000000003605//117dumped.pdb
./eq_temp150.00000000613//149dumped.pdb
./eq_temp150.00000000613//150dumped.pdb
./eq_temp150.00000000613//153dumped.pdb
./eq_temp150.00000000613//155dumped.pdb
./eq_temp150.00000000613//156dumped.pdb
./eq_temp150.00000000613//159dumped.pdb
./eq_temp150.00000000613//163dumped.pdb
./eq_temp150.00000000613//164dumped.pdb
./eq_temp150.00000000613//174dumped.pdb
./eq_temp150.00000000613//176dumped.pdb
./eq_temp150.00000000613//184dumped.pdb
./eq_temp150.00000000613//185dumped.pdb
./eq_temp150.00000000613//186dumped.pdb
./eq_temp150.00000000613//187dumped.pdb
./eq_temp150.00000000613//189dumped.pdb
./eq_temp150.00000000613//192dumped.pdb
./eq_temp150.00000000613//195dumped.pdb
./eq_temp150.00000000613//196dumped.pdb
./eq_temp150.00000000613//197dumped.pdb
./eq_temp150.00000000613//201dumped.pdb
./eq_temp150.00000000613//203dumped.pdb
./eq_temp150.000000000225//63dumped.pdb
./eq_temp150.000000000225//64dumped.pdb
./eq_temp150.000000005607//47dumped.pdb
./eq_temp150.000000005607//53dumped.pdb
./eq_temp150.000000005607//56dumped.pdb
./eq_temp150.000000005607//58dumped.pdb
./eq_temp150.000000005607//62dumped.pdb
./eq_temp150.000000015544//600dumped.pdb
./eq_temp150.000000015544//604dumped.pdb
./eq_temp150.000000015544//606dumped.pdb
./eq_temp150.000000015544//607dumped.pdb
./eq_temp150.000000015544//610dumped.pdb
./eq_temp150.000000015544//611dumped.pdb
./eq_temp150.000000015544//612dumped.pdb
./eq_temp150.000000015544//613dumped.pdb
./eq_temp150.000000015544//620dumped.pdb
./eq_temp150.000000015544//625dumped.pdb
./eq_temp150.000000015544//627dumped.pdb
./eq_temp150.000000015544//630dumped.pdb
./eq_temp150.000000015544//635dumped.pdb
./eq_temp150.000000015544//638dumped.pdb
./eq_temp150.000000015544//639dumped.pdb
./eq_temp150.000000015544//642dumped.pdb
./eq_temp150.000000015544//645dumped.pdb
./eq_temp150.000000015544//648dumped.pdb
./eq_temp150.000000015544//655dumped.pdb
./eq_temp150.000000015544//657dumped.pdb
./eq_temp150.000000003456//92dumped.pdb
./eq_temp150.000000003456//93dumped.pdb
./eq_temp150.000000003456//96dumped.pdb
./eq_temp150.000000003456//97dumped.pdb
./eq_temp150.000000003456//107dumped.pdb
./eq_temp150.000000003456//110dumped.pdb
./eq_temp150.000000003456//111dumped.pdb
./eq_temp150.000000003456//112dumped.pdb
./eq_temp150.000000003456//115dumped.pdb
./eq_temp150.000000003456//117dumped.pdb
./eq_temp150.000000003456//122dumped.pdb
./eq_temp150.000000003456//126dumped.pdb
./eq_temp150.000000003456//138dumped.pdb
./eq_temp150.000000003456//139dumped.pdb
./eq_temp150.000000003456//140dumped.pdb
./eq_temp150.000000003456//147dumped.pdb
./eq_temp150.000000003456//149dumped.pdb
./eq_temp150.00000000021//150dumped.pdb
./eq_temp150.00000000021//154dumped.pdb
./eq_temp150.00000000021//156dumped.pdb
./eq_temp150.00000000021//161dumped.pdb
./eq_temp150.00000000021//162dumped.pdb
./eq_temp150.00000000021//166dumped.pdb
./eq_temp150.00000000021//168dumped.pdb
./eq_temp150.00000000021//174dumped.pdb
./eq_temp150.00000000021//175dumped.pdb
./eq_temp150.00000000021//177dumped.pdb
./eq_temp150.00000000021//181dumped.pdb
./eq_temp150.00000000021//184dumped.pdb
./eq_temp150.00000000021//185dumped.pdb
./eq_temp150.00000000021//186dumped.pdb
./eq_temp150.00000000021//188dumped.pdb
./eq_temp150.00000000021//189dumped.pdb
./eq_temp150.00000000021//193dumped.pdb
./eq_temp150.000000000647//136dumped.pdb
./eq_temp150.000000000647//140dumped.pdb
./eq_temp150.000000000647//143dumped.pdb
./eq_temp150.000000000647//144dumped.pdb
./eq_temp150.000000000647//145dumped.pdb
./eq_temp150.000000103808//11dumped.pdb
./eq_temp150.000000103808//18dumped.pdb
./eq_temp150.000000103808//22dumped.pdb
./eq_temp150.000000103808//25dumped.pdb
./eq_temp150.000000103808//26dumped.pdb
./eq_temp150.000000103808//28dumped.pdb
./eq_temp150.000000103808//36dumped.pdb
./eq_temp150.000000103808//37dumped.pdb
./eq_temp150.000000103808//98dumped.pdb
./eq_temp150.000000003793//285dumped.pdb
./eq_temp150.000000003793//293dumped.pdb
./eq_temp150.000000003793//297dumped.pdb
./eq_temp150.000000003793//299dumped.pdb
./eq_temp150.000000003793//302dumped.pdb
./eq_temp150.000000003793//303dumped.pdb
./eq_temp150.000000003793//307dumped.pdb
./eq_temp150.000000003793//309dumped.pdb
./eq_temp150.000000003793//312dumped.pdb
./eq_temp150.00000010634//449dumped.pdb
./eq_temp150.00000010634//458dumped.pdb
./eq_temp150.00000010634//462dumped.pdb
./eq_temp150.00000010634//466dumped.pdb
./eq_temp150.00000010634//471dumped.pdb
./eq_temp150.000000003404//302dumped.pdb
./eq_temp150.000000033724//6dumped.pdb
./eq_temp150.000000033724//7dumped.pdb
./eq_temp150.00000000024//29dumped.pdb
./eq_temp150.00000000024//32dumped.pdb
./eq_temp150.00000000024//36dumped.pdb
./eq_temp150.00000000024//41dumped.pdb
./eq_temp150.00000000024//44dumped.pdb
./eq_temp150.00000000024//47dumped.pdb
./eq_temp150.00000000024//51dumped.pdb
./eq_temp150.00000000024//56dumped.pdb
./eq_temp150.00000000024//74dumped.pdb
./eq_temp150.00000000024//75dumped.pdb
./eq_temp150.00000000024//76dumped.pdb
./eq_temp150.00000000024//84dumped.pdb
./eq_temp150.00000000024//94dumped.pdb
./eq_temp150.00000000024//96dumped.pdb
./eq_temp150.00000000076//22dumped.pdb
./eq_temp150.00000000076//23dumped.pdb
./eq_temp150.00000000076//24dumped.pdb
./eq_temp150.00000000076//26dumped.pdb
./eq_temp150.00000000076//30dumped.pdb
./eq_temp150.000000001503//142dumped.pdb
./eq_temp150.000000001503//144dumped.pdb
./eq_temp150.000000001503//147dumped.pdb
./eq_temp150.000000001503//152dumped.pdb
./eq_temp150.000000001503//160dumped.pdb
./eq_temp150.000000001503//161dumped.pdb
./eq_temp150.00000003736//271dumped.pdb
./eq_temp150.00000003736//272dumped.pdb
./eq_temp150.00000003736//274dumped.pdb
./eq_temp150.00000003736//279dumped.pdb
./eq_temp150.00000003736//284dumped.pdb
./eq_temp150.00000003736//285dumped.pdb
./eq_temp150.00000003736//286dumped.pdb
./test/eq_temp150.00000000002//299dumped.pdb
./test/eq_temp150.00000000002//300dumped.pdb
./test/eq_temp150.00000000002//302dumped.pdb
./test/eq_temp150.00000000002//304dumped.pdb
./test/eq_temp150.00000000002//437dumped.pdb
./test/eq_temp150.00000000002//445dumped.pdb
./test/eq_temp150.00000000002//448dumped.pdb
./test/eq_temp150.00000000002//451dumped.pdb
./test/eq_temp150.000000000091//133dumped.pdb
./test/eq_temp150.000000000091//139dumped.pdb
./test/eq_temp150.000000000091//140dumped.pdb
./test/eq_temp150.000000000071//400dumped.pdb
./test/eq_temp150.000000000071//401dumped.pdb
./test/eq_temp150.000000000071//403dumped.pdb
./test/eq_temp150.000000000071//404dumped.pdb
./test/eq_temp150.000000000071//406dumped.pdb
./test/eq_temp150.000000000071//411dumped.pdb
./test/eq_temp150.000000000071//412dumped.pdb
./test/eq_temp150.000000000071//414dumped.pdb
./test/eq_temp150.00000000003//123dumped.pdb
./test/eq_temp150.00000000003//126dumped.pdb
./test/eq_temp150.00000000003//127dumped.pdb
./test/eq_temp150.00000000003//128dumped.pdb
./test/eq_temp150.00000000004//255dumped.pdb
./test/eq_temp150.00000000004//256dumped.pdb
./test/eq_temp150.00000000004//258dumped.pdb
./test/eq_temp150.00000000004//264dumped.pdb
./test/eq_temp150.00000000004//269dumped.pdb
./test/eq_temp150.00000000004//279dumped.pdb
./test/eq_temp150.00000000004//283dumped.pdb
./test/eq_temp150.00000000004//284dumped.pdb
./test/eq_temp150.00000000004//286dumped.pdb
./test/eq_temp150.00000000004//288dumped.pdb
./test/eq_temp150.00000000008//331dumped.pdb
./test/eq_temp150.00000000008//341dumped.pdb
./test/eq_temp150.00000000008//345dumped.pdb
./test/eq_temp150.00000000008//348dumped.pdb
./test/eq_temp150.00000000008//361dumped.pdb
./test/eq_temp150.00000000008//362dumped.pdb
./test/eq_temp150.00000000005//158dumped.pdb
./test/eq_temp150.00000000005//159dumped.pdb
./test/eq_temp150.00000000005//169dumped.pdb
./test/eq_temp150.00000000005//173dumped.pdb
./test/eq_temp150.00000000005//176dumped.pdb
./test/eq_temp150.00000000005//193dumped.pdb
./test/eq_temp150.00000000007//81dumped.pdb
./test/eq_temp150.00000000021//150dumped.pdb
./test/eq_temp150.00000000021//154dumped.pdb
./test/eq_temp150.00000000021//156dumped.pdb
./test/eq_temp150.00000000021//161dumped.pdb
./test/eq_temp150.00000000021//162dumped.pdb
./test/eq_temp150.00000000021//166dumped.pdb
./test/eq_temp150.00000000021//168dumped.pdb
./test/eq_temp150.00000000021//174dumped.pdb
./test/eq_temp150.00000000021//175dumped.pdb
./test/eq_temp150.00000000021//177dumped.pdb
./test/eq_temp150.00000000021//181dumped.pdb
./test/eq_temp150.00000000021//184dumped.pdb
./test/eq_temp150.00000000021//185dumped.pdb
./test/eq_temp150.00000000021//186dumped.pdb
./test/eq_temp150.00000000021//188dumped.pdb
./test/eq_temp150.00000000021//189dumped.pdb
./test/eq_temp150.00000000021//193dumped.pdb
./eq_temp150.00000000285//130dumped.pdb
./eq_temp150.00000000285//134dumped.pdb
./eq_temp150.00000000285//136dumped.pdb
./eq_temp150.00000000285//137dumped.pdb
./eq_temp150.00000000285//145dumped.pdb
./eq_temp150.00000001312//80dumped.pdb
./eq_temp150.00000001312//81dumped.pdb
./eq_temp150.00000001312//84dumped.pdb
./eq_temp150.00000001312//87dumped.pdb
./eq_temp150.00000001312//89dumped.pdb
./eq_temp150.00000001312//91dumped.pdb
./eq_temp150.00000001312//92dumped.pdb
./eq_temp150.00000001312//94dumped.pdb
./eq_temp150.00000001312//102dumped.pdb
./eq_temp150.00000001312//104dumped.pdb
./eq_temp150.00000001312//105dumped.pdb
./eq_temp150.00000001312//108dumped.pdb
./eq_temp150.00000001312//109dumped.pdb
./eq_temp150.00000001312//112dumped.pdb
./eq_temp150.00000001312//122dumped.pdb
./eq_temp150.00000001312//128dumped.pdb
./eq_temp150.00000001312//129dumped.pdb
./eq_temp150.00000001312//147dumped.pdb
./eq_temp150.000000000186//624dumped.pdb
./eq_temp150.000000000186//626dumped.pdb
./eq_temp150.000000000186//627dumped.pdb
./eq_temp150.000000000186//629dumped.pdb
./eq_temp150.00000000184//83dumped.pdb
./eq_temp150.00000000184//84dumped.pdb
./eq_temp150.00000000184//85dumped.pdb
./eq_temp150.00000000184//89dumped.pdb
./eq_temp150.00000000184//90dumped.pdb
./eq_temp150.00000000184//91dumped.pdb
./eq_temp150.00000000184//93dumped.pdb
./eq_temp150.00000000184//97dumped.pdb
./eq_temp150.00000000184//99dumped.pdb
./eq_temp150.00000000184//101dumped.pdb
./eq_temp150.00000000184//104dumped.pdb
./eq_temp150.00000000184//106dumped.pdb
./eq_temp150.00000000184//109dumped.pdb
./eq_temp150.00000000184//110dumped.pdb
./eq_temp150.00000000184//111dumped.pdb
./eq_temp150.000000000964//12dumped.pdb
./eq_temp150.000000000964//15dumped.pdb
./eq_temp150.000000000964//16dumped.pdb
./eq_temp150.00000000072//174dumped.pdb
./eq_temp150.00000000072//183dumped.pdb
./eq_temp150.00000000072//184dumped.pdb
./eq_temp150.00000000072//196dumped.pdb
./eq_temp150.00000000072//197dumped.pdb
./eq_temp150.00000000072//198dumped.pdb
./eq_temp150.00000000072//199dumped.pdb
./eq_temp150.00000000072//201dumped.pdb
./eq_temp150.00000000072//202dumped.pdb
./eq_temp150.00000000072//208dumped.pdb
./eq_temp150.00000000072//209dumped.pdb
./eq_temp150.00000000072//213dumped.pdb
./eq_temp150.00000000072//215dumped.pdb
./eq_temp150.00000000072//217dumped.pdb
./eq_temp150.00000000072//220dumped.pdb
./eq_temp150.00000000072//233dumped.pdb
./eq_temp150.00000010001//102dumped.pdb
./eq_temp150.00000010001//104dumped.pdb
./eq_temp150.00000010001//111dumped.pdb
./eq_temp150.00000010001//112dumped.pdb
./eq_temp150.00000010001//114dumped.pdb
./eq_temp150.00000010001//126dumped.pdb
./eq_temp150.00000010001//127dumped.pdb
./eq_temp150.00000010001//130dumped.pdb
./eq_temp150.00000010001//132dumped.pdb
./eq_temp150.00000010001//134dumped.pdb
./eq_temp150.00000010001//136dumped.pdb
./eq_temp150.00000010001//137dumped.pdb
./eq_temp150.00000010001//140dumped.pdb
./eq_temp150.00000010001//142dumped.pdb
./eq_temp150.00000010001//160dumped.pdb
./eq_temp150.00000000056//328dumped.pdb
./eq_temp150.00000000056//331dumped.pdb
./eq_temp150.00000000056//338dumped.pdb
./eq_temp150.00000000056//342dumped.pdb
./eq_temp150.00000000056//347dumped.pdb
./eq_temp150.00000000056//349dumped.pdb
./eq_temp150.00000000056//350dumped.pdb
./eq_temp150.000000003004//19dumped.pdb
./eq_temp150.000000003004//22dumped.pdb
./eq_temp150.000000003004//23dumped.pdb
./eq_temp150.000000003004//24dumped.pdb
./eq_temp150.000000003004//27dumped.pdb
./eq_temp150.000000003004//29dumped.pdb
./eq_temp150.000000003004//32dumped.pdb
./eq_temp150.000000003004//38dumped.pdb
./eq_temp150.000000003004//42dumped.pdb
./eq_temp150.000000003004//43dumped.pdb
./eq_temp150.000000003004//47dumped.pdb
./eq_temp150.000000003004//48dumped.pdb
./eq_temp150.000000003004//49dumped.pdb
./eq_temp150.000000003004//51dumped.pdb
./eq_temp150.000000003004//54dumped.pdb
./eq_temp150.000000003004//60dumped.pdb
./eq_temp150.000000003004//64dumped.pdb
./eq_temp150.000000003004//66dumped.pdb
./eq_temp150.000000003004//67dumped.pdb
./eq_temp150.000000003004//71dumped.pdb
./eq_temp150.000000003004//76dumped.pdb
./eq_temp150.000000003004//78dumped.pdb
./eq_temp150.000000003004//81dumped.pdb
./eq_temp150.000000003004//82dumped.pdb
./eq_temp150.000000003004//83dumped.pdb
./eq_temp150.000000003004//98dumped.pdb
./eq_temp150.000000003004//106dumped.pdb
./eq_temp150.000000003004//107dumped.pdb
./eq_temp150.000000003004//113dumped.pdb
./eq_temp150.000000003004//115dumped.pdb
./eq_temp150.000000003004//116dumped.pdb
./eq_temp150.000000003004//118dumped.pdb
./eq_temp150.000000003004//122dumped.pdb
./eq_temp150.000000003004//126dumped.pdb
./eq_temp150.000000003004//129dumped.pdb
./eq_temp150.000000003004//130dumped.pdb
./eq_temp150.000000003004//131dumped.pdb
./eq_temp150.000000106551//10dumped.pdb
./eq_temp150.000000106551//14dumped.pdb
./eq_temp150.000000106551//15dumped.pdb
./eq_temp150.000000106551//16dumped.pdb
./eq_temp150.000000106551//17dumped.pdb
./eq_temp150.000000106551//22dumped.pdb
./eq_temp150.000000106551//24dumped.pdb
./eq_temp150.000000106551//26dumped.pdb
./eq_temp150.000000106551//29dumped.pdb
./eq_temp150.000000106551//30dumped.pdb
./eq_temp150.000000106551//33dumped.pdb
./eq_temp150.000000106551//38dumped.pdb
./eq_temp150.000000106551//41dumped.pdb
./eq_temp150.000000106551//43dumped.pdb
./eq_temp150.000000106551//45dumped.pdb
./eq_temp150.000000100221//25dumped.pdb
./eq_temp150.000000100221//33dumped.pdb
./eq_temp150.000000100221//38dumped.pdb
./eq_temp150.000000100221//42dumped.pdb
./eq_temp150.000000100221//47dumped.pdb
./eq_temp150.000000100221//50dumped.pdb
./eq_temp150.000000100221//59dumped.pdb
./eq_temp150.000000100221//64dumped.pdb
./eq_temp150.000000100221//65dumped.pdb
./eq_temp150.000000100221//70dumped.pdb
./eq_temp150.000000100221//71dumped.pdb
./eq_temp150.000000100221//73dumped.pdb
./eq_temp150.000000100221//74dumped.pdb
./eq_temp150.000000100221//78dumped.pdb
./eq_temp150.000000100221//79dumped.pdb
./eq_temp150.000000100221//82dumped.pdb
./eq_temp150.000000100221//92dumped.pdb
./eq_temp150.000000100221//93dumped.pdb
./eq_temp150.000000100221//94dumped.pdb
./eq_temp150.000000100221//98dumped.pdb
./eq_temp150.000000100221//99dumped.pdb
./eq_temp150.000000003867//75dumped.pdb
./eq_temp150.000000003867//78dumped.pdb
./eq_temp150.000000003867//79dumped.pdb
./eq_temp150.0000000002//39dumped.pdb
./eq_temp150.0000000002//40dumped.pdb
./eq_temp150.0000000002//41dumped.pdb
./eq_temp150.0000000002//44dumped.pdb
./eq_temp150.0000000002//45dumped.pdb
./eq_temp150.0000000002//47dumped.pdb
./eq_temp150.0000000002//50dumped.pdb
./eq_temp150.0000000002//54dumped.pdb
./eq_temp150.0000000002//58dumped.pdb
./eq_temp150.0000000002//60dumped.pdb
./eq_temp150.000000003424//12dumped.pdb
./eq_temp150.00000000082//131dumped.pdb
./eq_temp150.00000000082//132dumped.pdb
./eq_temp150.00000000082//133dumped.pdb
./eq_temp150.00000000082//134dumped.pdb
./eq_temp150.00000000082//140dumped.pdb
./eq_temp150.00000000082//148dumped.pdb
./eq_temp150.00000000082//149dumped.pdb
./eq_temp150.00000000082//155dumped.pdb
./eq_temp150.00000000082//159dumped.pdb
./eq_temp150.00000000082//160dumped.pdb
./eq_temp150.00000000082//162dumped.pdb
./eq_temp150.00000000082//163dumped.pdb
./eq_temp150.00000000082//165dumped.pdb
./eq_temp150.00000000082//166dumped.pdb
./eq_temp150.00000000082//167dumped.pdb
./eq_temp150.00000000082//169dumped.pdb
./eq_temp150.00000000082//171dumped.pdb
./eq_temp150.00000000082//173dumped.pdb
./eq_temp150.00000000082//177dumped.pdb
./eq_temp150.00000000082//180dumped.pdb
./eq_temp150.00000000082//181dumped.pdb
./eq_temp150.00000000082//182dumped.pdb
./eq_temp150.00000000082//183dumped.pdb
./eq_temp150.00000000082//185dumped.pdb
./eq_temp150.00000000082//186dumped.pdb
./eq_temp150.00000000082//188dumped.pdb
./eq_temp150.00000000082//189dumped.pdb
./eq_temp150.00000000082//191dumped.pdb
./eq_temp150.00000000082//192dumped.pdb
./eq_temp150.00000000082//197dumped.pdb
./eq_temp150.00000000082//224dumped.pdb
./eq_temp150.00000000082//226dumped.pdb
./eq_temp150.00000000082//235dumped.pdb
./eq_temp150.00000000082//238dumped.pdb
./eq_temp150.00000000082//242dumped.pdb
./eq_temp150.00000000082//243dumped.pdb
./eq_temp150.00000000082//244dumped.pdb
./eq_temp150.00000000082//245dumped.pdb
./eq_temp150.00000000082//246dumped.pdb
./eq_temp150.00000000082//248dumped.pdb
./eq_temp150.00000000082//249dumped.pdb
./eq_temp150.00000000082//254dumped.pdb
./eq_temp150.00000000082//256dumped.pdb
./eq_temp150.00000000082//260dumped.pdb
./eq_temp150.00000000082//263dumped.pdb
./eq_temp150.00000000082//272dumped.pdb
./eq_temp150.000000000781//142dumped.pdb
./eq_temp150.000000000781//147dumped.pdb
./eq_temp150.000000000781//156dumped.pdb
./eq_temp150.000000000781//163dumped.pdb
./eq_temp150.000000000781//169dumped.pdb
./eq_temp150.000000000781//170dumped.pdb
./eq_temp150.000000000781//174dumped.pdb
./eq_temp150.000000000781//177dumped.pdb
./eq_temp150.000000000781//181dumped.pdb
./eq_temp150.000000000781//183dumped.pdb
./eq_temp150.000000000781//187dumped.pdb
./eq_temp150.000000000781//195dumped.pdb
./eq_temp150.000000000781//197dumped.pdb
./eq_temp150.000000000781//200dumped.pdb
./eq_temp150.000000000781//203dumped.pdb
./eq_temp150.000000000781//206dumped.pdb
./eq_temp150.000000000781//211dumped.pdb
./eq_temp150.000000000781//213dumped.pdb
./eq_temp150.000000000781//214dumped.pdb
./eq_temp150.000000000781//215dumped.pdb
./eq_temp150.000000000781//217dumped.pdb
./eq_temp150.000000000781//222dumped.pdb
./eq_temp150.000000000781//232dumped.pdb
./eq_temp150.000000002317//57dumped.pdb
./eq_temp150.000000002317//63dumped.pdb
./eq_temp150.000000002317//65dumped.pdb
./eq_temp150.000000004366//131dumped.pdb
./eq_temp150.000000004366//132dumped.pdb
./eq_temp150.000000004366//143dumped.pdb
./eq_temp150.000000004366//144dumped.pdb
./eq_temp150.000000004366//147dumped.pdb
./eq_temp150.000000004366//150dumped.pdb
