./eq_temp150.000000002563//553dumped.pdb
./eq_temp150.000000000589//121dumped.pdb
./eq_temp150.00000000068//698dumped.pdb
./eq_temp150.0000000008//75dumped.pdb
./eq_temp150.000000004972//35dumped.pdb
./eq_temp150.000000004972//36dumped.pdb
./eq_temp150.00000000613//154dumped.pdb
./eq_temp150.00000010634//455dumped.pdb
./eq_temp150.000000003004//94dumped.pdb
./eq_temp150.000000003004//132dumped.pdb
./eq_temp150.000000106551//11dumped.pdb
./eq_temp150.000000100221//96dumped.pdb
./eq_temp150.00000000082//137dumped.pdb
./eq_temp150.00000000082//231dumped.pdb
