./eq_temp150.000000003256//274dumped.pdb
./eq_temp150.000000003256//275dumped.pdb
./eq_temp150.000000003256//276dumped.pdb
./eq_temp150.000000003256//277dumped.pdb
./eq_temp150.000000003256//278dumped.pdb
./eq_temp150.000000003256//279dumped.pdb
./eq_temp150.000000003256//280dumped.pdb
./eq_temp150.000000003256//281dumped.pdb
./eq_temp150.000000003256//283dumped.pdb
./eq_temp150.000000003256//284dumped.pdb
./eq_temp150.000000003256//285dumped.pdb
./eq_temp150.000000003256//286dumped.pdb
./eq_temp150.000000003256//287dumped.pdb
./eq_temp150.000000003256//288dumped.pdb
./eq_temp150.000000003256//289dumped.pdb
./eq_temp150.000000003256//290dumped.pdb
./eq_temp150.000000003256//291dumped.pdb
./eq_temp150.000000003256//292dumped.pdb
./eq_temp150.000000001948//127dumped.pdb
./eq_temp150.000000001948//128dumped.pdb
./eq_temp150.000000001948//129dumped.pdb
./eq_temp150.000000001948//130dumped.pdb
./eq_temp150.000000001948//131dumped.pdb
./eq_temp150.000000001948//132dumped.pdb
./eq_temp150.000000001948//133dumped.pdb
./eq_temp150.000000001948//134dumped.pdb
./eq_temp150.000000001948//135dumped.pdb
./eq_temp150.000000001948//136dumped.pdb
./eq_temp150.000000001948//137dumped.pdb
./eq_temp150.000000001948//138dumped.pdb
./eq_temp150.000000001948//139dumped.pdb
./eq_temp150.000000001948//140dumped.pdb
./eq_temp150.000000001948//141dumped.pdb
./eq_temp150.000000001948//142dumped.pdb
./eq_temp150.000000001948//143dumped.pdb
./eq_temp150.000000001948//144dumped.pdb
./eq_temp150.000000001948//145dumped.pdb
./eq_temp150.000000001948//146dumped.pdb
./eq_temp150.000000001948//147dumped.pdb
./eq_temp150.000000001948//148dumped.pdb
./eq_temp150.000000001948//149dumped.pdb
./eq_temp150.000000001948//150dumped.pdb
./eq_temp150.000000001948//151dumped.pdb
./eq_temp150.000000001948//152dumped.pdb
./eq_temp150.000000001948//153dumped.pdb
./eq_temp150.000000001948//154dumped.pdb
./eq_temp150.000000001948//155dumped.pdb
./eq_temp150.000000001948//156dumped.pdb
./eq_temp150.000000001948//157dumped.pdb
./eq_temp150.000000001948//158dumped.pdb
./eq_temp150.000000001948//159dumped.pdb
./eq_temp150.000000001948//160dumped.pdb
./eq_temp150.000000001948//161dumped.pdb
./eq_temp150.000000001948//162dumped.pdb
./eq_temp150.000000001948//163dumped.pdb
./eq_temp150.000000001948//164dumped.pdb
./eq_temp150.000000001948//165dumped.pdb
./eq_temp150.000000001948//166dumped.pdb
./eq_temp150.000000001948//167dumped.pdb
./eq_temp150.000000001948//168dumped.pdb
./eq_temp150.000000001948//169dumped.pdb
./eq_temp150.000000001948//170dumped.pdb
./eq_temp150.000000001948//171dumped.pdb
./eq_temp150.000000001948//172dumped.pdb
./eq_temp150.000000001948//173dumped.pdb
./eq_temp150.000000001948//174dumped.pdb
./eq_temp150.000000001948//175dumped.pdb
./eq_temp150.000000001948//176dumped.pdb
./eq_temp150.000000001948//177dumped.pdb
./eq_temp150.000000001948//178dumped.pdb
./eq_temp150.000000001948//179dumped.pdb
./eq_temp150.000000001948//180dumped.pdb
./eq_temp150.000000001948//181dumped.pdb
./eq_temp150.000000001948//182dumped.pdb
./eq_temp150.000000001948//183dumped.pdb
./eq_temp150.000000001948//184dumped.pdb
./eq_temp150.000000001948//185dumped.pdb
./eq_temp150.000000001948//186dumped.pdb
./eq_temp150.000000001948//187dumped.pdb
./eq_temp150.000000001948//188dumped.pdb
./eq_temp150.000000001948//189dumped.pdb
./eq_temp150.000000001948//190dumped.pdb
./eq_temp150.000000001948//191dumped.pdb
./eq_temp150.000000001948//192dumped.pdb
./eq_temp150.000000001948//193dumped.pdb
./eq_temp150.000000001948//194dumped.pdb
./eq_temp150.000000001948//195dumped.pdb
./eq_temp150.000000001948//196dumped.pdb
./eq_temp150.000000001948//197dumped.pdb
./eq_temp150.000000001948//198dumped.pdb
./eq_temp150.000000001948//199dumped.pdb
./eq_temp150.000000001948//200dumped.pdb
./eq_temp150.000000001948//201dumped.pdb
./eq_temp150.000000001948//202dumped.pdb
./eq_temp150.000000001948//203dumped.pdb
./eq_temp150.000000001948//204dumped.pdb
./eq_temp150.000000001948//205dumped.pdb
./eq_temp150.000000001948//206dumped.pdb
./eq_temp150.000000001948//207dumped.pdb
./eq_temp150.000000001948//208dumped.pdb
./eq_temp150.000000001948//209dumped.pdb
./eq_temp150.000000001948//210dumped.pdb
./eq_temp150.000000001948//211dumped.pdb
./eq_temp150.000000001948//212dumped.pdb
./eq_temp150.000000001948//213dumped.pdb
./eq_temp150.000000001948//214dumped.pdb
./eq_temp150.000000001948//215dumped.pdb
./eq_temp150.000000001948//216dumped.pdb
./eq_temp150.000000001948//217dumped.pdb
./eq_temp150.000000001948//218dumped.pdb
./eq_temp150.000000000718//53dumped.pdb
./eq_temp150.000000000718//60dumped.pdb
./eq_temp150.000000000718//62dumped.pdb
./eq_temp150.000000000718//73dumped.pdb
./eq_temp150.000000000718//74dumped.pdb
./eq_temp150.000000000718//75dumped.pdb
./eq_temp150.000000000718//76dumped.pdb
./eq_temp150.000000000718//77dumped.pdb
./eq_temp150.000000000718//79dumped.pdb
./eq_temp150.00000000015//117dumped.pdb
./eq_temp150.00000000015//118dumped.pdb
./eq_temp150.00000000015//119dumped.pdb
./eq_temp150.00000000015//120dumped.pdb
./eq_temp150.00000000015//121dumped.pdb
./eq_temp150.00000000015//122dumped.pdb
./eq_temp150.00000000015//123dumped.pdb
./eq_temp150.00000000015//124dumped.pdb
./eq_temp150.00000000015//125dumped.pdb
./eq_temp150.00000000015//126dumped.pdb
./eq_temp150.00000000015//128dumped.pdb
./eq_temp150.000000000282//136dumped.pdb
./eq_temp150.000000000282//137dumped.pdb
./eq_temp150.000000000282//138dumped.pdb
./eq_temp150.000000000282//139dumped.pdb
./eq_temp150.000000000282//140dumped.pdb
./eq_temp150.000000000282//141dumped.pdb
./eq_temp150.000000000282//142dumped.pdb
./eq_temp150.000000000282//143dumped.pdb
./eq_temp150.000000000282//144dumped.pdb
./eq_temp150.000000000282//145dumped.pdb
./eq_temp150.000000000282//146dumped.pdb
./eq_temp150.000000000282//147dumped.pdb
./eq_temp150.000000000282//148dumped.pdb
./eq_temp150.000000000282//149dumped.pdb
./eq_temp150.000000000282//150dumped.pdb
./eq_temp150.000000000282//151dumped.pdb
./eq_temp150.000000000282//153dumped.pdb
./eq_temp150.000000000282//156dumped.pdb
./eq_temp150.000000000282//157dumped.pdb
./eq_temp150.000000000282//158dumped.pdb
./eq_temp150.000000002704//79dumped.pdb
./eq_temp150.000000002547//113dumped.pdb
./eq_temp150.000000003705//379dumped.pdb
./eq_temp150.000000003705//380dumped.pdb
./eq_temp150.000000003705//381dumped.pdb
./eq_temp150.000000003705//382dumped.pdb
./eq_temp150.000000003705//383dumped.pdb
./eq_temp150.000000003705//384dumped.pdb
./eq_temp150.000000003705//385dumped.pdb
./eq_temp150.000000003705//386dumped.pdb
./eq_temp150.000000003705//388dumped.pdb
./eq_temp150.000000003705//389dumped.pdb
./eq_temp150.000000003705//390dumped.pdb
./eq_temp150.000000003705//391dumped.pdb
./eq_temp150.000000003705//392dumped.pdb
./eq_temp150.000000003705//393dumped.pdb
./eq_temp150.000000003705//394dumped.pdb
./eq_temp150.000000003705//395dumped.pdb
./eq_temp150.000000003705//396dumped.pdb
./eq_temp150.000000003705//397dumped.pdb
./eq_temp150.000000003705//398dumped.pdb
./eq_temp150.000000003705//400dumped.pdb
./eq_temp150.000000003705//402dumped.pdb
./eq_temp150.000000003705//403dumped.pdb
./eq_temp150.000000003705//404dumped.pdb
./eq_temp150.000000003705//405dumped.pdb
./eq_temp150.000000003705//407dumped.pdb
./eq_temp150.000000003705//408dumped.pdb
./eq_temp150.000000003705//409dumped.pdb
./eq_temp150.000000003705//410dumped.pdb
./eq_temp150.000000003705//412dumped.pdb
./eq_temp150.000000003705//413dumped.pdb
./eq_temp150.000000003705//414dumped.pdb
./eq_temp150.000000002156//310dumped.pdb
./eq_temp150.000000002156//311dumped.pdb
./eq_temp150.000000002156//312dumped.pdb
./eq_temp150.000000002156//313dumped.pdb
./eq_temp150.000000002156//314dumped.pdb
./eq_temp150.000000002156//315dumped.pdb
./eq_temp150.000000002156//317dumped.pdb
./eq_temp150.000000002156//318dumped.pdb
./eq_temp150.000000002156//319dumped.pdb
./eq_temp150.000000002156//320dumped.pdb
./eq_temp150.000000002156//321dumped.pdb
./eq_temp150.000000002156//322dumped.pdb
./eq_temp150.000000002156//323dumped.pdb
./eq_temp150.000000002156//324dumped.pdb
./eq_temp150.000000002156//325dumped.pdb
./eq_temp150.000000002156//326dumped.pdb
./eq_temp150.000000002156//327dumped.pdb
./eq_temp150.000000002156//328dumped.pdb
./eq_temp150.000000002156//330dumped.pdb
./eq_temp150.000000002156//332dumped.pdb
./eq_temp150.000000002156//333dumped.pdb
./eq_temp150.000000002156//338dumped.pdb
./eq_temp150.000000002156//339dumped.pdb
./eq_temp150.000000003304//60dumped.pdb
./eq_temp150.000000003304//61dumped.pdb
./eq_temp150.000000003304//63dumped.pdb
./eq_temp150.000000003304//64dumped.pdb
./eq_temp150.000000003304//65dumped.pdb
./eq_temp150.000000003304//66dumped.pdb
./eq_temp150.000000003304//67dumped.pdb
./eq_temp150.000000003304//68dumped.pdb
./eq_temp150.000000003304//69dumped.pdb
./eq_temp150.000000003304//70dumped.pdb
./eq_temp150.000000003304//71dumped.pdb
./eq_temp150.000000003304//72dumped.pdb
./eq_temp150.000000003304//73dumped.pdb
./eq_temp150.000000003304//74dumped.pdb
./eq_temp150.000000003304//75dumped.pdb
./eq_temp150.000000003304//76dumped.pdb
./eq_temp150.000000003304//77dumped.pdb
./eq_temp150.000000003304//78dumped.pdb
./eq_temp150.000000003304//79dumped.pdb
./eq_temp150.000000003304//80dumped.pdb
./eq_temp150.000000003304//81dumped.pdb
./eq_temp150.000000003304//82dumped.pdb
./eq_temp150.000000003304//83dumped.pdb
./eq_temp150.000000003304//84dumped.pdb
./eq_temp150.000000003304//85dumped.pdb
./eq_temp150.000000003304//86dumped.pdb
./eq_temp150.000000003304//87dumped.pdb
./eq_temp150.000000003304//88dumped.pdb
./eq_temp150.000000003304//89dumped.pdb
./eq_temp150.000000003304//90dumped.pdb
./eq_temp150.000000003304//91dumped.pdb
./eq_temp150.000000003304//92dumped.pdb
./eq_temp150.000000003304//93dumped.pdb
./eq_temp150.000000003304//94dumped.pdb
./eq_temp150.000000003304//95dumped.pdb
./eq_temp150.000000003304//96dumped.pdb
./eq_temp150.000000003304//97dumped.pdb
./eq_temp150.000000003304//98dumped.pdb
./eq_temp150.000000003304//99dumped.pdb
./eq_temp150.000000003304//100dumped.pdb
./eq_temp150.000000003304//101dumped.pdb
./eq_temp150.000000003304//102dumped.pdb
./eq_temp150.000000003304//105dumped.pdb
./eq_temp150.000000003304//108dumped.pdb
./eq_temp150.000000003304//109dumped.pdb
./eq_temp150.000000003304//110dumped.pdb
./eq_temp150.000000003304//111dumped.pdb
./eq_temp150.000000003134//187dumped.pdb
./eq_temp150.000000003134//189dumped.pdb
./eq_temp150.000000003134//190dumped.pdb
./eq_temp150.000000003134//191dumped.pdb
./eq_temp150.000000003134//192dumped.pdb
./eq_temp150.000000003134//193dumped.pdb
./eq_temp150.000000003134//194dumped.pdb
./eq_temp150.000000003134//195dumped.pdb
./eq_temp150.000000003134//196dumped.pdb
./eq_temp150.000000003134//197dumped.pdb
./eq_temp150.000000003134//198dumped.pdb
./eq_temp150.000000003134//199dumped.pdb
./eq_temp150.000000003134//200dumped.pdb
./eq_temp150.000000003134//201dumped.pdb
./eq_temp150.000000003134//202dumped.pdb
./eq_temp150.000000003134//203dumped.pdb
./eq_temp150.000000003134//204dumped.pdb
./eq_temp150.000000003134//205dumped.pdb
./eq_temp150.000000003134//206dumped.pdb
./eq_temp150.000000003134//207dumped.pdb
./eq_temp150.000000003134//209dumped.pdb
./eq_temp150.000000003134//210dumped.pdb
./eq_temp150.000000003134//211dumped.pdb
./eq_temp150.000000003134//212dumped.pdb
./eq_temp150.000000003134//213dumped.pdb
./eq_temp150.000000003134//214dumped.pdb
./eq_temp150.000000003134//215dumped.pdb
./eq_temp150.000000003134//216dumped.pdb
./eq_temp150.000000003134//217dumped.pdb
./eq_temp150.000000003134//218dumped.pdb
./eq_temp150.000000003134//219dumped.pdb
./eq_temp150.000000003134//220dumped.pdb
./eq_temp150.000000003134//221dumped.pdb
./eq_temp150.000000003134//222dumped.pdb
./eq_temp150.000000003134//223dumped.pdb
./eq_temp150.000000003134//224dumped.pdb
./eq_temp150.000000003134//226dumped.pdb
./eq_temp150.000000003134//227dumped.pdb
./eq_temp150.000000003134//228dumped.pdb
./eq_temp150.000000003134//229dumped.pdb
./eq_temp150.000000003134//230dumped.pdb
./eq_temp150.000000003134//231dumped.pdb
./eq_temp150.000000003134//232dumped.pdb
./eq_temp150.000000003134//233dumped.pdb
./eq_temp150.000000003134//234dumped.pdb
./eq_temp150.000000003134//235dumped.pdb
./eq_temp150.000000003134//236dumped.pdb
./eq_temp150.000000003134//237dumped.pdb
./eq_temp150.000000003134//238dumped.pdb
./eq_temp150.000000003134//239dumped.pdb
./eq_temp150.000000003134//240dumped.pdb
./eq_temp150.000000003134//241dumped.pdb
./eq_temp150.000000003134//242dumped.pdb
./eq_temp150.000000003134//244dumped.pdb
./eq_temp150.000000003134//245dumped.pdb
./eq_temp150.000000003134//246dumped.pdb
./eq_temp150.000000003134//247dumped.pdb
./eq_temp150.000000003134//248dumped.pdb
./eq_temp150.000000003134//249dumped.pdb
./eq_temp150.000000003134//250dumped.pdb
./eq_temp150.000000003134//252dumped.pdb
./eq_temp150.000000003134//253dumped.pdb
./eq_temp150.000000003134//254dumped.pdb
./eq_temp150.000000003134//255dumped.pdb
./eq_temp150.000000003134//256dumped.pdb
./eq_temp150.000000003134//257dumped.pdb
./eq_temp150.000000003134//259dumped.pdb
./eq_temp150.000000003134//260dumped.pdb
./eq_temp150.000000003134//261dumped.pdb
./eq_temp150.000000003134//262dumped.pdb
./eq_temp150.000000003134//263dumped.pdb
./eq_temp150.000000003134//264dumped.pdb
./eq_temp150.000000003134//265dumped.pdb
./eq_temp150.000000003134//266dumped.pdb
./eq_temp150.000000003134//267dumped.pdb
./eq_temp150.000000003134//269dumped.pdb
./eq_temp150.000000003134//270dumped.pdb
./eq_temp150.000000003134//271dumped.pdb
./eq_temp150.000000003134//272dumped.pdb
./eq_temp150.000000003134//273dumped.pdb
./eq_temp150.000000003134//274dumped.pdb
./eq_temp150.000000003134//275dumped.pdb
./eq_temp150.000000003134//276dumped.pdb
./eq_temp150.000000003134//277dumped.pdb
./eq_temp150.000000003134//279dumped.pdb
./eq_temp150.000000003134//280dumped.pdb
./eq_temp150.000000003134//281dumped.pdb
./eq_temp150.000000003134//282dumped.pdb
./eq_temp150.000000003134//283dumped.pdb
./eq_temp150.000000003134//284dumped.pdb
./eq_temp150.000000003134//285dumped.pdb
./eq_temp150.000000003134//286dumped.pdb
./eq_temp150.000000003134//287dumped.pdb
./eq_temp150.000000003134//288dumped.pdb
./eq_temp150.000000003134//289dumped.pdb
./eq_temp150.000000003134//291dumped.pdb
./eq_temp150.000000003134//292dumped.pdb
./eq_temp150.000000003134//293dumped.pdb
./eq_temp150.000000003134//294dumped.pdb
./eq_temp150.000000003134//295dumped.pdb
./eq_temp150.000000003134//296dumped.pdb
./eq_temp150.000000003134//297dumped.pdb
./eq_temp150.000000003134//298dumped.pdb
./eq_temp150.000000003134//299dumped.pdb
./eq_temp150.000000003134//300dumped.pdb
./eq_temp150.000000003134//301dumped.pdb
./eq_temp150.000000003134//302dumped.pdb
./eq_temp150.000000003134//303dumped.pdb
./eq_temp150.000000003134//304dumped.pdb
./eq_temp150.000000003134//305dumped.pdb
./eq_temp150.000000003134//306dumped.pdb
./eq_temp150.000000003134//307dumped.pdb
./eq_temp150.000000003134//308dumped.pdb
./eq_temp150.000000003134//309dumped.pdb
./eq_temp150.000000003134//310dumped.pdb
./eq_temp150.000000003134//311dumped.pdb
./eq_temp150.000000003134//312dumped.pdb
./eq_temp150.000000003134//313dumped.pdb
./eq_temp150.000000003134//314dumped.pdb
./eq_temp150.000000003134//315dumped.pdb
./eq_temp150.000000003134//316dumped.pdb
./eq_temp150.000000003134//317dumped.pdb
./eq_temp150.000000003134//318dumped.pdb
./eq_temp150.000000003134//319dumped.pdb
./eq_temp150.000000003134//320dumped.pdb
./eq_temp150.000000003134//325dumped.pdb
./eq_temp150.000000003134//327dumped.pdb
./eq_temp150.000000003134//328dumped.pdb
./eq_temp150.000000003134//329dumped.pdb
./eq_temp150.00000000057//225dumped.pdb
./eq_temp150.00000000057//226dumped.pdb
./eq_temp150.00000000057//227dumped.pdb
./eq_temp150.00000000057//228dumped.pdb
./eq_temp150.00000000057//229dumped.pdb
./eq_temp150.00000000057//230dumped.pdb
./eq_temp150.00000000057//231dumped.pdb
./eq_temp150.00000000057//232dumped.pdb
./eq_temp150.00000000057//233dumped.pdb
./eq_temp150.00000000057//234dumped.pdb
./eq_temp150.00000000057//235dumped.pdb
./eq_temp150.00000000057//236dumped.pdb
./eq_temp150.00000000057//237dumped.pdb
./eq_temp150.00000000057//238dumped.pdb
./eq_temp150.00000000057//240dumped.pdb
./eq_temp150.00000000057//241dumped.pdb
./eq_temp150.00000000057//243dumped.pdb
./eq_temp150.00000000057//244dumped.pdb
./eq_temp150.00000000057//245dumped.pdb
./eq_temp150.00000000057//246dumped.pdb
./eq_temp150.00000000057//247dumped.pdb
./eq_temp150.00000000057//248dumped.pdb
./eq_temp150.00000000057//249dumped.pdb
./eq_temp150.00000000057//250dumped.pdb
./eq_temp150.00000000057//251dumped.pdb
./eq_temp150.00000000057//252dumped.pdb
./eq_temp150.00000000057//256dumped.pdb
./eq_temp150.00000000057//257dumped.pdb
./eq_temp150.00000000057//259dumped.pdb
./eq_temp150.00000000057//260dumped.pdb
./eq_temp150.00000000014//160dumped.pdb
./eq_temp150.00000000014//161dumped.pdb
./eq_temp150.00000000014//162dumped.pdb
./eq_temp150.00000000014//163dumped.pdb
./eq_temp150.00000000014//164dumped.pdb
./eq_temp150.00000000014//165dumped.pdb
./eq_temp150.00000000014//166dumped.pdb
./eq_temp150.00000000014//167dumped.pdb
./eq_temp150.00000000014//168dumped.pdb
./eq_temp150.00000000014//169dumped.pdb
./eq_temp150.00000000014//170dumped.pdb
./eq_temp150.00000000014//171dumped.pdb
./eq_temp150.00000000014//172dumped.pdb
./eq_temp150.00000000014//174dumped.pdb
./eq_temp150.00000000014//176dumped.pdb
./eq_temp150.00000000014//177dumped.pdb
./eq_temp150.00000000014//178dumped.pdb
./eq_temp150.00000000014//179dumped.pdb
./eq_temp150.00000000014//180dumped.pdb
./eq_temp150.00000000014//181dumped.pdb
./eq_temp150.000000004265//84dumped.pdb
./eq_temp150.000000004265//85dumped.pdb
./eq_temp150.000000004265//86dumped.pdb
./eq_temp150.000000004265//87dumped.pdb
./eq_temp150.000000004265//88dumped.pdb
./eq_temp150.000000004265//89dumped.pdb
./eq_temp150.000000004265//90dumped.pdb
./eq_temp150.000000004265//91dumped.pdb
./eq_temp150.000000004265//92dumped.pdb
./eq_temp150.000000004265//93dumped.pdb
./eq_temp150.000000004265//94dumped.pdb
./eq_temp150.000000004265//95dumped.pdb
./eq_temp150.000000004265//96dumped.pdb
./eq_temp150.000000004265//97dumped.pdb
./eq_temp150.000000004265//98dumped.pdb
./eq_temp150.000000004265//99dumped.pdb
./eq_temp150.000000004265//100dumped.pdb
./eq_temp150.000000004265//101dumped.pdb
./eq_temp150.000000004265//102dumped.pdb
./eq_temp150.000000004265//104dumped.pdb
./eq_temp150.000000004265//105dumped.pdb
./eq_temp150.000000004265//106dumped.pdb
./eq_temp150.000000004265//107dumped.pdb
./eq_temp150.000000004265//108dumped.pdb
./eq_temp150.000000004265//109dumped.pdb
./eq_temp150.000000004265//110dumped.pdb
./eq_temp150.000000004265//111dumped.pdb
./eq_temp150.000000004265//112dumped.pdb
./eq_temp150.000000004265//113dumped.pdb
./eq_temp150.000000004265//114dumped.pdb
./eq_temp150.000000004265//115dumped.pdb
./eq_temp150.000000004265//116dumped.pdb
./eq_temp150.000000004265//117dumped.pdb
./eq_temp150.000000004265//118dumped.pdb
./eq_temp150.000000004265//119dumped.pdb
./eq_temp150.000000004265//120dumped.pdb
./eq_temp150.000000004265//121dumped.pdb
./eq_temp150.000000004265//122dumped.pdb
./eq_temp150.000000004265//123dumped.pdb
./eq_temp150.000000001789//309dumped.pdb
./eq_temp150.000000001789//310dumped.pdb
./eq_temp150.000000001789//311dumped.pdb
./eq_temp150.000000001789//312dumped.pdb
./eq_temp150.000000001789//313dumped.pdb
./eq_temp150.000000001789//314dumped.pdb
./eq_temp150.000000001789//315dumped.pdb
./eq_temp150.000000001789//316dumped.pdb
./eq_temp150.000000001789//317dumped.pdb
./eq_temp150.000000001789//318dumped.pdb
./eq_temp150.000000001789//319dumped.pdb
./eq_temp150.000000001789//320dumped.pdb
./eq_temp150.000000001789//321dumped.pdb
./eq_temp150.000000001789//322dumped.pdb
./eq_temp150.000000001789//323dumped.pdb
./eq_temp150.000000001789//324dumped.pdb
./eq_temp150.000000001789//325dumped.pdb
./eq_temp150.000000001789//326dumped.pdb
./eq_temp150.000000001789//327dumped.pdb
./eq_temp150.000000001789//328dumped.pdb
./eq_temp150.000000001789//329dumped.pdb
./eq_temp150.000000001789//330dumped.pdb
./eq_temp150.000000001789//331dumped.pdb
./eq_temp150.000000001789//332dumped.pdb
./eq_temp150.000000001789//333dumped.pdb
./eq_temp150.000000001789//334dumped.pdb
./eq_temp150.000000001789//335dumped.pdb
./eq_temp150.000000001789//336dumped.pdb
./eq_temp150.000000001789//338dumped.pdb
./eq_temp150.000000001789//341dumped.pdb
./eq_temp150.000000001789//342dumped.pdb
./eq_temp150.000000001789//343dumped.pdb
./eq_temp150.000000001789//347dumped.pdb
./eq_temp150.000000001789//349dumped.pdb
./eq_temp150.000000001789//350dumped.pdb
./eq_temp150.000000001789//351dumped.pdb
./eq_temp150.000000001789//352dumped.pdb
./eq_temp150.000000001789//353dumped.pdb
./eq_temp150.000000001789//355dumped.pdb
./eq_temp150.000000001789//356dumped.pdb
./eq_temp150.000000001789//357dumped.pdb
./eq_temp150.000000001789//358dumped.pdb
./eq_temp150.000000001789//360dumped.pdb
./eq_temp150.000000001789//361dumped.pdb
./eq_temp150.000000001789//362dumped.pdb
./eq_temp150.000000102542//108dumped.pdb
./eq_temp150.000000102542//109dumped.pdb
./eq_temp150.000000102542//110dumped.pdb
./eq_temp150.000000102542//111dumped.pdb
./eq_temp150.000000102542//112dumped.pdb
./eq_temp150.000000102542//113dumped.pdb
./eq_temp150.000000102542//114dumped.pdb
./eq_temp150.000000102542//115dumped.pdb
./eq_temp150.000000102542//116dumped.pdb
./eq_temp150.000000102542//117dumped.pdb
./eq_temp150.000000102542//118dumped.pdb
./eq_temp150.000000102542//119dumped.pdb
./eq_temp150.000000102542//120dumped.pdb
./eq_temp150.000000102542//122dumped.pdb
./eq_temp150.000000102542//123dumped.pdb
./eq_temp150.000000102542//124dumped.pdb
./eq_temp150.000000102542//125dumped.pdb
./eq_temp150.000000102542//127dumped.pdb
./eq_temp150.000000102542//128dumped.pdb
./eq_temp150.000000102542//129dumped.pdb
./eq_temp150.000000102542//130dumped.pdb
./eq_temp150.000000102542//131dumped.pdb
./eq_temp150.000000102542//132dumped.pdb
./eq_temp150.000000102542//133dumped.pdb
./eq_temp150.000000102542//134dumped.pdb
./eq_temp150.000000102542//135dumped.pdb
./eq_temp150.000000102542//136dumped.pdb
./eq_temp150.000000102542//137dumped.pdb
./eq_temp150.000000102542//138dumped.pdb
./eq_temp150.000000102542//139dumped.pdb
./eq_temp150.000000102542//140dumped.pdb
./eq_temp150.000000102542//141dumped.pdb
./eq_temp150.000000102542//142dumped.pdb
./eq_temp150.000000102542//143dumped.pdb
./eq_temp150.000000102542//144dumped.pdb
./eq_temp150.000000102542//145dumped.pdb
./eq_temp150.000000102542//146dumped.pdb
./eq_temp150.000000102542//148dumped.pdb
./eq_temp150.000000102542//149dumped.pdb
./eq_temp150.000000102542//150dumped.pdb
./eq_temp150.000000102542//151dumped.pdb
./eq_temp150.000000102542//152dumped.pdb
./eq_temp150.000000102542//153dumped.pdb
./eq_temp150.000000102542//154dumped.pdb
./eq_temp150.000000102542//155dumped.pdb
./eq_temp150.000000102542//156dumped.pdb
./eq_temp150.000000102542//157dumped.pdb
./eq_temp150.000000102542//158dumped.pdb
./eq_temp150.000000102542//159dumped.pdb
./eq_temp150.000000102542//160dumped.pdb
./eq_temp150.000000102542//161dumped.pdb
./eq_temp150.000000102542//162dumped.pdb
./eq_temp150.000000102542//163dumped.pdb
./eq_temp150.000000102542//164dumped.pdb
./eq_temp150.000000102542//165dumped.pdb
./eq_temp150.000000102542//166dumped.pdb
./eq_temp150.000000102542//167dumped.pdb
./eq_temp150.000000102542//168dumped.pdb
./eq_temp150.000000102542//169dumped.pdb
./eq_temp150.000000102542//170dumped.pdb
./eq_temp150.000000102542//171dumped.pdb
./eq_temp150.000000102542//172dumped.pdb
./eq_temp150.000000102542//173dumped.pdb
./eq_temp150.000000102542//174dumped.pdb
./eq_temp150.000000102542//175dumped.pdb
./eq_temp150.000000102542//176dumped.pdb
./eq_temp150.000000102542//177dumped.pdb
./eq_temp150.000000102542//179dumped.pdb
./eq_temp150.000000102542//180dumped.pdb
./eq_temp150.000000102542//181dumped.pdb
./eq_temp150.000000102542//182dumped.pdb
./eq_temp150.000000102542//183dumped.pdb
./eq_temp150.000000102542//184dumped.pdb
./eq_temp150.000000102542//185dumped.pdb
./eq_temp150.000000102542//186dumped.pdb
./eq_temp150.000000102542//187dumped.pdb
./eq_temp150.000000102542//188dumped.pdb
./eq_temp150.000000102542//189dumped.pdb
./eq_temp150.000000102542//190dumped.pdb
./eq_temp150.000000102542//191dumped.pdb
./eq_temp150.000000102542//192dumped.pdb
./eq_temp150.000000102542//193dumped.pdb
./eq_temp150.000000102542//194dumped.pdb
./eq_temp150.000000102542//195dumped.pdb
./eq_temp150.000000102542//196dumped.pdb
./eq_temp150.000000102542//197dumped.pdb
./eq_temp150.000000102542//198dumped.pdb
./eq_temp150.000000102542//199dumped.pdb
./eq_temp150.000000102542//200dumped.pdb
./eq_temp150.00000000736//227dumped.pdb
./eq_temp150.00000000736//228dumped.pdb
./eq_temp150.00000000736//229dumped.pdb
./eq_temp150.00000000736//230dumped.pdb
./eq_temp150.00000000736//231dumped.pdb
./eq_temp150.00000000736//232dumped.pdb
./eq_temp150.00000000736//233dumped.pdb
./eq_temp150.00000000736//234dumped.pdb
./eq_temp150.00000000736//235dumped.pdb
./eq_temp150.00000000736//236dumped.pdb
./eq_temp150.00000000736//237dumped.pdb
./eq_temp150.00000000736//238dumped.pdb
./eq_temp150.00000000736//239dumped.pdb
./eq_temp150.00000000736//240dumped.pdb
./eq_temp150.00000000736//241dumped.pdb
./eq_temp150.00000000736//242dumped.pdb
./eq_temp150.00000000736//243dumped.pdb
./eq_temp150.00000000736//244dumped.pdb
./eq_temp150.00000000736//245dumped.pdb
./eq_temp150.00000000736//246dumped.pdb
./eq_temp150.00000000736//247dumped.pdb
./eq_temp150.00000000736//248dumped.pdb
./eq_temp150.00000000736//249dumped.pdb
./eq_temp150.00000000736//250dumped.pdb
./eq_temp150.00000000736//252dumped.pdb
./eq_temp150.00000000736//253dumped.pdb
./eq_temp150.00000000736//254dumped.pdb
./eq_temp150.00000000736//255dumped.pdb
./eq_temp150.00000000736//256dumped.pdb
./eq_temp150.00000000736//257dumped.pdb
./eq_temp150.00000000736//258dumped.pdb
./eq_temp150.00000000736//259dumped.pdb
./eq_temp150.00000000736//260dumped.pdb
./eq_temp150.00000000736//261dumped.pdb
./eq_temp150.00000000736//263dumped.pdb
./eq_temp150.00000000736//264dumped.pdb
./eq_temp150.00000000736//265dumped.pdb
./eq_temp150.00000000736//266dumped.pdb
./eq_temp150.00000000736//267dumped.pdb
./eq_temp150.00000000736//269dumped.pdb
./eq_temp150.00000000736//270dumped.pdb
./eq_temp150.00000000736//271dumped.pdb
./eq_temp150.00000000736//272dumped.pdb
./eq_temp150.00000000736//273dumped.pdb
./eq_temp150.00000000022//250dumped.pdb
./eq_temp150.00000000022//251dumped.pdb
./eq_temp150.00000000022//252dumped.pdb
./eq_temp150.00000000022//253dumped.pdb
./eq_temp150.00000000022//254dumped.pdb
./eq_temp150.00000000022//255dumped.pdb
./eq_temp150.00000000022//256dumped.pdb
./eq_temp150.00000000022//257dumped.pdb
./eq_temp150.00000000022//258dumped.pdb
./eq_temp150.00000000022//259dumped.pdb
./eq_temp150.00000000022//260dumped.pdb
./eq_temp150.00000000022//261dumped.pdb
./eq_temp150.00000000022//262dumped.pdb
./eq_temp150.00000000022//263dumped.pdb
./eq_temp150.00000000022//264dumped.pdb
./eq_temp150.00000000022//265dumped.pdb
./eq_temp150.00000000022//266dumped.pdb
./eq_temp150.00000000022//267dumped.pdb
./eq_temp150.00000000022//268dumped.pdb
./eq_temp150.00000000042//126dumped.pdb
./eq_temp150.00000000042//127dumped.pdb
./eq_temp150.00000000042//128dumped.pdb
./eq_temp150.00000000042//129dumped.pdb
./eq_temp150.00000000042//130dumped.pdb
./eq_temp150.00000000042//132dumped.pdb
./eq_temp150.00000000042//135dumped.pdb
./eq_temp150.00000000042//136dumped.pdb
./eq_temp150.00000000042//137dumped.pdb
./eq_temp150.00000000047//183dumped.pdb
./eq_temp150.00000000047//184dumped.pdb
./eq_temp150.00000000047//185dumped.pdb
./eq_temp150.00000000047//186dumped.pdb
./eq_temp150.00000000047//187dumped.pdb
./eq_temp150.00000000047//189dumped.pdb
./eq_temp150.00000000047//190dumped.pdb
./eq_temp150.00000000047//191dumped.pdb
./eq_temp150.00000000047//192dumped.pdb
./eq_temp150.00000000047//193dumped.pdb
./eq_temp150.00000000047//195dumped.pdb
./eq_temp150.00000000047//196dumped.pdb
./eq_temp150.00000000047//197dumped.pdb
./eq_temp150.00000000047//198dumped.pdb
./eq_temp150.00000000047//199dumped.pdb
./eq_temp150.00000000047//200dumped.pdb
./eq_temp150.00000000047//201dumped.pdb
./eq_temp150.00000000047//202dumped.pdb
./eq_temp150.00000000047//203dumped.pdb
./eq_temp150.00000000047//204dumped.pdb
./eq_temp150.00000000047//205dumped.pdb
./eq_temp150.00000000047//206dumped.pdb
./eq_temp150.00000000047//207dumped.pdb
./eq_temp150.00000000047//208dumped.pdb
./eq_temp150.00000000047//209dumped.pdb
./eq_temp150.00000000047//210dumped.pdb
./eq_temp150.00000000047//211dumped.pdb
./eq_temp150.00000000047//212dumped.pdb
./eq_temp150.00000000047//213dumped.pdb
./eq_temp150.00000000047//214dumped.pdb
./eq_temp150.00000000047//215dumped.pdb
./eq_temp150.00000000047//216dumped.pdb
./eq_temp150.00000000047//217dumped.pdb
./eq_temp150.00000000047//218dumped.pdb
./eq_temp150.00000000047//219dumped.pdb
./eq_temp150.00000000047//220dumped.pdb
./eq_temp150.00000000047//221dumped.pdb
./eq_temp150.00000000047//223dumped.pdb
./eq_temp150.00000000047//224dumped.pdb
./eq_temp150.00000000047//225dumped.pdb
./eq_temp150.00000000047//226dumped.pdb
./eq_temp150.00000000047//227dumped.pdb
./eq_temp150.00000000047//228dumped.pdb
./eq_temp150.00000000047//229dumped.pdb
./eq_temp150.00000000047//230dumped.pdb
./eq_temp150.00000000047//231dumped.pdb
./eq_temp150.00000000047//232dumped.pdb
./eq_temp150.00000000047//233dumped.pdb
./eq_temp150.00000000047//234dumped.pdb
./eq_temp150.00000000047//236dumped.pdb
./eq_temp150.00000000047//237dumped.pdb
./eq_temp150.00000000047//238dumped.pdb
./eq_temp150.00000000047//239dumped.pdb
./eq_temp150.00000000047//240dumped.pdb
./eq_temp150.00000000047//241dumped.pdb
./eq_temp150.00000000047//242dumped.pdb
./eq_temp150.00000000047//243dumped.pdb
./eq_temp150.000000007114//559dumped.pdb
./eq_temp150.000000007114//560dumped.pdb
./eq_temp150.000000007114//561dumped.pdb
./eq_temp150.000000007114//562dumped.pdb
./eq_temp150.000000007114//563dumped.pdb
./eq_temp150.000000007114//564dumped.pdb
./eq_temp150.000000007483//514dumped.pdb
./eq_temp150.000000007483//515dumped.pdb
./eq_temp150.000000007483//516dumped.pdb
./eq_temp150.000000007483//517dumped.pdb
./eq_temp150.000000007483//518dumped.pdb
./eq_temp150.000000007483//520dumped.pdb
./eq_temp150.000000007483//521dumped.pdb
./eq_temp150.000000007483//522dumped.pdb
./eq_temp150.000000007483//523dumped.pdb
./eq_temp150.000000007483//524dumped.pdb
./eq_temp150.000000007483//525dumped.pdb
./eq_temp150.000000007483//526dumped.pdb
./eq_temp150.000000007483//527dumped.pdb
./eq_temp150.000000007483//528dumped.pdb
./eq_temp150.000000007483//529dumped.pdb
./eq_temp150.000000007483//530dumped.pdb
./eq_temp150.000000007483//531dumped.pdb
./eq_temp150.000000007483//532dumped.pdb
./eq_temp150.000000007483//533dumped.pdb
./eq_temp150.000000007483//534dumped.pdb
./eq_temp150.000000007483//535dumped.pdb
./eq_temp150.000000007483//536dumped.pdb
./eq_temp150.000000007483//537dumped.pdb
./eq_temp150.000000007483//538dumped.pdb
./eq_temp150.000000004531//729dumped.pdb
./eq_temp150.000000004531//732dumped.pdb
./eq_temp150.000000004531//735dumped.pdb
./eq_temp150.000000004531//738dumped.pdb
./eq_temp150.000000004531//740dumped.pdb
./eq_temp150.000000004531//741dumped.pdb
./eq_temp150.000000004531//742dumped.pdb
./eq_temp150.000000004531//743dumped.pdb
./eq_temp150.000000004531//744dumped.pdb
./eq_temp150.000000004531//746dumped.pdb
./eq_temp150.000000004531//747dumped.pdb
./eq_temp150.000000004531//750dumped.pdb
./eq_temp150.000000004531//751dumped.pdb
./eq_temp150.000000004531//755dumped.pdb
./eq_temp150.000000004531//756dumped.pdb
./eq_temp150.000000004531//757dumped.pdb
./eq_temp150.000000004531//759dumped.pdb
./eq_temp150.000000004531//760dumped.pdb
./eq_temp150.000000004531//761dumped.pdb
./eq_temp150.000000004531//763dumped.pdb
./eq_temp150.000000004531//764dumped.pdb
./eq_temp150.000000004531//769dumped.pdb
./eq_temp150.000000004531//770dumped.pdb
./eq_temp150.000000004531//772dumped.pdb
./eq_temp150.000000004531//773dumped.pdb
./eq_temp150.000000004531//774dumped.pdb
./eq_temp150.000000004531//775dumped.pdb
./eq_temp150.000000004531//778dumped.pdb
./eq_temp150.000000004531//779dumped.pdb
./eq_temp150.000000004531//780dumped.pdb
./eq_temp150.000000004531//781dumped.pdb
./eq_temp150.000000004531//782dumped.pdb
./eq_temp150.000000004531//785dumped.pdb
./eq_temp150.000000004531//792dumped.pdb
./eq_temp150.000000004531//795dumped.pdb
./eq_temp150.000000004531//797dumped.pdb
./eq_temp150.000000004531//798dumped.pdb
./eq_temp150.000000004531//800dumped.pdb
./eq_temp150.000000004531//802dumped.pdb
./eq_temp150.000000004531//805dumped.pdb
./eq_temp150.000000004531//808dumped.pdb
./eq_temp150.000000004531//816dumped.pdb
./eq_temp150.000000004531//818dumped.pdb
./eq_temp150.000000004531//820dumped.pdb
./eq_temp150.000000004531//822dumped.pdb
./eq_temp150.000000004531//829dumped.pdb
./eq_temp150.000000004531//830dumped.pdb
./eq_temp150.000000004531//832dumped.pdb
./eq_temp150.000000004531//834dumped.pdb
./eq_temp150.000000004531//835dumped.pdb
./eq_temp150.000000002809//157dumped.pdb
./eq_temp150.000000002809//158dumped.pdb
./eq_temp150.000000002809//160dumped.pdb
./eq_temp150.000000002809//161dumped.pdb
./eq_temp150.000000002809//162dumped.pdb
./eq_temp150.000000002809//163dumped.pdb
./eq_temp150.000000002809//164dumped.pdb
./eq_temp150.000000002809//165dumped.pdb
./eq_temp150.000000002809//167dumped.pdb
./eq_temp150.000000002809//168dumped.pdb
./eq_temp150.000000002809//169dumped.pdb
./eq_temp150.000000002809//171dumped.pdb
./eq_temp150.000000002809//172dumped.pdb
./eq_temp150.000000002809//173dumped.pdb
./eq_temp150.000000005907//118dumped.pdb
./eq_temp150.000000005907//119dumped.pdb
./eq_temp150.000000005907//120dumped.pdb
./eq_temp150.000000005907//121dumped.pdb
./eq_temp150.000000005907//122dumped.pdb
./eq_temp150.000000005907//123dumped.pdb
./eq_temp150.000000005907//124dumped.pdb
./eq_temp150.000000005907//127dumped.pdb
./eq_temp150.000000005907//130dumped.pdb
./eq_temp150.000000005907//131dumped.pdb
./eq_temp150.000000005907//132dumped.pdb
./eq_temp150.000000005907//133dumped.pdb
./eq_temp150.000000005907//134dumped.pdb
./eq_temp150.000000005907//135dumped.pdb
./eq_temp150.000000005907//136dumped.pdb
./eq_temp150.000000005907//137dumped.pdb
./eq_temp150.00000000244//43dumped.pdb
./eq_temp150.00000000244//44dumped.pdb
./eq_temp150.00000000244//45dumped.pdb
./eq_temp150.00000000244//46dumped.pdb
./eq_temp150.00000000244//47dumped.pdb
./eq_temp150.00000000244//48dumped.pdb
./eq_temp150.00000000244//49dumped.pdb
./eq_temp150.00000000244//50dumped.pdb
./eq_temp150.00000000244//51dumped.pdb
./eq_temp150.00000000244//52dumped.pdb
./eq_temp150.00000000244//53dumped.pdb
./eq_temp150.00000000244//54dumped.pdb
./eq_temp150.00000000244//55dumped.pdb
./eq_temp150.00000000244//56dumped.pdb
./eq_temp150.00000000244//57dumped.pdb
./eq_temp150.00000000244//58dumped.pdb
./eq_temp150.00000000244//59dumped.pdb
./eq_temp150.00000000244//60dumped.pdb
./eq_temp150.00000000244//61dumped.pdb
./eq_temp150.00000000244//62dumped.pdb
./eq_temp150.00000000244//63dumped.pdb
./eq_temp150.00000000244//64dumped.pdb
./eq_temp150.00000000244//65dumped.pdb
./eq_temp150.00000000244//66dumped.pdb
./eq_temp150.00000000244//67dumped.pdb
./eq_temp150.00000000244//68dumped.pdb
./eq_temp150.00000000244//69dumped.pdb
./eq_temp150.00000000244//70dumped.pdb
./eq_temp150.00000000244//71dumped.pdb
./eq_temp150.00000000244//72dumped.pdb
./eq_temp150.00000000244//73dumped.pdb
./eq_temp150.00000000244//74dumped.pdb
./eq_temp150.00000000244//75dumped.pdb
./eq_temp150.00000000244//76dumped.pdb
./eq_temp150.00000000244//77dumped.pdb
./eq_temp150.00000000244//78dumped.pdb
./eq_temp150.00000000244//79dumped.pdb
./eq_temp150.00000000244//81dumped.pdb
./eq_temp150.00000000244//82dumped.pdb
./eq_temp150.00000000244//83dumped.pdb
./eq_temp150.00000000244//84dumped.pdb
./eq_temp150.00000000244//85dumped.pdb
./eq_temp150.00000000244//86dumped.pdb
./eq_temp150.00000000244//87dumped.pdb
./eq_temp150.00000000244//88dumped.pdb
./eq_temp150.00000000244//89dumped.pdb
./eq_temp150.00000000244//90dumped.pdb
./eq_temp150.00000000244//91dumped.pdb
./eq_temp150.00000000244//92dumped.pdb
./eq_temp150.00000000244//93dumped.pdb
./eq_temp150.00000000244//94dumped.pdb
./eq_temp150.00000000244//95dumped.pdb
./eq_temp150.00000000244//96dumped.pdb
./eq_temp150.00000000244//97dumped.pdb
./eq_temp150.00000000244//98dumped.pdb
./eq_temp150.00000000244//99dumped.pdb
./eq_temp150.00000000244//100dumped.pdb
./eq_temp150.00000000244//102dumped.pdb
./eq_temp150.00000000244//105dumped.pdb
./eq_temp150.00000000244//106dumped.pdb
./eq_temp150.00000000244//108dumped.pdb
./eq_temp150.00000000244//109dumped.pdb
./eq_temp150.00000000244//110dumped.pdb
./eq_temp150.000000001011//360dumped.pdb
./eq_temp150.000000001011//361dumped.pdb
./eq_temp150.000000001011//362dumped.pdb
./eq_temp150.000000100643//154dumped.pdb
./eq_temp150.000000100643//155dumped.pdb
./eq_temp150.000000100643//156dumped.pdb
./eq_temp150.000000100643//158dumped.pdb
./eq_temp150.0000000313//101dumped.pdb
./eq_temp150.0000000313//102dumped.pdb
./eq_temp150.0000000313//103dumped.pdb
./eq_temp150.0000000313//104dumped.pdb
./eq_temp150.0000000313//105dumped.pdb
./eq_temp150.0000000313//106dumped.pdb
./eq_temp150.0000000313//107dumped.pdb
./eq_temp150.0000000313//109dumped.pdb
./eq_temp150.0000000313//110dumped.pdb
./eq_temp150.0000000313//111dumped.pdb
./eq_temp150.0000000313//112dumped.pdb
./eq_temp150.0000000313//113dumped.pdb
./eq_temp150.0000000313//114dumped.pdb
./eq_temp150.0000000313//115dumped.pdb
./eq_temp150.0000000313//116dumped.pdb
./eq_temp150.0000000313//117dumped.pdb
./eq_temp150.0000000313//118dumped.pdb
./eq_temp150.0000000313//120dumped.pdb
./eq_temp150.0000000313//121dumped.pdb
./eq_temp150.0000000313//122dumped.pdb
./eq_temp150.0000000313//123dumped.pdb
./eq_temp150.0000000313//124dumped.pdb
./eq_temp150.0000000313//125dumped.pdb
./eq_temp150.0000000313//126dumped.pdb
./eq_temp150.0000000313//127dumped.pdb
./eq_temp150.0000000313//128dumped.pdb
./eq_temp150.0000000313//129dumped.pdb
./eq_temp150.0000000313//130dumped.pdb
./eq_temp150.0000000313//131dumped.pdb
./eq_temp150.0000000313//132dumped.pdb
./eq_temp150.0000000313//133dumped.pdb
./eq_temp150.0000000313//134dumped.pdb
./eq_temp150.0000000313//135dumped.pdb
./eq_temp150.0000000313//136dumped.pdb
./eq_temp150.0000000313//137dumped.pdb
./eq_temp150.0000000313//138dumped.pdb
./eq_temp150.0000000313//139dumped.pdb
./eq_temp150.0000000313//140dumped.pdb
./eq_temp150.0000000313//141dumped.pdb
./eq_temp150.0000000313//142dumped.pdb
./eq_temp150.0000000313//143dumped.pdb
./eq_temp150.0000000313//144dumped.pdb
./eq_temp150.0000000313//146dumped.pdb
./eq_temp150.0000000313//147dumped.pdb
./eq_temp150.0000000313//148dumped.pdb
./eq_temp150.0000000313//149dumped.pdb
./eq_temp150.0000000313//150dumped.pdb
./eq_temp150.0000000313//151dumped.pdb
./eq_temp150.0000000313//153dumped.pdb
./eq_temp150.0000000313//154dumped.pdb
./eq_temp150.00000000367//89dumped.pdb
./eq_temp150.00000000367//92dumped.pdb
./eq_temp150.00000000367//93dumped.pdb
./eq_temp150.00000000021//234dumped.pdb
./eq_temp150.000000021604//432dumped.pdb
./eq_temp150.000000021604//433dumped.pdb
./eq_temp150.000000021604//435dumped.pdb
./eq_temp150.000000021604//436dumped.pdb
./eq_temp150.000000021604//437dumped.pdb
./eq_temp150.000000021604//438dumped.pdb
./eq_temp150.000000021604//439dumped.pdb
./eq_temp150.000000021604//440dumped.pdb
./eq_temp150.000000021604//441dumped.pdb
./eq_temp150.000000021604//442dumped.pdb
./eq_temp150.000000021604//445dumped.pdb
./eq_temp150.000000021604//446dumped.pdb
./eq_temp150.000000021604//448dumped.pdb
./eq_temp150.000000021604//449dumped.pdb
./eq_temp150.000000021604//451dumped.pdb
./eq_temp150.000000021604//452dumped.pdb
./eq_temp150.000000021604//453dumped.pdb
./eq_temp150.000000021604//454dumped.pdb
./eq_temp150.000000021604//455dumped.pdb
./eq_temp150.00000010634//523dumped.pdb
./eq_temp150.00000010634//524dumped.pdb
./eq_temp150.00000010634//525dumped.pdb
./eq_temp150.00000010634//526dumped.pdb
./eq_temp150.00000010634//527dumped.pdb
./eq_temp150.00000010634//528dumped.pdb
./eq_temp150.00000010634//529dumped.pdb
./eq_temp150.00000010634//530dumped.pdb
./eq_temp150.00000010634//531dumped.pdb
./eq_temp150.00000010634//532dumped.pdb
./eq_temp150.00000010634//533dumped.pdb
./eq_temp150.00000010634//534dumped.pdb
./eq_temp150.00000010634//535dumped.pdb
./eq_temp150.00000010634//536dumped.pdb
./eq_temp150.00000010634//537dumped.pdb
./eq_temp150.00000010634//538dumped.pdb
./eq_temp150.00000010634//539dumped.pdb
./eq_temp150.00000010634//540dumped.pdb
./eq_temp150.00000010634//541dumped.pdb
./eq_temp150.00000010634//542dumped.pdb
./eq_temp150.00000010634//543dumped.pdb
./eq_temp150.00000010634//544dumped.pdb
./eq_temp150.00000000026//120dumped.pdb
./eq_temp150.00000000026//121dumped.pdb
./eq_temp150.00000000026//122dumped.pdb
./eq_temp150.00000000026//123dumped.pdb
./eq_temp150.00000000026//124dumped.pdb
./eq_temp150.00000000026//125dumped.pdb
./eq_temp150.00000000026//126dumped.pdb
./eq_temp150.00000000026//127dumped.pdb
./eq_temp150.00000000026//128dumped.pdb
./eq_temp150.00000000026//129dumped.pdb
./eq_temp150.00000000026//130dumped.pdb
./eq_temp150.00000000026//131dumped.pdb
./eq_temp150.00000000026//132dumped.pdb
./eq_temp150.00000000026//133dumped.pdb
./eq_temp150.00000000026//136dumped.pdb
./eq_temp150.00000000026//137dumped.pdb
./eq_temp150.00000000026//138dumped.pdb
./eq_temp150.00000000026//139dumped.pdb
./eq_temp150.00000000026//140dumped.pdb
./eq_temp150.00000000026//142dumped.pdb
./eq_temp150.00000000026//144dumped.pdb
./eq_temp150.00000000026//145dumped.pdb
./eq_temp150.00000000026//146dumped.pdb
./eq_temp150.00000000026//147dumped.pdb
./eq_temp150.00000000026//148dumped.pdb
./eq_temp150.000000001503//185dumped.pdb
./eq_temp150.000000001503//186dumped.pdb
./eq_temp150.000000001503//187dumped.pdb
./eq_temp150.000000001503//188dumped.pdb
./eq_temp150.000000001503//189dumped.pdb
./eq_temp150.000000001503//190dumped.pdb
./eq_temp150.000000001503//191dumped.pdb
./eq_temp150.000000001503//192dumped.pdb
./eq_temp150.000000001503//194dumped.pdb
./eq_temp150.000000001503//197dumped.pdb
./test/eq_temp150.00000000021//234dumped.pdb
./eq_temp150.000000004305//182dumped.pdb
./eq_temp150.000000004305//183dumped.pdb
./eq_temp150.000000004305//184dumped.pdb
./eq_temp150.000000004305//185dumped.pdb
./eq_temp150.000000004305//186dumped.pdb
./eq_temp150.000000004305//187dumped.pdb
./eq_temp150.000000004305//188dumped.pdb
./eq_temp150.000000004305//189dumped.pdb
./eq_temp150.000000004305//190dumped.pdb
./eq_temp150.000000004305//191dumped.pdb
./eq_temp150.000000004305//192dumped.pdb
./eq_temp150.000000004305//194dumped.pdb
./eq_temp150.000000004305//195dumped.pdb
./eq_temp150.000000004305//196dumped.pdb
./eq_temp150.000000004305//198dumped.pdb
./eq_temp150.000000004305//199dumped.pdb
./eq_temp150.000000004305//200dumped.pdb
./eq_temp150.000000004305//201dumped.pdb
./eq_temp150.000000004305//202dumped.pdb
./eq_temp150.000000004305//203dumped.pdb
./eq_temp150.000000004305//204dumped.pdb
./eq_temp150.000000004305//205dumped.pdb
./eq_temp150.000000004305//206dumped.pdb
./eq_temp150.000000004305//208dumped.pdb
./eq_temp150.000000004305//210dumped.pdb
./eq_temp150.000000004305//213dumped.pdb
./eq_temp150.000000004305//214dumped.pdb
./eq_temp150.000000003424//135dumped.pdb
./eq_temp150.000000003424//136dumped.pdb
./eq_temp150.000000003424//138dumped.pdb
./eq_temp150.000000003424//139dumped.pdb
./eq_temp150.000000003424//140dumped.pdb
./eq_temp150.000000003424//141dumped.pdb
./eq_temp150.000000003424//143dumped.pdb
./eq_temp150.000000003424//144dumped.pdb
./eq_temp150.000000003424//145dumped.pdb
./eq_temp150.000000003424//146dumped.pdb
./eq_temp150.000000003424//147dumped.pdb
./eq_temp150.000000003424//148dumped.pdb
./eq_temp150.000000003424//149dumped.pdb
./eq_temp150.000000003424//150dumped.pdb
./eq_temp150.000000003424//151dumped.pdb
./eq_temp150.000000003424//152dumped.pdb
./eq_temp150.000000003424//153dumped.pdb
./eq_temp150.000000003424//154dumped.pdb
./eq_temp150.000000003424//155dumped.pdb
./eq_temp150.000000003424//157dumped.pdb
./eq_temp150.000000003424//158dumped.pdb
./eq_temp150.000000003424//159dumped.pdb
./eq_temp150.000000003424//160dumped.pdb
./eq_temp150.000000003424//161dumped.pdb
./eq_temp150.000000003424//162dumped.pdb
./eq_temp150.000000003424//163dumped.pdb
./eq_temp150.000000003424//164dumped.pdb
./eq_temp150.000000003424//165dumped.pdb
./eq_temp150.000000003424//166dumped.pdb
./eq_temp150.000000003424//167dumped.pdb
./eq_temp150.000000003424//168dumped.pdb
./eq_temp150.000000003424//169dumped.pdb
./eq_temp150.000000003424//170dumped.pdb
./eq_temp150.000000003424//171dumped.pdb
./eq_temp150.000000003424//172dumped.pdb
./eq_temp150.000000003424//173dumped.pdb
./eq_temp150.000000003424//174dumped.pdb
./eq_temp150.000000003424//175dumped.pdb
./eq_temp150.000000003424//176dumped.pdb
./eq_temp150.000000003424//177dumped.pdb
./eq_temp150.000000003424//178dumped.pdb
./eq_temp150.000000003424//179dumped.pdb
./eq_temp150.000000003424//180dumped.pdb
./eq_temp150.000000003424//181dumped.pdb
./eq_temp150.000000003424//182dumped.pdb
./eq_temp150.000000003424//183dumped.pdb
./eq_temp150.000000003424//184dumped.pdb
./eq_temp150.000000003424//185dumped.pdb
./eq_temp150.000000003424//186dumped.pdb
./eq_temp150.000000003424//187dumped.pdb
./eq_temp150.000000003424//188dumped.pdb
./eq_temp150.000000003424//189dumped.pdb
./eq_temp150.000000003424//190dumped.pdb
./eq_temp150.000000003424//191dumped.pdb
./eq_temp150.000000003424//192dumped.pdb
./eq_temp150.000000003424//193dumped.pdb
./eq_temp150.000000003424//194dumped.pdb
./eq_temp150.000000003424//195dumped.pdb
./eq_temp150.000000003424//196dumped.pdb
./eq_temp150.000000003424//197dumped.pdb
./eq_temp150.000000003424//198dumped.pdb
./eq_temp150.000000003424//199dumped.pdb
./eq_temp150.000000003424//200dumped.pdb
./eq_temp150.000000003424//201dumped.pdb
./eq_temp150.000000003424//202dumped.pdb
./eq_temp150.000000003424//203dumped.pdb
./eq_temp150.000000003424//204dumped.pdb
./eq_temp150.000000003424//205dumped.pdb
./eq_temp150.000000003424//206dumped.pdb
./eq_temp150.000000003424//207dumped.pdb
./eq_temp150.000000003424//208dumped.pdb
./eq_temp150.000000003424//209dumped.pdb
./eq_temp150.000000003424//210dumped.pdb
./eq_temp150.000000003424//211dumped.pdb
./eq_temp150.000000003424//212dumped.pdb
./eq_temp150.000000003424//213dumped.pdb
./eq_temp150.000000003424//214dumped.pdb
./eq_temp150.000000003424//215dumped.pdb
./eq_temp150.000000003424//216dumped.pdb
./eq_temp150.000000003424//217dumped.pdb
./eq_temp150.000000003424//218dumped.pdb
./eq_temp150.000000003424//219dumped.pdb
./eq_temp150.000000003424//220dumped.pdb
./eq_temp150.000000003424//221dumped.pdb
./eq_temp150.000000003424//222dumped.pdb
./eq_temp150.000000003424//224dumped.pdb
./eq_temp150.000000003424//225dumped.pdb
./eq_temp150.000000003424//226dumped.pdb
./eq_temp150.000000003424//227dumped.pdb
./eq_temp150.000000003424//228dumped.pdb
./eq_temp150.000000003424//229dumped.pdb
./eq_temp150.000000003424//230dumped.pdb
./eq_temp150.000000003424//231dumped.pdb
./eq_temp150.000000003424//232dumped.pdb
./eq_temp150.000000003424//233dumped.pdb
./eq_temp150.000000003424//234dumped.pdb
./eq_temp150.000000003424//235dumped.pdb
./eq_temp150.000000003424//236dumped.pdb
./eq_temp150.000000003424//238dumped.pdb
./eq_temp150.000000003424//239dumped.pdb
./eq_temp150.000000003424//240dumped.pdb
./eq_temp150.000000003424//241dumped.pdb
./eq_temp150.000000003424//242dumped.pdb
./eq_temp150.000000003424//243dumped.pdb
./eq_temp150.000000003424//244dumped.pdb
./eq_temp150.000000003424//245dumped.pdb
./eq_temp150.000000003424//246dumped.pdb
./eq_temp150.000000003424//247dumped.pdb
./eq_temp150.000000003424//248dumped.pdb
./eq_temp150.000000003424//249dumped.pdb
./eq_temp150.000000003424//250dumped.pdb
./eq_temp150.000000003424//251dumped.pdb
./eq_temp150.000000003424//252dumped.pdb
./eq_temp150.000000003424//253dumped.pdb
./eq_temp150.000000003424//254dumped.pdb
./eq_temp150.000000003424//255dumped.pdb
./eq_temp150.000000003424//256dumped.pdb
./eq_temp150.000000003424//257dumped.pdb
./eq_temp150.000000003424//258dumped.pdb
./eq_temp150.000000003424//259dumped.pdb
./eq_temp150.000000003424//260dumped.pdb
./eq_temp150.000000003424//261dumped.pdb
./eq_temp150.000000003424//262dumped.pdb
./eq_temp150.000000003424//263dumped.pdb
./eq_temp150.000000003424//264dumped.pdb
./eq_temp150.000000003424//265dumped.pdb
./eq_temp150.000000003424//266dumped.pdb
./eq_temp150.000000003424//267dumped.pdb
./eq_temp150.000000003424//268dumped.pdb
./eq_temp150.000000003424//269dumped.pdb
./eq_temp150.000000003424//270dumped.pdb
./eq_temp150.000000003424//271dumped.pdb
./eq_temp150.000000003424//272dumped.pdb
./eq_temp150.000000003424//273dumped.pdb
./eq_temp150.000000003424//274dumped.pdb
./eq_temp150.000000003424//275dumped.pdb
./eq_temp150.000000003424//276dumped.pdb
./eq_temp150.000000003424//277dumped.pdb
./eq_temp150.000000003424//278dumped.pdb
./eq_temp150.000000003424//279dumped.pdb
./eq_temp150.000000003424//281dumped.pdb
./eq_temp150.000000003424//282dumped.pdb
./eq_temp150.000000003424//283dumped.pdb
./eq_temp150.000000003424//284dumped.pdb
./eq_temp150.000000003424//285dumped.pdb
./eq_temp150.000000003424//287dumped.pdb
./eq_temp150.000000003424//288dumped.pdb
./eq_temp150.000000003424//289dumped.pdb
./eq_temp150.000000003424//290dumped.pdb
./eq_temp150.000000003424//291dumped.pdb
./eq_temp150.000000003424//292dumped.pdb
./eq_temp150.000000003424//293dumped.pdb
./eq_temp150.000000003424//294dumped.pdb
./eq_temp150.000000003424//295dumped.pdb
./eq_temp150.000000003424//296dumped.pdb
./eq_temp150.000000003424//297dumped.pdb
./eq_temp150.000000003424//298dumped.pdb
./eq_temp150.000000003424//299dumped.pdb
./eq_temp150.000000003424//300dumped.pdb
./eq_temp150.000000003424//301dumped.pdb
./eq_temp150.000000003424//302dumped.pdb
./eq_temp150.000000003424//303dumped.pdb
./eq_temp150.000000003424//304dumped.pdb
./eq_temp150.000000003424//305dumped.pdb
./eq_temp150.000000003424//306dumped.pdb
./eq_temp150.000000003424//308dumped.pdb
./eq_temp150.000000003424//309dumped.pdb
./eq_temp150.000000003424//310dumped.pdb
./eq_temp150.000000003424//311dumped.pdb
