./eq_temp150.000000101276//104dumped.pdb
./eq_temp150.000000101276//106dumped.pdb
./eq_temp150.000000002143//717dumped.pdb
./eq_temp150.000000002143//719dumped.pdb
./eq_temp150.000000002143//722dumped.pdb
./eq_temp150.000000002143//724dumped.pdb
./eq_temp150.000000002143//725dumped.pdb
./eq_temp150.000000003104//398dumped.pdb
./eq_temp150.000000000401//98dumped.pdb
./eq_temp150.000000000401//99dumped.pdb
./eq_temp150.000000000401//101dumped.pdb
./eq_temp150.000000000401//103dumped.pdb
./eq_temp150.000000000401//104dumped.pdb
./eq_temp150.000000000401//105dumped.pdb
./eq_temp150.00000000076//39dumped.pdb
./eq_temp150.00000000285//156dumped.pdb
./eq_temp150.00000000285//157dumped.pdb
