./eq_temp150.000000000282//160dumped.pdb
./eq_temp150.000000000282//161dumped.pdb
./eq_temp150.000000000282//162dumped.pdb
./eq_temp150.000000000282//163dumped.pdb
./eq_temp150.000000000282//164dumped.pdb
./eq_temp150.000000000282//165dumped.pdb
./eq_temp150.000000000282//166dumped.pdb
./eq_temp150.000000000282//167dumped.pdb
./eq_temp150.000000000282//168dumped.pdb
./eq_temp150.000000000282//170dumped.pdb
./eq_temp150.000000000282//171dumped.pdb
./eq_temp150.000000000282//172dumped.pdb
./eq_temp150.000000000282//173dumped.pdb
./eq_temp150.000000000282//174dumped.pdb
./eq_temp150.000000000282//175dumped.pdb
./eq_temp150.000000000282//176dumped.pdb
./eq_temp150.000000000282//177dumped.pdb
./eq_temp150.000000000282//178dumped.pdb
./eq_temp150.000000000282//179dumped.pdb
./eq_temp150.000000000282//180dumped.pdb
./eq_temp150.000000000282//181dumped.pdb
./eq_temp150.000000000282//182dumped.pdb
./eq_temp150.000000000282//183dumped.pdb
./eq_temp150.000000000282//184dumped.pdb
./eq_temp150.000000000282//185dumped.pdb
./eq_temp150.000000000282//186dumped.pdb
./eq_temp150.000000000282//187dumped.pdb
./eq_temp150.000000000282//188dumped.pdb
./eq_temp150.000000000282//189dumped.pdb
./eq_temp150.000000000282//190dumped.pdb
./eq_temp150.000000000282//191dumped.pdb
./eq_temp150.000000000282//192dumped.pdb
./eq_temp150.000000000282//193dumped.pdb
./eq_temp150.000000000282//194dumped.pdb
./eq_temp150.000000000282//195dumped.pdb
./eq_temp150.000000000282//196dumped.pdb
./eq_temp150.000000000282//197dumped.pdb
./eq_temp150.000000000282//198dumped.pdb
./eq_temp150.000000000282//199dumped.pdb
./eq_temp150.000000000282//200dumped.pdb
./eq_temp150.000000000282//201dumped.pdb
./eq_temp150.000000000282//202dumped.pdb
./eq_temp150.000000000282//203dumped.pdb
./eq_temp150.000000000282//204dumped.pdb
./eq_temp150.000000000282//205dumped.pdb
./eq_temp150.000000000282//206dumped.pdb
./eq_temp150.000000000282//207dumped.pdb
./eq_temp150.000000000282//208dumped.pdb
./eq_temp150.000000000282//210dumped.pdb
./eq_temp150.000000000282//211dumped.pdb
./eq_temp150.000000000282//212dumped.pdb
./eq_temp150.000000000282//213dumped.pdb
./eq_temp150.000000000282//214dumped.pdb
./eq_temp150.000000000282//215dumped.pdb
./eq_temp150.000000000282//216dumped.pdb
./eq_temp150.000000000282//217dumped.pdb
./eq_temp150.000000000282//218dumped.pdb
./eq_temp150.000000000282//219dumped.pdb
./eq_temp150.000000000282//220dumped.pdb
./eq_temp150.000000000282//221dumped.pdb
./eq_temp150.000000000282//222dumped.pdb
./eq_temp150.000000000282//223dumped.pdb
./eq_temp150.000000000282//224dumped.pdb
./eq_temp150.000000000282//225dumped.pdb
./eq_temp150.000000000282//226dumped.pdb
./eq_temp150.000000000282//227dumped.pdb
./eq_temp150.000000000282//228dumped.pdb
./eq_temp150.000000000282//229dumped.pdb
./eq_temp150.000000000282//230dumped.pdb
./eq_temp150.000000000282//231dumped.pdb
./eq_temp150.000000000282//232dumped.pdb
./eq_temp150.000000000282//233dumped.pdb
./eq_temp150.000000000282//234dumped.pdb
./eq_temp150.000000000282//235dumped.pdb
./eq_temp150.000000000282//236dumped.pdb
./eq_temp150.000000000282//237dumped.pdb
./eq_temp150.000000000282//238dumped.pdb
./eq_temp150.000000000282//239dumped.pdb
./eq_temp150.000000000282//240dumped.pdb
./eq_temp150.000000000282//241dumped.pdb
./eq_temp150.000000000282//242dumped.pdb
./eq_temp150.000000000282//243dumped.pdb
./eq_temp150.000000000282//244dumped.pdb
./eq_temp150.000000000282//245dumped.pdb
./eq_temp150.000000000282//246dumped.pdb
./eq_temp150.000000000282//247dumped.pdb
./eq_temp150.000000000282//248dumped.pdb
./eq_temp150.000000000282//249dumped.pdb
./eq_temp150.000000000282//250dumped.pdb
./eq_temp150.000000000282//251dumped.pdb
./eq_temp150.000000000282//253dumped.pdb
./eq_temp150.000000000282//254dumped.pdb
./eq_temp150.000000000282//255dumped.pdb
./eq_temp150.000000000282//256dumped.pdb
./eq_temp150.000000000282//257dumped.pdb
./eq_temp150.000000000282//258dumped.pdb
./eq_temp150.000000000282//259dumped.pdb
./eq_temp150.000000000282//260dumped.pdb
./eq_temp150.000000000282//261dumped.pdb
./eq_temp150.000000000282//262dumped.pdb
./eq_temp150.000000000282//263dumped.pdb
./eq_temp150.000000000282//264dumped.pdb
./eq_temp150.000000000282//265dumped.pdb
./eq_temp150.000000000282//266dumped.pdb
./eq_temp150.000000000282//267dumped.pdb
./eq_temp150.000000000282//268dumped.pdb
./eq_temp150.000000000282//269dumped.pdb
./eq_temp150.000000000282//270dumped.pdb
./eq_temp150.000000000282//271dumped.pdb
./eq_temp150.000000000282//272dumped.pdb
./eq_temp150.000000000282//273dumped.pdb
./eq_temp150.000000000282//274dumped.pdb
./eq_temp150.000000002704//82dumped.pdb
./eq_temp150.000000002704//83dumped.pdb
./eq_temp150.000000002704//84dumped.pdb
./eq_temp150.000000002704//85dumped.pdb
./eq_temp150.000000002704//86dumped.pdb
./eq_temp150.000000002704//87dumped.pdb
./eq_temp150.000000002704//88dumped.pdb
./eq_temp150.000000002704//89dumped.pdb
./eq_temp150.000000002704//90dumped.pdb
./eq_temp150.000000002704//91dumped.pdb
./eq_temp150.000000002704//92dumped.pdb
./eq_temp150.000000002704//93dumped.pdb
./eq_temp150.000000002704//95dumped.pdb
./eq_temp150.000000002704//97dumped.pdb
./eq_temp150.000000002704//98dumped.pdb
./eq_temp150.000000002704//99dumped.pdb
./eq_temp150.000000002704//100dumped.pdb
./eq_temp150.000000002704//101dumped.pdb
./eq_temp150.000000002704//102dumped.pdb
./eq_temp150.000000002704//103dumped.pdb
./eq_temp150.000000002704//104dumped.pdb
./eq_temp150.000000002704//105dumped.pdb
./eq_temp150.000000002704//106dumped.pdb
./eq_temp150.000000002704//107dumped.pdb
./eq_temp150.000000002704//108dumped.pdb
./eq_temp150.000000002704//109dumped.pdb
./eq_temp150.000000002704//110dumped.pdb
./eq_temp150.000000002704//111dumped.pdb
./eq_temp150.000000002704//112dumped.pdb
./eq_temp150.000000002704//113dumped.pdb
./eq_temp150.000000002704//114dumped.pdb
./eq_temp150.000000002704//115dumped.pdb
./eq_temp150.000000002704//116dumped.pdb
./eq_temp150.000000002704//117dumped.pdb
./eq_temp150.000000002704//118dumped.pdb
./eq_temp150.000000002704//119dumped.pdb
./eq_temp150.000000002704//120dumped.pdb
./eq_temp150.000000002704//121dumped.pdb
./eq_temp150.000000002704//122dumped.pdb
./eq_temp150.000000002704//123dumped.pdb
./eq_temp150.000000002704//124dumped.pdb
./eq_temp150.000000002704//125dumped.pdb
./eq_temp150.000000002704//126dumped.pdb
./eq_temp150.000000002704//127dumped.pdb
./eq_temp150.000000002704//128dumped.pdb
./eq_temp150.000000002704//129dumped.pdb
./eq_temp150.000000002704//130dumped.pdb
./eq_temp150.000000002704//131dumped.pdb
./eq_temp150.000000002704//132dumped.pdb
./eq_temp150.000000002704//133dumped.pdb
./eq_temp150.000000002704//134dumped.pdb
./eq_temp150.000000002704//135dumped.pdb
./eq_temp150.000000002704//136dumped.pdb
./eq_temp150.000000002704//137dumped.pdb
./eq_temp150.000000002704//138dumped.pdb
./eq_temp150.000000002704//139dumped.pdb
./eq_temp150.000000002704//141dumped.pdb
./eq_temp150.000000002704//142dumped.pdb
./eq_temp150.000000002704//143dumped.pdb
./eq_temp150.000000002704//144dumped.pdb
./eq_temp150.000000002704//145dumped.pdb
./eq_temp150.000000002704//146dumped.pdb
./eq_temp150.000000002704//147dumped.pdb
./eq_temp150.000000002704//148dumped.pdb
./eq_temp150.000000002704//149dumped.pdb
./eq_temp150.000000002704//150dumped.pdb
./eq_temp150.000000002704//151dumped.pdb
./eq_temp150.000000002704//152dumped.pdb
./eq_temp150.000000002704//153dumped.pdb
./eq_temp150.000000002704//154dumped.pdb
./eq_temp150.000000002704//155dumped.pdb
./eq_temp150.000000002704//156dumped.pdb
./eq_temp150.000000002704//157dumped.pdb
./eq_temp150.000000002704//158dumped.pdb
./eq_temp150.000000002704//159dumped.pdb
./eq_temp150.000000002704//161dumped.pdb
./eq_temp150.000000002704//162dumped.pdb
./eq_temp150.000000002704//163dumped.pdb
./eq_temp150.000000002704//164dumped.pdb
./eq_temp150.000000002704//166dumped.pdb
./eq_temp150.000000002704//167dumped.pdb
./eq_temp150.000000002704//168dumped.pdb
./eq_temp150.000000002704//169dumped.pdb
./eq_temp150.000000002704//170dumped.pdb
./eq_temp150.000000002704//171dumped.pdb
./eq_temp150.000000002704//172dumped.pdb
./eq_temp150.000000002704//173dumped.pdb
./eq_temp150.000000002704//174dumped.pdb
./eq_temp150.000000002704//175dumped.pdb
./eq_temp150.000000002704//176dumped.pdb
./eq_temp150.000000002704//177dumped.pdb
./eq_temp150.000000002704//178dumped.pdb
./eq_temp150.000000002704//179dumped.pdb
./eq_temp150.000000002704//180dumped.pdb
./eq_temp150.000000002704//182dumped.pdb
./eq_temp150.000000002704//183dumped.pdb
./eq_temp150.000000002704//184dumped.pdb
./eq_temp150.000000002704//185dumped.pdb
./eq_temp150.000000002704//186dumped.pdb
./eq_temp150.000000002704//187dumped.pdb
./eq_temp150.000000002704//188dumped.pdb
./eq_temp150.000000002704//189dumped.pdb
./eq_temp150.000000002704//190dumped.pdb
./eq_temp150.000000002704//191dumped.pdb
./eq_temp150.000000002704//192dumped.pdb
./eq_temp150.000000002704//193dumped.pdb
./eq_temp150.000000002704//194dumped.pdb
./eq_temp150.000000002704//195dumped.pdb
./eq_temp150.000000002704//196dumped.pdb
./eq_temp150.000000002704//197dumped.pdb
./eq_temp150.000000002704//198dumped.pdb
./eq_temp150.000000002704//199dumped.pdb
./eq_temp150.000000002704//200dumped.pdb
./eq_temp150.000000002704//201dumped.pdb
./eq_temp150.000000002704//202dumped.pdb
./eq_temp150.000000002704//203dumped.pdb
./eq_temp150.000000002704//204dumped.pdb
./eq_temp150.000000002704//205dumped.pdb
./eq_temp150.000000002704//206dumped.pdb
./eq_temp150.000000002704//207dumped.pdb
./eq_temp150.000000002704//208dumped.pdb
./eq_temp150.000000002704//209dumped.pdb
./eq_temp150.000000002704//210dumped.pdb
./eq_temp150.000000002704//211dumped.pdb
./eq_temp150.000000002704//213dumped.pdb
./eq_temp150.000000002704//214dumped.pdb
./eq_temp150.000000002704//215dumped.pdb
./eq_temp150.000000002704//216dumped.pdb
./eq_temp150.000000002704//217dumped.pdb
./eq_temp150.000000002704//218dumped.pdb
./eq_temp150.000000002704//219dumped.pdb
./eq_temp150.000000002704//220dumped.pdb
./eq_temp150.000000002704//221dumped.pdb
./eq_temp150.000000002704//222dumped.pdb
./eq_temp150.000000002704//223dumped.pdb
./eq_temp150.000000002704//224dumped.pdb
./eq_temp150.000000002704//225dumped.pdb
./eq_temp150.000000002704//226dumped.pdb
./eq_temp150.000000002704//227dumped.pdb
./eq_temp150.000000002704//228dumped.pdb
./eq_temp150.000000002704//229dumped.pdb
./eq_temp150.000000002704//230dumped.pdb
./eq_temp150.000000002704//231dumped.pdb
./eq_temp150.000000002704//232dumped.pdb
./eq_temp150.000000002704//233dumped.pdb
./eq_temp150.000000002704//234dumped.pdb
./eq_temp150.000000002704//235dumped.pdb
./eq_temp150.000000002704//236dumped.pdb
./eq_temp150.000000002704//237dumped.pdb
./eq_temp150.000000002704//238dumped.pdb
./eq_temp150.000000002704//239dumped.pdb
./eq_temp150.000000002704//240dumped.pdb
./eq_temp150.000000002704//241dumped.pdb
./eq_temp150.000000002704//242dumped.pdb
./eq_temp150.000000002704//243dumped.pdb
./eq_temp150.00000000029//668dumped.pdb
./eq_temp150.00000000029//669dumped.pdb
./eq_temp150.00000000029//670dumped.pdb
./eq_temp150.00000000029//671dumped.pdb
./eq_temp150.00000000029//672dumped.pdb
./eq_temp150.00000000029//673dumped.pdb
./eq_temp150.00000000029//674dumped.pdb
./eq_temp150.00000000029//675dumped.pdb
./eq_temp150.00000000029//676dumped.pdb
./eq_temp150.00000000029//678dumped.pdb
./eq_temp150.00000000029//679dumped.pdb
./eq_temp150.00000000029//680dumped.pdb
./eq_temp150.00000000029//681dumped.pdb
./eq_temp150.00000000029//682dumped.pdb
./eq_temp150.00000000029//683dumped.pdb
./eq_temp150.00000000029//684dumped.pdb
./eq_temp150.00000000029//685dumped.pdb
./eq_temp150.00000000029//686dumped.pdb
./eq_temp150.00000000029//687dumped.pdb
./eq_temp150.00000000029//688dumped.pdb
./eq_temp150.00000000029//689dumped.pdb
./eq_temp150.00000000029//690dumped.pdb
./eq_temp150.00000000029//691dumped.pdb
./eq_temp150.00000000029//692dumped.pdb
./eq_temp150.00000000029//693dumped.pdb
./eq_temp150.00000000029//694dumped.pdb
./eq_temp150.00000000029//695dumped.pdb
./eq_temp150.00000000029//696dumped.pdb
./eq_temp150.00000000029//697dumped.pdb
./eq_temp150.00000000029//698dumped.pdb
./eq_temp150.00000000029//699dumped.pdb
./eq_temp150.00000000029//700dumped.pdb
./eq_temp150.00000000029//701dumped.pdb
./eq_temp150.00000000029//702dumped.pdb
./eq_temp150.00000000029//703dumped.pdb
./eq_temp150.00000000029//704dumped.pdb
./eq_temp150.00000000029//705dumped.pdb
./eq_temp150.00000000029//706dumped.pdb
./eq_temp150.00000000029//707dumped.pdb
./eq_temp150.00000000029//708dumped.pdb
./eq_temp150.00000000029//709dumped.pdb
./eq_temp150.00000000029//710dumped.pdb
./eq_temp150.00000000029//711dumped.pdb
./eq_temp150.00000000029//712dumped.pdb
./eq_temp150.00000000029//713dumped.pdb
./eq_temp150.00000000029//714dumped.pdb
./eq_temp150.00000000029//715dumped.pdb
./eq_temp150.00000000029//716dumped.pdb
./eq_temp150.00000000029//717dumped.pdb
./eq_temp150.00000000029//718dumped.pdb
./eq_temp150.00000000029//719dumped.pdb
./eq_temp150.00000000029//720dumped.pdb
./eq_temp150.00000000029//721dumped.pdb
./eq_temp150.00000000029//722dumped.pdb
./eq_temp150.00000000029//723dumped.pdb
./eq_temp150.00000000029//724dumped.pdb
./eq_temp150.00000000029//725dumped.pdb
./eq_temp150.00000000029//726dumped.pdb
./eq_temp150.00000000029//727dumped.pdb
./eq_temp150.00000000029//728dumped.pdb
./eq_temp150.00000000029//729dumped.pdb
./eq_temp150.00000000029//730dumped.pdb
./eq_temp150.00000000029//731dumped.pdb
./eq_temp150.00000000029//732dumped.pdb
./eq_temp150.00000000029//733dumped.pdb
./eq_temp150.00000000029//734dumped.pdb
./eq_temp150.00000000029//735dumped.pdb
./eq_temp150.00000000029//736dumped.pdb
./eq_temp150.00000000029//737dumped.pdb
./eq_temp150.00000000029//738dumped.pdb
./eq_temp150.00000000029//739dumped.pdb
./eq_temp150.00000000029//740dumped.pdb
./eq_temp150.00000000029//741dumped.pdb
./eq_temp150.00000000029//742dumped.pdb
./eq_temp150.00000000029//743dumped.pdb
./eq_temp150.00000000029//744dumped.pdb
./eq_temp150.00000000029//745dumped.pdb
./eq_temp150.00000000029//746dumped.pdb
./eq_temp150.00000000029//747dumped.pdb
./eq_temp150.00000000029//748dumped.pdb
./eq_temp150.00000000029//749dumped.pdb
./eq_temp150.00000000029//750dumped.pdb
./eq_temp150.00000000029//751dumped.pdb
./eq_temp150.00000000029//752dumped.pdb
./eq_temp150.00000000029//753dumped.pdb
./eq_temp150.00000000029//754dumped.pdb
./eq_temp150.00000000029//755dumped.pdb
./eq_temp150.00000000029//756dumped.pdb
./eq_temp150.00000000029//757dumped.pdb
./eq_temp150.00000000029//758dumped.pdb
./eq_temp150.00000000029//759dumped.pdb
./eq_temp150.00000000029//760dumped.pdb
./eq_temp150.00000000029//761dumped.pdb
./eq_temp150.00000000029//762dumped.pdb
./eq_temp150.00000000029//763dumped.pdb
./eq_temp150.00000000029//764dumped.pdb
./eq_temp150.00000000029//765dumped.pdb
./eq_temp150.00000000029//766dumped.pdb
./eq_temp150.00000000029//767dumped.pdb
./eq_temp150.00000000029//768dumped.pdb
./eq_temp150.00000000029//769dumped.pdb
./eq_temp150.00000000029//770dumped.pdb
./eq_temp150.00000000029//771dumped.pdb
./eq_temp150.00000000029//772dumped.pdb
./eq_temp150.00000000029//773dumped.pdb
./eq_temp150.00000000029//774dumped.pdb
./eq_temp150.00000000029//775dumped.pdb
./eq_temp150.00000000029//776dumped.pdb
./eq_temp150.00000000029//778dumped.pdb
./eq_temp150.00000000029//779dumped.pdb
./eq_temp150.00000000029//780dumped.pdb
./eq_temp150.00000000029//781dumped.pdb
./eq_temp150.00000000029//782dumped.pdb
./eq_temp150.00000000029//783dumped.pdb
./eq_temp150.00000000029//784dumped.pdb
./eq_temp150.00000000029//785dumped.pdb
./eq_temp150.00000000029//786dumped.pdb
./eq_temp150.00000000029//787dumped.pdb
./eq_temp150.00000000029//789dumped.pdb
./eq_temp150.00000000029//790dumped.pdb
./eq_temp150.00000000029//791dumped.pdb
./eq_temp150.00000000029//792dumped.pdb
./eq_temp150.00000000029//793dumped.pdb
./eq_temp150.00000000029//794dumped.pdb
./eq_temp150.00000000029//795dumped.pdb
./eq_temp150.00000000029//796dumped.pdb
./eq_temp150.00000000029//797dumped.pdb
./eq_temp150.00000000029//798dumped.pdb
./eq_temp150.00000000029//799dumped.pdb
./eq_temp150.00000000029//800dumped.pdb
./eq_temp150.00000000029//801dumped.pdb
./eq_temp150.00000000029//802dumped.pdb
./eq_temp150.00000000029//803dumped.pdb
./eq_temp150.00000000029//804dumped.pdb
./eq_temp150.00000000029//805dumped.pdb
./eq_temp150.00000000029//806dumped.pdb
./eq_temp150.00000000029//808dumped.pdb
./eq_temp150.00000000029//809dumped.pdb
./eq_temp150.00000000029//810dumped.pdb
./eq_temp150.00000000029//811dumped.pdb
./eq_temp150.00000000029//812dumped.pdb
./eq_temp150.00000000029//813dumped.pdb
./eq_temp150.00000000029//814dumped.pdb
./eq_temp150.00000000029//815dumped.pdb
./eq_temp150.00000000029//816dumped.pdb
./eq_temp150.00000000029//817dumped.pdb
./eq_temp150.00000000029//818dumped.pdb
./eq_temp150.00000000029//819dumped.pdb
./eq_temp150.00000000029//820dumped.pdb
./eq_temp150.00000000029//822dumped.pdb
./eq_temp150.00000000029//823dumped.pdb
./eq_temp150.00000000029//824dumped.pdb
./eq_temp150.00000000029//825dumped.pdb
./eq_temp150.00000000029//826dumped.pdb
./eq_temp150.00000000029//827dumped.pdb
./eq_temp150.00000000029//828dumped.pdb
./eq_temp150.00000000029//829dumped.pdb
./eq_temp150.00000000029//830dumped.pdb
./eq_temp150.00000000029//831dumped.pdb
./eq_temp150.00000000029//832dumped.pdb
./eq_temp150.00000000029//833dumped.pdb
./eq_temp150.00000000029//834dumped.pdb
./eq_temp150.00000000029//835dumped.pdb
./eq_temp150.00000000029//836dumped.pdb
./eq_temp150.00000000029//837dumped.pdb
./eq_temp150.00000000029//838dumped.pdb
./eq_temp150.00000000029//839dumped.pdb
./eq_temp150.00000000029//840dumped.pdb
./eq_temp150.00000000029//841dumped.pdb
./eq_temp150.00000000029//842dumped.pdb
./eq_temp150.00000000029//843dumped.pdb
./eq_temp150.00000000029//844dumped.pdb
./eq_temp150.00000000029//845dumped.pdb
./eq_temp150.00000000029//846dumped.pdb
./eq_temp150.00000000029//847dumped.pdb
./eq_temp150.00000000029//848dumped.pdb
./eq_temp150.00000000029//849dumped.pdb
./eq_temp150.00000000029//850dumped.pdb
./eq_temp150.00000000029//851dumped.pdb
./eq_temp150.00000000029//852dumped.pdb
./eq_temp150.00000000029//853dumped.pdb
./eq_temp150.00000000029//854dumped.pdb
./eq_temp150.00000000029//855dumped.pdb
./eq_temp150.00000000029//856dumped.pdb
./eq_temp150.00000000029//857dumped.pdb
./eq_temp150.00000000029//858dumped.pdb
./eq_temp150.00000000029//859dumped.pdb
./eq_temp150.00000000029//860dumped.pdb
./eq_temp150.00000000029//861dumped.pdb
./eq_temp150.00000000029//862dumped.pdb
./eq_temp150.00000000029//863dumped.pdb
./eq_temp150.00000000029//864dumped.pdb
./eq_temp150.00000000029//865dumped.pdb
./eq_temp150.00000000029//866dumped.pdb
./eq_temp150.00000000029//867dumped.pdb
./eq_temp150.00000000029//868dumped.pdb
./eq_temp150.00000000029//869dumped.pdb
./eq_temp150.00000000029//870dumped.pdb
./eq_temp150.00000000029//871dumped.pdb
./eq_temp150.00000000029//872dumped.pdb
./eq_temp150.00000000029//873dumped.pdb
./eq_temp150.00000000029//874dumped.pdb
./eq_temp150.00000000029//875dumped.pdb
./eq_temp150.00000000029//876dumped.pdb
./eq_temp150.00000000029//877dumped.pdb
./eq_temp150.00000000029//878dumped.pdb
./eq_temp150.00000000029//879dumped.pdb
./eq_temp150.00000000029//880dumped.pdb
./eq_temp150.00000000029//881dumped.pdb
./eq_temp150.00000000029//882dumped.pdb
./eq_temp150.00000000029//883dumped.pdb
./eq_temp150.00000000029//885dumped.pdb
./eq_temp150.00000000029//886dumped.pdb
./eq_temp150.00000000029//887dumped.pdb
./eq_temp150.00000000029//888dumped.pdb
./eq_temp150.00000000029//889dumped.pdb
./eq_temp150.00000000029//890dumped.pdb
./eq_temp150.00000000029//891dumped.pdb
./eq_temp150.00000000029//892dumped.pdb
./eq_temp150.00000000029//894dumped.pdb
./eq_temp150.00000000029//895dumped.pdb
./eq_temp150.00000000029//896dumped.pdb
./eq_temp150.00000000029//897dumped.pdb
