./eq_temp150.00000000009//281dumped.pdb
./eq_temp150.00000000009//284dumped.pdb
./eq_temp150.000000000123//283dumped.pdb
./test/eq_temp150.00000000009//281dumped.pdb
./test/eq_temp150.00000000009//284dumped.pdb
