%!PS-Adobe-3.0 EPSF-3.0
%%Creator: (MATLAB, The Mathworks, Inc. Version 8.6.0.267246 \(R2015b\). Operating System: Windows 8)
%%Title: (D:/Marszalek Lab/Force Curves/LuciferaseTruncations/Analysis/Forces.eps)
%%CreationDate: 2016-05-05T08:48:24
%%Pages: (atend)
%%BoundingBox: 0 0 317 746
%%LanguageLevel: 2
%%EndComments
%%BeginProlog
%%BeginResource: procset (Apache XML Graphics Std ProcSet) 1.2 0
%%Version: 1.2 0
%%Copyright: (Copyright 2001-2003,2010 The Apache Software Foundation. License terms: http://www.apache.org/licenses/LICENSE-2.0)
/bd{bind def}bind def
/ld{load def}bd
/GR/grestore ld
/M/moveto ld
/LJ/setlinejoin ld
/C/curveto ld
/f/fill ld
/LW/setlinewidth ld
/GC/setgray ld
/t/show ld
/N/newpath ld
/CT/concat ld
/cp/closepath ld
/S/stroke ld
/L/lineto ld
/CC/setcmykcolor ld
/A/ashow ld
/GS/gsave ld
/RC/setrgbcolor ld
/RM/rmoveto ld
/ML/setmiterlimit ld
/re {4 2 roll M
1 index 0 rlineto
0 exch rlineto
neg 0 rlineto
cp } bd
/_ctm matrix def
/_tm matrix def
/BT { _ctm currentmatrix pop matrix _tm copy pop 0 0 moveto } bd
/ET { _ctm setmatrix } bd
/iTm { _ctm setmatrix _tm concat } bd
/Tm { _tm astore pop iTm 0 0 moveto } bd
/ux 0.0 def
/uy 0.0 def
/F {
  /Tp exch def
  /Tf exch def
  Tf findfont Tp scalefont setfont
  /cf Tf def  /cs Tp def
} bd
/ULS {currentpoint /uy exch def /ux exch def} bd
/ULE {
  /Tcx currentpoint pop def
  gsave
  newpath
  cf findfont cs scalefont dup
  /FontMatrix get 0 get /Ts exch def /FontInfo get dup
  /UnderlinePosition get Ts mul /To exch def
  /UnderlineThickness get Ts mul /Tt exch def
  ux uy To add moveto  Tcx uy To add lineto
  Tt setlinewidth stroke
  grestore
} bd
/OLE {
  /Tcx currentpoint pop def
  gsave
  newpath
  cf findfont cs scalefont dup
  /FontMatrix get 0 get /Ts exch def /FontInfo get dup
  /UnderlinePosition get Ts mul /To exch def
  /UnderlineThickness get Ts mul /Tt exch def
  ux uy To add cs add moveto Tcx uy To add cs add lineto
  Tt setlinewidth stroke
  grestore
} bd
/SOE {
  /Tcx currentpoint pop def
  gsave
  newpath
  cf findfont cs scalefont dup
  /FontMatrix get 0 get /Ts exch def /FontInfo get dup
  /UnderlinePosition get Ts mul /To exch def
  /UnderlineThickness get Ts mul /Tt exch def
  ux uy To add cs 10 mul 26 idiv add moveto Tcx uy To add cs 10 mul 26 idiv add lineto
  Tt setlinewidth stroke
  grestore
} bd
/QT {
/Y22 exch store
/X22 exch store
/Y21 exch store
/X21 exch store
currentpoint
/Y21 load 2 mul add 3 div exch
/X21 load 2 mul add 3 div exch
/X21 load 2 mul /X22 load add 3 div
/Y21 load 2 mul /Y22 load add 3 div
/X22 load /Y22 load curveto
} bd
/SSPD {
dup length /d exch dict def
{
/v exch def
/k exch def
currentpagedevice k known {
/cpdv currentpagedevice k get def
v cpdv ne {
/upd false def
/nullv v type /nulltype eq def
/nullcpdv cpdv type /nulltype eq def
nullv nullcpdv or
{
/upd true def
} {
/sametype v type cpdv type eq def
sametype {
v type /arraytype eq {
/vlen v length def
/cpdvlen cpdv length def
vlen cpdvlen eq {
0 1 vlen 1 sub {
/i exch def
/obj v i get def
/cpdobj cpdv i get def
obj cpdobj ne {
/upd true def
exit
} if
} for
} {
/upd true def
} ifelse
} {
v type /dicttype eq {
v {
/dv exch def
/dk exch def
/cpddv cpdv dk get def
dv cpddv ne {
/upd true def
exit
} if
} forall
} {
/upd true def
} ifelse
} ifelse
} if
} ifelse
upd true eq {
d k v put
} if
} if
} if
} forall
d length 0 gt {
d setpagedevice
} if
} bd
%%EndResource
%%BeginResource: procset (Apache XML Graphics EPS ProcSet) 1.0 0
%%Version: 1.0 0
%%Copyright: (Copyright 2002-2003 The Apache Software Foundation. License terms: http://www.apache.org/licenses/LICENSE-2.0)
/BeginEPSF { %def
/b4_Inc_state save def         % Save state for cleanup
/dict_count countdictstack def % Count objects on dict stack
/op_count count 1 sub def      % Count objects on operand stack
userdict begin                 % Push userdict on dict stack
/showpage { } def              % Redefine showpage, { } = null proc
0 setgray 0 setlinecap         % Prepare graphics state
1 setlinewidth 0 setlinejoin
10 setmiterlimit [ ] 0 setdash newpath
/languagelevel where           % If level not equal to 1 then
{pop languagelevel             % set strokeadjust and
1 ne                           % overprint to their defaults.
{false setstrokeadjust false setoverprint
} if
} if
} bd
/EndEPSF { %def
count op_count sub {pop} repeat            % Clean up stacks
countdictstack dict_count sub {end} repeat
b4_Inc_state restore
} bd
%%EndResource
%FOPBeginFontDict
%%IncludeResource: font Courier-Bold
%%IncludeResource: font Helvetica
%%IncludeResource: font Courier-BoldOblique
%%IncludeResource: font Courier-Oblique
%%IncludeResource: font Times-Roman
%%IncludeResource: font Helvetica-BoldOblique
%%IncludeResource: font Helvetica-Bold
%%IncludeResource: font Helvetica-Oblique
%%IncludeResource: font Times-BoldItalic
%%IncludeResource: font Courier
%%IncludeResource: font Times-Italic
%%IncludeResource: font Times-Bold
%%IncludeResource: font Symbol
%%IncludeResource: font ZapfDingbats
%FOPEndFontDict
%%BeginResource: encoding WinAnsiEncoding
/WinAnsiEncoding [
/.notdef /.notdef /.notdef /.notdef /.notdef
/.notdef /.notdef /.notdef /.notdef /.notdef
/.notdef /.notdef /.notdef /.notdef /.notdef
/.notdef /.notdef /.notdef /.notdef /.notdef
/.notdef /.notdef /.notdef /.notdef /.notdef
/.notdef /.notdef /.notdef /.notdef /.notdef
/.notdef /.notdef /space /exclam /quotedbl
/numbersign /dollar /percent /ampersand /quotesingle
/parenleft /parenright /asterisk /plus /comma
/hyphen /period /slash /zero /one
/two /three /four /five /six
/seven /eight /nine /colon /semicolon
/less /equal /greater /question /at
/A /B /C /D /E
/F /G /H /I /J
/K /L /M /N /O
/P /Q /R /S /T
/U /V /W /X /Y
/Z /bracketleft /backslash /bracketright /asciicircum
/underscore /quoteleft /a /b /c
/d /e /f /g /h
/i /j /k /l /m
/n /o /p /q /r
/s /t /u /v /w
/x /y /z /braceleft /bar
/braceright /asciitilde /bullet /Euro /bullet
/quotesinglbase /florin /quotedblbase /ellipsis /dagger
/daggerdbl /circumflex /perthousand /Scaron /guilsinglleft
/OE /bullet /Zcaron /bullet /bullet
/quoteleft /quoteright /quotedblleft /quotedblright /bullet
/endash /emdash /asciitilde /trademark /scaron
/guilsinglright /oe /bullet /zcaron /Ydieresis
/space /exclamdown /cent /sterling /currency
/yen /brokenbar /section /dieresis /copyright
/ordfeminine /guillemotleft /logicalnot /sfthyphen /registered
/macron /degree /plusminus /twosuperior /threesuperior
/acute /mu /paragraph /middot /cedilla
/onesuperior /ordmasculine /guillemotright /onequarter /onehalf
/threequarters /questiondown /Agrave /Aacute /Acircumflex
/Atilde /Adieresis /Aring /AE /Ccedilla
/Egrave /Eacute /Ecircumflex /Edieresis /Igrave
/Iacute /Icircumflex /Idieresis /Eth /Ntilde
/Ograve /Oacute /Ocircumflex /Otilde /Odieresis
/multiply /Oslash /Ugrave /Uacute /Ucircumflex
/Udieresis /Yacute /Thorn /germandbls /agrave
/aacute /acircumflex /atilde /adieresis /aring
/ae /ccedilla /egrave /eacute /ecircumflex
/edieresis /igrave /iacute /icircumflex /idieresis
/eth /ntilde /ograve /oacute /ocircumflex
/otilde /odieresis /divide /oslash /ugrave
/uacute /ucircumflex /udieresis /yacute /thorn
/ydieresis
] def
%%EndResource
%FOPBeginFontReencode
/Courier-Bold findfont
dup length dict begin
  {1 index /FID ne {def} {pop pop} ifelse} forall
  /Encoding WinAnsiEncoding def
  currentdict
end
/Courier-Bold exch definefont pop
/Helvetica findfont
dup length dict begin
  {1 index /FID ne {def} {pop pop} ifelse} forall
  /Encoding WinAnsiEncoding def
  currentdict
end
/Helvetica exch definefont pop
/Courier-BoldOblique findfont
dup length dict begin
  {1 index /FID ne {def} {pop pop} ifelse} forall
  /Encoding WinAnsiEncoding def
  currentdict
end
/Courier-BoldOblique exch definefont pop
/Courier-Oblique findfont
dup length dict begin
  {1 index /FID ne {def} {pop pop} ifelse} forall
  /Encoding WinAnsiEncoding def
  currentdict
end
/Courier-Oblique exch definefont pop
/Times-Roman findfont
dup length dict begin
  {1 index /FID ne {def} {pop pop} ifelse} forall
  /Encoding WinAnsiEncoding def
  currentdict
end
/Times-Roman exch definefont pop
/Helvetica-BoldOblique findfont
dup length dict begin
  {1 index /FID ne {def} {pop pop} ifelse} forall
  /Encoding WinAnsiEncoding def
  currentdict
end
/Helvetica-BoldOblique exch definefont pop
/Helvetica-Bold findfont
dup length dict begin
  {1 index /FID ne {def} {pop pop} ifelse} forall
  /Encoding WinAnsiEncoding def
  currentdict
end
/Helvetica-Bold exch definefont pop
/Helvetica-Oblique findfont
dup length dict begin
  {1 index /FID ne {def} {pop pop} ifelse} forall
  /Encoding WinAnsiEncoding def
  currentdict
end
/Helvetica-Oblique exch definefont pop
/Times-BoldItalic findfont
dup length dict begin
  {1 index /FID ne {def} {pop pop} ifelse} forall
  /Encoding WinAnsiEncoding def
  currentdict
end
/Times-BoldItalic exch definefont pop
/Courier findfont
dup length dict begin
  {1 index /FID ne {def} {pop pop} ifelse} forall
  /Encoding WinAnsiEncoding def
  currentdict
end
/Courier exch definefont pop
/Times-Italic findfont
dup length dict begin
  {1 index /FID ne {def} {pop pop} ifelse} forall
  /Encoding WinAnsiEncoding def
  currentdict
end
/Times-Italic exch definefont pop
/Times-Bold findfont
dup length dict begin
  {1 index /FID ne {def} {pop pop} ifelse} forall
  /Encoding WinAnsiEncoding def
  currentdict
end
/Times-Bold exch definefont pop
%FOPEndFontReencode
%%EndProlog
%%Page: 1 1
%%PageBoundingBox: 0 0 317 746
%%BeginPageSetup
[1 0 0 -1 0 746] CT
%%EndPageSetup
GS
[0.75 0 0 0.75 0 0.5] CT
1 GC
N
0 0 423 994 re
f
GR
GS
[0.75 0 0 0.75 0 0.5] CT
1 GC
N
0 0 423 994 re
f
GR
GS
[0.75 0 0 0.75 0 0.5] CT
1 GC
N
55 150 M
383 150 L
383 88 L
55 88 L
cp
f
GR
GS
[0.75 0 0 0.75 0 0.5] CT
0.149 GC
2 setlinecap
1 LJ
0.667 LW
N
55 150 M
383 150 L
S
GR
GS
[0.75 0 0 0.75 0 0.5] CT
0.149 GC
2 setlinecap
1 LJ
0.667 LW
N
55 88 M
383 88 L
S
GR
GS
[0.75 0 0 0.75 0 0.5] CT
0.149 GC
2 setlinecap
1 LJ
0.667 LW
N
55 150 M
55 88 L
S
GR
GS
[0.75 0 0 0.75 0 0.5] CT
0.149 GC
2 setlinecap
1 LJ
0.667 LW
N
383 150 M
383 88 L
S
GR
GS
[0.75 0 0 0.75 0 0.5] CT
0.149 GC
2 setlinecap
1 LJ
0.667 LW
N
55 150 M
58.28 150 L
S
GR
GS
[0.75 0 0 0.75 0 0.5] CT
0.149 GC
2 setlinecap
1 LJ
0.667 LW
N
55 125.2 M
58.28 125.2 L
S
GR
GS
[0.75 0 0 0.75 0 0.5] CT
0.149 GC
2 setlinecap
1 LJ
0.667 LW
N
55 100.4 M
58.28 100.4 L
S
GR
GS
[0.75 0 0 0.75 0 0.5] CT
0.149 GC
2 setlinecap
1 LJ
0.667 LW
N
383 150 M
379.72 150 L
S
GR
GS
[0.75 0 0 0.75 0 0.5] CT
0.149 GC
2 setlinecap
1 LJ
0.667 LW
N
383 125.2 M
379.72 125.2 L
S
GR
GS
[0.75 0 0 0.75 0 0.5] CT
0.149 GC
2 setlinecap
1 LJ
0.667 LW
N
383 100.4 M
379.72 100.4 L
S
GR
GS
[0.75 0 0 0.75 37.25 113] CT
0.149 GC
/Helvetica 13 F
GS
[1 0 0 1 0 0] CT
-8 5.5 moveto 
1 -1 scale
(0) t 
GR
GR
GS
[0.75 0 0 0.75 37.25 94.4] CT
0.149 GC
/Helvetica 13 F
GS
[1 0 0 1 0 0] CT
-15 5.5 moveto 
1 -1 scale
(10) t 
GR
GR
GS
[0.75 0 0 0.75 37.25 75.8] CT
0.149 GC
/Helvetica 13 F
GS
[1 0 0 1 0 0] CT
-15 5.5 moveto 
1 -1 scale
(20) t 
GR
GR
GS
[0.75 0 0 0.75 164.25016 64.4375] CT
/Helvetica-Bold 15 F
GS
[1 0 0 1 0 0] CT
-33 -4 moveto 
1 -1 scale
(Luc1-203) t 
GR
GR
GS
[0.75 0 0 0.75 0 0.5] CT
0.4 0.4 1 RC
N
91.444 150 M
91.444 140.08 L
100.556 140.08 L
100.556 150 L
cp
f
GR
GS
[0.75 0 0 0.75 0 0.5] CT
0.4 0.4 1 RC
N
100.556 150 M
100.556 127.68 L
109.667 127.68 L
109.667 150 L
cp
f
GR
GS
[0.75 0 0 0.75 0 0.5] CT
0.4 0.4 1 RC
N
109.667 150 M
109.667 102.88 L
118.778 102.88 L
118.778 150 L
cp
f
GR
GS
[0.75 0 0 0.75 0 0.5] CT
0.4 0.4 1 RC
N
118.778 150 M
118.778 130.16 L
127.889 130.16 L
127.889 150 L
cp
f
GR
GS
[0.75 0 0 0.75 0 0.5] CT
0.4 0.4 1 RC
N
127.889 150 M
127.889 127.68 L
137 127.68 L
137 150 L
cp
f
GR
GS
[0.75 0 0 0.75 0 0.5] CT
0.4 0.4 1 RC
N
137 150 M
137 112.8 L
146.111 112.8 L
146.111 150 L
cp
f
GR
GS
[0.75 0 0 0.75 0 0.5] CT
0.4 0.4 1 RC
N
146.111 150 M
146.111 137.6 L
155.222 137.6 L
155.222 150 L
cp
f
GR
GS
[0.75 0 0 0.75 0 0.5] CT
0.4 0.4 1 RC
N
155.222 150 M
155.222 137.6 L
164.333 137.6 L
164.333 150 L
cp
f
GR
GS
[0.75 0 0 0.75 0 0.5] CT
0.4 0.4 1 RC
N
164.333 150 M
164.333 127.68 L
173.444 127.68 L
173.444 150 L
cp
f
GR
GS
[0.75 0 0 0.75 0 0.5] CT
0.4 0.4 1 RC
N
173.444 150 M
173.444 135.12 L
182.556 135.12 L
182.556 150 L
cp
f
GR
GS
[0.75 0 0 0.75 0 0.5] CT
0.4 0.4 1 RC
N
182.556 150 M
182.556 140.08 L
191.667 140.08 L
191.667 150 L
cp
f
GR
GS
[0.75 0 0 0.75 0 0.5] CT
0.4 0.4 1 RC
N
191.667 150 M
191.667 142.56 L
200.778 142.56 L
200.778 150 L
cp
f
GR
GS
[0.75 0 0 0.75 0 0.5] CT
0.4 0.4 1 RC
N
200.778 150 M
200.778 142.56 L
209.889 142.56 L
209.889 150 L
cp
f
GR
GS
[0.75 0 0 0.75 0 0.5] CT
0.4 0.4 1 RC
N
209.889 150 M
209.889 150 L
219 150 L
219 150 L
cp
f
GR
GS
[0.75 0 0 0.75 0 0.5] CT
0.4 0.4 1 RC
N
219 150 M
219 147.52 L
228.111 147.52 L
228.111 150 L
cp
f
GR
GS
[0.75 0 0 0.75 0 0.5] CT
0.4 0.4 1 RC
N
228.111 150 M
228.111 150 L
237.222 150 L
237.222 150 L
cp
f
GR
GS
[0.75 0 0 0.75 0 0.5] CT
0.4 0.4 1 RC
N
237.222 150 M
237.222 147.52 L
246.333 147.52 L
246.333 150 L
cp
f
GR
GS
[0.75 0 0 0.75 0 0.5] CT
0.4 0.4 1 RC
N
246.333 150 M
246.333 147.52 L
255.444 147.52 L
255.444 150 L
cp
f
GR
GS
[0.75 0 0 0.75 0 0.5] CT
0.4 0.4 1 RC
N
255.444 150 M
255.444 150 L
264.556 150 L
264.556 150 L
cp
f
GR
GS
[0.75 0 0 0.75 0 0.5] CT
0.4 0.4 1 RC
N
264.556 150 M
264.556 150 L
273.667 150 L
273.667 150 L
cp
f
GR
GS
[0.75 0 0 0.75 0 0.5] CT
0.4 0.4 1 RC
N
273.667 150 M
273.667 147.52 L
282.778 147.52 L
282.778 150 L
cp
f
GR
GS
[0.75 0 0 0.75 0 0.5] CT
0.4 0.4 1 RC
N
282.778 150 M
282.778 147.52 L
291.889 147.52 L
291.889 150 L
cp
f
GR
GS
[0.75 0 0 0.75 0 0.5] CT
0.4 0.4 1 RC
N
291.889 150 M
291.889 147.52 L
301 147.52 L
301 150 L
cp
f
GR
GS
[0.75 0 0 0.75 0 0.5] CT
0.4 0.4 1 RC
N
301 150 M
301 150 L
310.111 150 L
310.111 150 L
cp
f
GR
GS
[0.75 0 0 0.75 0 0.5] CT
0.4 0.4 1 RC
N
310.111 150 M
310.111 150 L
319.222 150 L
319.222 150 L
cp
f
GR
GS
[0.75 0 0 0.75 0 0.5] CT
0.4 0.4 1 RC
N
319.222 150 M
319.222 147.52 L
328.333 147.52 L
328.333 150 L
cp
f
GR
GS
[0.75 0 0 0.75 0 0.5] CT
0.4 0.4 1 RC
N
328.333 150 M
328.333 150 L
337.444 150 L
337.444 150 L
cp
f
GR
GS
[0.75 0 0 0.75 0 0.5] CT
0.4 0.4 1 RC
N
337.444 150 M
337.444 150 L
346.556 150 L
346.556 150 L
cp
f
GR
GS
[0.75 0 0 0.75 0 0.5] CT
0.4 0.4 1 RC
N
346.556 150 M
346.556 150 L
355.667 150 L
355.667 150 L
cp
f
GR
GS
[0.75 0 0 0.75 0 0.5] CT
0.4 0.4 1 RC
N
355.667 150 M
355.667 150 L
364.778 150 L
364.778 150 L
cp
f
GR
GS
[0.75 0 0 0.75 0 0.5] CT
0.4 0.4 1 RC
N
364.778 150 M
364.778 150 L
373.889 150 L
373.889 150 L
cp
f
GR
GS
[0.75 0 0 0.75 0 0.5] CT
0.4 0.4 1 RC
N
373.889 150 M
373.889 150 L
383 150 L
383 150 L
cp
f
GR
GS
[0.75 0 0 0.75 0 0.5] CT
0.4 0.4 1 RC
N
383 150 M
383 150 L
383 150 L
383 150 L
cp
f
GR
GS
[0.75 0 0 0.75 0 0.5] CT
0.4 0.4 1 RC
N
383 150 M
383 150 L
383 150 L
383 150 L
cp
f
GR
GS
[0.75 0 0 0.75 0 0.5] CT
0.4 0.4 1 RC
N
383 150 M
383 150 L
383 150 L
383 150 L
cp
f
GR
GS
[0.75 0 0 0.75 0 0.5] CT
0.4 0.4 1 RC
N
383 150 M
383 150 L
383 150 L
383 150 L
cp
f
GR
GS
[0.75 0 0 0.75 0 0.5] CT
0.4 0.4 1 RC
N
383 150 M
383 150 L
383 150 L
383 150 L
cp
f
GR
GS
[0.75 0 0 0.75 0 0.5] CT
0.4 0.4 1 RC
N
383 150 M
383 150 L
383 150 L
383 150 L
cp
f
GR
GS
[0.75 0 0 0.75 0 0.5] CT
0.4 0.4 1 RC
N
383 150 M
383 147.52 L
383 147.52 L
383 150 L
cp
f
GR
GS
[0.75 0 0 0.75 0 0.5] CT
1 LJ
0.667 LW
N
91.444 150 M
91.444 140.08 L
100.556 140.08 L
S
GR
GS
[0.75 0 0 0.75 0 0.5] CT
1 LJ
0.667 LW
N
100.556 150 M
100.556 150 L
100.556 127.68 L
109.667 127.68 L
S
GR
GS
[0.75 0 0 0.75 0 0.5] CT
1 LJ
0.667 LW
N
109.667 150 M
109.667 150 L
109.667 102.88 L
118.778 102.88 L
118.778 150 L
118.778 150 L
S
GR
GS
[0.75 0 0 0.75 0 0.5] CT
1 LJ
0.667 LW
N
118.778 130.16 M
127.889 130.16 L
S
GR
GS
[0.75 0 0 0.75 0 0.5] CT
1 LJ
0.667 LW
N
127.889 150 M
127.889 150 L
127.889 127.68 L
137 127.68 L
S
GR
GS
[0.75 0 0 0.75 0 0.5] CT
1 LJ
0.667 LW
N
137 150 M
137 150 L
137 112.8 L
146.111 112.8 L
146.111 150 L
146.111 150 L
S
GR
GS
[0.75 0 0 0.75 0 0.5] CT
1 LJ
0.667 LW
N
146.111 137.6 M
155.222 137.6 L
155.222 150 L
155.222 150 L
S
GR
GS
[0.75 0 0 0.75 0 0.5] CT
1 LJ
0.667 LW
N
155.222 137.6 M
164.333 137.6 L
S
GR
GS
[0.75 0 0 0.75 0 0.5] CT
1 LJ
0.667 LW
N
164.333 150 M
164.333 150 L
164.333 127.68 L
173.444 127.68 L
173.444 150 L
173.444 150 L
S
GR
GS
[0.75 0 0 0.75 0 0.5] CT
1 LJ
0.667 LW
N
173.444 135.12 M
182.556 135.12 L
182.556 150 L
182.556 150 L
S
GR
GS
[0.75 0 0 0.75 0 0.5] CT
1 LJ
0.667 LW
N
182.556 140.08 M
191.667 140.08 L
191.667 150 L
191.667 150 L
S
GR
GS
[0.75 0 0 0.75 0 0.5] CT
1 LJ
0.667 LW
N
191.667 142.56 M
200.778 142.56 L
200.778 150 L
200.778 150 L
S
GR
GS
[0.75 0 0 0.75 0 0.5] CT
1 LJ
0.667 LW
N
200.778 142.56 M
209.889 142.56 L
209.889 150 L
209.889 150 L
S
GR
GS
[0.75 0 0 0.75 0 0.5] CT
1 LJ
0.667 LW
N
209.889 150 M
219 150 L
S
GR
GS
[0.75 0 0 0.75 0 0.5] CT
1 LJ
0.667 LW
N
219 150 M
219 150 L
219 147.52 L
228.111 147.52 L
228.111 150 L
228.111 150 L
S
GR
GS
[0.75 0 0 0.75 0 0.5] CT
1 LJ
0.667 LW
N
228.111 150 M
237.222 150 L
S
GR
GS
[0.75 0 0 0.75 0 0.5] CT
1 LJ
0.667 LW
N
237.222 150 M
237.222 150 L
237.222 147.52 L
246.333 147.52 L
246.333 150 L
246.333 150 L
S
GR
GS
[0.75 0 0 0.75 0 0.5] CT
1 LJ
0.667 LW
N
246.333 147.52 M
255.444 147.52 L
255.444 150 L
255.444 150 L
S
GR
GS
[0.75 0 0 0.75 0 0.5] CT
1 LJ
0.667 LW
N
255.444 150 M
264.556 150 L
264.556 150 L
264.556 150 L
S
GR
GS
[0.75 0 0 0.75 0 0.5] CT
1 LJ
0.667 LW
N
264.556 150 M
273.667 150 L
S
GR
GS
[0.75 0 0 0.75 0 0.5] CT
1 LJ
0.667 LW
N
273.667 150 M
273.667 150 L
273.667 147.52 L
282.778 147.52 L
282.778 150 L
282.778 150 L
S
GR
GS
[0.75 0 0 0.75 0 0.5] CT
1 LJ
0.667 LW
N
282.778 147.52 M
291.889 147.52 L
291.889 150 L
291.889 150 L
S
GR
GS
[0.75 0 0 0.75 0 0.5] CT
1 LJ
0.667 LW
N
291.889 147.52 M
301 147.52 L
301 150 L
301 150 L
S
GR
GS
[0.75 0 0 0.75 0 0.5] CT
1 LJ
0.667 LW
N
301 150 M
310.111 150 L
310.111 150 L
310.111 150 L
S
GR
GS
[0.75 0 0 0.75 0 0.5] CT
1 LJ
0.667 LW
N
310.111 150 M
319.222 150 L
S
GR
GS
[0.75 0 0 0.75 0 0.5] CT
1 LJ
0.667 LW
N
319.222 150 M
319.222 150 L
319.222 147.52 L
328.333 147.52 L
328.333 150 L
328.333 150 L
S
GR
GS
[0.75 0 0 0.75 0 0.5] CT
1 LJ
0.667 LW
N
328.333 150 M
337.444 150 L
337.444 150 L
337.444 150 L
S
GR
GS
[0.75 0 0 0.75 0 0.5] CT
1 LJ
0.667 LW
N
337.444 150 M
346.556 150 L
346.556 150 L
346.556 150 L
S
GR
GS
[0.75 0 0 0.75 0 0.5] CT
1 LJ
0.667 LW
N
346.556 150 M
355.667 150 L
355.667 150 L
355.667 150 L
S
GR
GS
[0.75 0 0 0.75 0 0.5] CT
1 LJ
0.667 LW
N
355.667 150 M
364.778 150 L
364.778 150 L
364.778 150 L
S
GR
GS
[0.75 0 0 0.75 0 0.5] CT
1 LJ
0.667 LW
N
364.778 150 M
373.889 150 L
373.889 150 L
373.889 150 L
S
GR
GS
[0.75 0 0 0.75 0 0.5] CT
1 LJ
0.667 LW
N
373.889 150 M
383 150 L
383 150 L
383 150 L
S
GR
GS
[0.75 0 0 0.75 0 0.5] CT
1 LJ
0.667 LW
N
383 150 M
383 150 L
383 150 L
383 150 L
S
GR
GS
[0.75 0 0 0.75 0 0.5] CT
1 LJ
0.667 LW
N
383 150 M
383 150 L
383 150 L
383 150 L
S
GR
GS
[0.75 0 0 0.75 0 0.5] CT
1 LJ
0.667 LW
N
383 150 M
383 150 L
383 150 L
383 150 L
S
GR
GS
[0.75 0 0 0.75 0 0.5] CT
1 LJ
0.667 LW
N
383 150 M
383 150 L
383 150 L
383 150 L
S
GR
GS
[0.75 0 0 0.75 0 0.5] CT
1 LJ
0.667 LW
N
383 150 M
383 150 L
383 150 L
383 150 L
S
GR
GS
[0.75 0 0 0.75 0 0.5] CT
1 LJ
0.667 LW
N
383 150 M
383 150 L
S
GR
GS
[0.75 0 0 0.75 0 0.5] CT
1 LJ
0.667 LW
N
383 150 M
383 150 L
383 147.52 L
383 147.52 L
383 150 L
S
GR
GS
[0.75 0 0 0.75 0 0.5] CT
1 GC
N
55 255 M
383 255 L
383 193 L
55 193 L
cp
f
GR
GS
[0.75 0 0 0.75 0 0.5] CT
0.149 GC
2 setlinecap
1 LJ
0.667 LW
N
55 255 M
383 255 L
S
GR
GS
[0.75 0 0 0.75 0 0.5] CT
0.149 GC
2 setlinecap
1 LJ
0.667 LW
N
55 193 M
383 193 L
S
GR
GS
[0.75 0 0 0.75 0 0.5] CT
0.149 GC
2 setlinecap
1 LJ
0.667 LW
N
55 255 M
55 193 L
S
GR
GS
[0.75 0 0 0.75 0 0.5] CT
0.149 GC
2 setlinecap
1 LJ
0.667 LW
N
383 255 M
383 193 L
S
GR
GS
[0.75 0 0 0.75 0 0.5] CT
0.149 GC
2 setlinecap
1 LJ
0.667 LW
N
55 255 M
58.28 255 L
S
GR
GS
[0.75 0 0 0.75 0 0.5] CT
0.149 GC
2 setlinecap
1 LJ
0.667 LW
N
55 234.333 M
58.28 234.333 L
S
GR
GS
[0.75 0 0 0.75 0 0.5] CT
0.149 GC
2 setlinecap
1 LJ
0.667 LW
N
55 213.667 M
58.28 213.667 L
S
GR
GS
[0.75 0 0 0.75 0 0.5] CT
0.149 GC
2 setlinecap
1 LJ
0.667 LW
N
55 193 M
58.28 193 L
S
GR
GS
[0.75 0 0 0.75 0 0.5] CT
0.149 GC
2 setlinecap
1 LJ
0.667 LW
N
383 255 M
379.72 255 L
S
GR
GS
[0.75 0 0 0.75 0 0.5] CT
0.149 GC
2 setlinecap
1 LJ
0.667 LW
N
383 234.333 M
379.72 234.333 L
S
GR
GS
[0.75 0 0 0.75 0 0.5] CT
0.149 GC
2 setlinecap
1 LJ
0.667 LW
N
383 213.667 M
379.72 213.667 L
S
GR
GS
[0.75 0 0 0.75 0 0.5] CT
0.149 GC
2 setlinecap
1 LJ
0.667 LW
N
383 193 M
379.72 193 L
S
GR
GS
[0.75 0 0 0.75 37.25 191.75] CT
0.149 GC
/Helvetica 13 F
GS
[1 0 0 1 0 0] CT
-8 5.5 moveto 
1 -1 scale
(0) t 
GR
GR
GS
[0.75 0 0 0.75 37.25 176.25] CT
0.149 GC
/Helvetica 13 F
GS
[1 0 0 1 0 0] CT
-15 5.5 moveto 
1 -1 scale
(10) t 
GR
GR
GS
[0.75 0 0 0.75 37.25 160.75] CT
0.149 GC
/Helvetica 13 F
GS
[1 0 0 1 0 0] CT
-15 5.5 moveto 
1 -1 scale
(20) t 
GR
GR
GS
[0.75 0 0 0.75 37.25 145.25] CT
0.149 GC
/Helvetica 13 F
GS
[1 0 0 1 0 0] CT
-15 5.5 moveto 
1 -1 scale
(30) t 
GR
GR
GS
[0.75 0 0 0.75 164.25016 143.1875] CT
/Helvetica-Bold 15 F
GS
[1 0 0 1 0 0] CT
-33 -4 moveto 
1 -1 scale
(Luc1-268) t 
GR
GR
GS
[0.75 0 0 0.75 0 0.5] CT
0.4 0.4 1 RC
N
91.444 255 M
91.444 250.867 L
100.556 250.867 L
100.556 255 L
cp
f
GR
GS
[0.75 0 0 0.75 0 0.5] CT
0.4 0.4 1 RC
N
100.556 255 M
100.556 244.667 L
109.667 244.667 L
109.667 255 L
cp
f
GR
GS
[0.75 0 0 0.75 0 0.5] CT
0.4 0.4 1 RC
N
109.667 255 M
109.667 244.667 L
118.778 244.667 L
118.778 255 L
cp
f
GR
GS
[0.75 0 0 0.75 0 0.5] CT
0.4 0.4 1 RC
N
118.778 255 M
118.778 238.467 L
127.889 238.467 L
127.889 255 L
cp
f
GR
GS
[0.75 0 0 0.75 0 0.5] CT
0.4 0.4 1 RC
N
127.889 255 M
127.889 240.533 L
137 240.533 L
137 255 L
cp
f
GR
GS
[0.75 0 0 0.75 0 0.5] CT
0.4 0.4 1 RC
N
137 255 M
137 238.467 L
146.111 238.467 L
146.111 255 L
cp
f
GR
GS
[0.75 0 0 0.75 0 0.5] CT
0.4 0.4 1 RC
N
146.111 255 M
146.111 232.267 L
155.222 232.267 L
155.222 255 L
cp
f
GR
GS
[0.75 0 0 0.75 0 0.5] CT
0.4 0.4 1 RC
N
155.222 255 M
155.222 234.333 L
164.333 234.333 L
164.333 255 L
cp
f
GR
GS
[0.75 0 0 0.75 0 0.5] CT
0.4 0.4 1 RC
N
164.333 255 M
164.333 250.867 L
173.444 250.867 L
173.444 255 L
cp
f
GR
GS
[0.75 0 0 0.75 0 0.5] CT
0.4 0.4 1 RC
N
173.444 255 M
173.444 242.6 L
182.556 242.6 L
182.556 255 L
cp
f
GR
GS
[0.75 0 0 0.75 0 0.5] CT
0.4 0.4 1 RC
N
182.556 255 M
182.556 240.533 L
191.667 240.533 L
191.667 255 L
cp
f
GR
GS
[0.75 0 0 0.75 0 0.5] CT
0.4 0.4 1 RC
N
191.667 255 M
191.667 238.467 L
200.778 238.467 L
200.778 255 L
cp
f
GR
GS
[0.75 0 0 0.75 0 0.5] CT
0.4 0.4 1 RC
N
200.778 255 M
200.778 244.667 L
209.889 244.667 L
209.889 255 L
cp
f
GR
GS
[0.75 0 0 0.75 0 0.5] CT
0.4 0.4 1 RC
N
209.889 255 M
209.889 246.733 L
219 246.733 L
219 255 L
cp
f
GR
GS
[0.75 0 0 0.75 0 0.5] CT
1 LJ
0.667 LW
N
91.444 255 M
91.444 250.867 L
100.556 250.867 L
S
GR
GS
[0.75 0 0 0.75 0 0.5] CT
1 LJ
0.667 LW
N
100.556 255 M
100.556 255 L
100.556 244.667 L
109.667 244.667 L
109.667 255 L
109.667 255 L
S
GR
GS
[0.75 0 0 0.75 0 0.5] CT
1 LJ
0.667 LW
N
109.667 244.667 M
118.778 244.667 L
S
GR
GS
[0.75 0 0 0.75 0 0.5] CT
1 LJ
0.667 LW
N
118.778 255 M
118.778 255 L
118.778 238.467 L
127.889 238.467 L
127.889 255 L
127.889 255 L
S
GR
GS
[0.75 0 0 0.75 0 0.5] CT
1 LJ
0.667 LW
N
127.889 240.533 M
137 240.533 L
S
GR
GS
[0.75 0 0 0.75 0 0.5] CT
1 LJ
0.667 LW
N
137 255 M
137 255 L
137 238.467 L
146.111 238.467 L
S
GR
GS
[0.75 0 0 0.75 0 0.5] CT
1 LJ
0.667 LW
N
146.111 255 M
146.111 255 L
146.111 232.267 L
155.222 232.267 L
155.222 255 L
155.222 255 L
S
GR
GS
[0.75 0 0 0.75 0 0.5] CT
1 LJ
0.667 LW
N
155.222 234.333 M
164.333 234.333 L
164.333 255 L
164.333 255 L
S
GR
GS
[0.75 0 0 0.75 0 0.5] CT
1 LJ
0.667 LW
N
164.333 250.867 M
173.444 250.867 L
S
GR
GS
[0.75 0 0 0.75 0 0.5] CT
1 LJ
0.667 LW
N
173.444 255 M
173.444 255 L
173.444 242.6 L
182.556 242.6 L
S
GR
GS
[0.75 0 0 0.75 0 0.5] CT
1 LJ
0.667 LW
N
182.556 255 M
182.556 255 L
182.556 240.533 L
191.667 240.533 L
S
GR
GS
[0.75 0 0 0.75 0 0.5] CT
1 LJ
0.667 LW
N
191.667 255 M
191.667 255 L
191.667 238.467 L
200.778 238.467 L
200.778 255 L
200.778 255 L
S
GR
GS
[0.75 0 0 0.75 0 0.5] CT
1 LJ
0.667 LW
N
200.778 244.667 M
209.889 244.667 L
209.889 255 L
209.889 255 L
S
GR
GS
[0.75 0 0 0.75 0 0.5] CT
1 LJ
0.667 LW
N
209.889 246.733 M
219 246.733 L
219 255 L
S
GR
GS
[0.75 0 0 0.75 0 0.5] CT
1 GC
N
55 360 M
383 360 L
383 298 L
55 298 L
cp
f
GR
GS
[0.75 0 0 0.75 0 0.5] CT
0.149 GC
2 setlinecap
1 LJ
0.667 LW
N
55 360 M
383 360 L
S
GR
GS
[0.75 0 0 0.75 0 0.5] CT
0.149 GC
2 setlinecap
1 LJ
0.667 LW
N
55 298 M
383 298 L
S
GR
GS
[0.75 0 0 0.75 0 0.5] CT
0.149 GC
2 setlinecap
1 LJ
0.667 LW
N
55 360 M
55 298 L
S
GR
GS
[0.75 0 0 0.75 0 0.5] CT
0.149 GC
2 setlinecap
1 LJ
0.667 LW
N
383 360 M
383 298 L
S
GR
GS
[0.75 0 0 0.75 0 0.5] CT
0.149 GC
2 setlinecap
1 LJ
0.667 LW
N
55 360 M
58.28 360 L
S
GR
GS
[0.75 0 0 0.75 0 0.5] CT
0.149 GC
2 setlinecap
1 LJ
0.667 LW
N
55 335.2 M
58.28 335.2 L
S
GR
GS
[0.75 0 0 0.75 0 0.5] CT
0.149 GC
2 setlinecap
1 LJ
0.667 LW
N
55 310.4 M
58.28 310.4 L
S
GR
GS
[0.75 0 0 0.75 0 0.5] CT
0.149 GC
2 setlinecap
1 LJ
0.667 LW
N
383 360 M
379.72 360 L
S
GR
GS
[0.75 0 0 0.75 0 0.5] CT
0.149 GC
2 setlinecap
1 LJ
0.667 LW
N
383 335.2 M
379.72 335.2 L
S
GR
GS
[0.75 0 0 0.75 0 0.5] CT
0.149 GC
2 setlinecap
1 LJ
0.667 LW
N
383 310.4 M
379.72 310.4 L
S
GR
GS
[0.75 0 0 0.75 37.25 270.5] CT
0.149 GC
/Helvetica 13 F
GS
[1 0 0 1 0 0] CT
-8 5.5 moveto 
1 -1 scale
(0) t 
GR
GR
GS
[0.75 0 0 0.75 37.25 251.90001] CT
0.149 GC
/Helvetica 13 F
GS
[1 0 0 1 0 0] CT
-15 5.5 moveto 
1 -1 scale
(10) t 
GR
GR
GS
[0.75 0 0 0.75 37.25 233.3] CT
0.149 GC
/Helvetica 13 F
GS
[1 0 0 1 0 0] CT
-15 5.5 moveto 
1 -1 scale
(20) t 
GR
GR
GS
[0.75 0 0 0.75 164.25016 221.9375] CT
/Helvetica-Bold 15 F
GS
[1 0 0 1 0 0] CT
-57 -4 moveto 
1 -1 scale
(Luc1-450-Peak1) t 
GR
GR
GS
[0.75 0 0 0.75 0 0.5] CT
0.4 0.4 1 RC
N
82.333 360 M
82.333 350.08 L
91.444 350.08 L
91.444 360 L
cp
f
GR
GS
[0.75 0 0 0.75 0 0.5] CT
0.4 0.4 1 RC
N
91.444 360 M
91.444 327.76 L
100.556 327.76 L
100.556 360 L
cp
f
GR
GS
[0.75 0 0 0.75 0 0.5] CT
0.4 0.4 1 RC
N
100.556 360 M
100.556 310.4 L
109.667 310.4 L
109.667 360 L
cp
f
GR
GS
[0.75 0 0 0.75 0 0.5] CT
0.4 0.4 1 RC
N
109.667 360 M
109.667 302.96 L
118.778 302.96 L
118.778 360 L
cp
f
GR
GS
[0.75 0 0 0.75 0 0.5] CT
0.4 0.4 1 RC
N
118.778 360 M
118.778 305.44 L
127.889 305.44 L
127.889 360 L
cp
f
GR
GS
[0.75 0 0 0.75 0 0.5] CT
0.4 0.4 1 RC
N
127.889 360 M
127.889 325.28 L
137 325.28 L
137 360 L
cp
f
GR
GS
[0.75 0 0 0.75 0 0.5] CT
0.4 0.4 1 RC
N
137 360 M
137 337.68 L
146.111 337.68 L
146.111 360 L
cp
f
GR
GS
[0.75 0 0 0.75 0 0.5] CT
0.4 0.4 1 RC
N
146.111 360 M
146.111 345.12 L
155.222 345.12 L
155.222 360 L
cp
f
GR
GS
[0.75 0 0 0.75 0 0.5] CT
0.4 0.4 1 RC
N
155.222 360 M
155.222 347.6 L
164.333 347.6 L
164.333 360 L
cp
f
GR
GS
[0.75 0 0 0.75 0 0.5] CT
0.4 0.4 1 RC
N
164.333 360 M
164.333 357.52 L
173.444 357.52 L
173.444 360 L
cp
f
GR
GS
[0.75 0 0 0.75 0 0.5] CT
0.4 0.4 1 RC
N
173.444 360 M
173.444 360 L
182.556 360 L
182.556 360 L
cp
f
GR
GS
[0.75 0 0 0.75 0 0.5] CT
0.4 0.4 1 RC
N
182.556 360 M
182.556 357.52 L
191.667 357.52 L
191.667 360 L
cp
f
GR
GS
[0.75 0 0 0.75 0 0.5] CT
0.4 0.4 1 RC
N
191.667 360 M
191.667 357.52 L
200.778 357.52 L
200.778 360 L
cp
f
GR
GS
[0.75 0 0 0.75 0 0.5] CT
0.4 0.4 1 RC
N
200.778 360 M
200.778 355.04 L
209.889 355.04 L
209.889 360 L
cp
f
GR
GS
[0.75 0 0 0.75 0 0.5] CT
0.4 0.4 1 RC
N
209.889 360 M
209.889 357.52 L
219 357.52 L
219 360 L
cp
f
GR
GS
[0.75 0 0 0.75 0 0.5] CT
0.4 0.4 1 RC
N
219 360 M
219 360 L
228.111 360 L
228.111 360 L
cp
f
GR
GS
[0.75 0 0 0.75 0 0.5] CT
0.4 0.4 1 RC
N
228.111 360 M
228.111 360 L
237.222 360 L
237.222 360 L
cp
f
GR
GS
[0.75 0 0 0.75 0 0.5] CT
0.4 0.4 1 RC
N
237.222 360 M
237.222 360 L
246.333 360 L
246.333 360 L
cp
f
GR
GS
[0.75 0 0 0.75 0 0.5] CT
0.4 0.4 1 RC
N
246.333 360 M
246.333 360 L
255.444 360 L
255.444 360 L
cp
f
GR
GS
[0.75 0 0 0.75 0 0.5] CT
0.4 0.4 1 RC
N
255.444 360 M
255.444 360 L
264.556 360 L
264.556 360 L
cp
f
GR
GS
[0.75 0 0 0.75 0 0.5] CT
0.4 0.4 1 RC
N
264.556 360 M
264.556 360 L
273.667 360 L
273.667 360 L
cp
f
GR
GS
[0.75 0 0 0.75 0 0.5] CT
0.4 0.4 1 RC
N
273.667 360 M
273.667 360 L
282.778 360 L
282.778 360 L
cp
f
GR
GS
[0.75 0 0 0.75 0 0.5] CT
0.4 0.4 1 RC
N
282.778 360 M
282.778 360 L
291.889 360 L
291.889 360 L
cp
f
GR
GS
[0.75 0 0 0.75 0 0.5] CT
0.4 0.4 1 RC
N
291.889 360 M
291.889 360 L
301 360 L
301 360 L
cp
f
GR
GS
[0.75 0 0 0.75 0 0.5] CT
0.4 0.4 1 RC
N
301 360 M
301 360 L
310.111 360 L
310.111 360 L
cp
f
GR
GS
[0.75 0 0 0.75 0 0.5] CT
0.4 0.4 1 RC
N
310.111 360 M
310.111 360 L
319.222 360 L
319.222 360 L
cp
f
GR
GS
[0.75 0 0 0.75 0 0.5] CT
0.4 0.4 1 RC
N
319.222 360 M
319.222 357.52 L
328.333 357.52 L
328.333 360 L
cp
f
GR
GS
[0.75 0 0 0.75 0 0.5] CT
1 LJ
0.667 LW
N
82.333 360 M
82.333 350.08 L
91.444 350.08 L
S
GR
GS
[0.75 0 0 0.75 0 0.5] CT
1 LJ
0.667 LW
N
91.444 360 M
91.444 360 L
91.444 327.76 L
100.556 327.76 L
S
GR
GS
[0.75 0 0 0.75 0 0.5] CT
1 LJ
0.667 LW
N
100.556 360 M
100.556 360 L
100.556 310.4 L
109.667 310.4 L
S
GR
GS
[0.75 0 0 0.75 0 0.5] CT
1 LJ
0.667 LW
N
109.667 360 M
109.667 360 L
109.667 302.96 L
118.778 302.96 L
118.778 360 L
118.778 360 L
S
GR
GS
[0.75 0 0 0.75 0 0.5] CT
1 LJ
0.667 LW
N
118.778 305.44 M
127.889 305.44 L
127.889 360 L
127.889 360 L
S
GR
GS
[0.75 0 0 0.75 0 0.5] CT
1 LJ
0.667 LW
N
127.889 325.28 M
137 325.28 L
137 360 L
137 360 L
S
GR
GS
[0.75 0 0 0.75 0 0.5] CT
1 LJ
0.667 LW
N
137 337.68 M
146.111 337.68 L
146.111 360 L
146.111 360 L
S
GR
GS
[0.75 0 0 0.75 0 0.5] CT
1 LJ
0.667 LW
N
146.111 345.12 M
155.222 345.12 L
155.222 360 L
155.222 360 L
S
GR
GS
[0.75 0 0 0.75 0 0.5] CT
1 LJ
0.667 LW
N
155.222 347.6 M
164.333 347.6 L
164.333 360 L
164.333 360 L
S
GR
GS
[0.75 0 0 0.75 0 0.5] CT
1 LJ
0.667 LW
N
164.333 357.52 M
173.444 357.52 L
173.444 360 L
173.444 360 L
S
GR
GS
[0.75 0 0 0.75 0 0.5] CT
1 LJ
0.667 LW
N
173.444 360 M
182.556 360 L
S
GR
GS
[0.75 0 0 0.75 0 0.5] CT
1 LJ
0.667 LW
N
182.556 360 M
182.556 360 L
182.556 357.52 L
191.667 357.52 L
191.667 360 L
191.667 360 L
S
GR
GS
[0.75 0 0 0.75 0 0.5] CT
1 LJ
0.667 LW
N
191.667 357.52 M
200.778 357.52 L
S
GR
GS
[0.75 0 0 0.75 0 0.5] CT
1 LJ
0.667 LW
N
200.778 360 M
200.778 360 L
200.778 355.04 L
209.889 355.04 L
209.889 360 L
209.889 360 L
S
GR
GS
[0.75 0 0 0.75 0 0.5] CT
1 LJ
0.667 LW
N
209.889 357.52 M
219 357.52 L
219 360 L
219 360 L
S
GR
GS
[0.75 0 0 0.75 0 0.5] CT
1 LJ
0.667 LW
N
219 360 M
228.111 360 L
228.111 360 L
228.111 360 L
S
GR
GS
[0.75 0 0 0.75 0 0.5] CT
1 LJ
0.667 LW
N
228.111 360 M
237.222 360 L
237.222 360 L
237.222 360 L
S
GR
GS
[0.75 0 0 0.75 0 0.5] CT
1 LJ
0.667 LW
N
237.222 360 M
246.333 360 L
246.333 360 L
246.333 360 L
S
GR
GS
[0.75 0 0 0.75 0 0.5] CT
1 LJ
0.667 LW
N
246.333 360 M
255.444 360 L
255.444 360 L
255.444 360 L
S
GR
GS
[0.75 0 0 0.75 0 0.5] CT
1 LJ
0.667 LW
N
255.444 360 M
264.556 360 L
264.556 360 L
264.556 360 L
S
GR
GS
[0.75 0 0 0.75 0 0.5] CT
1 LJ
0.667 LW
N
264.556 360 M
273.667 360 L
273.667 360 L
273.667 360 L
S
GR
GS
[0.75 0 0 0.75 0 0.5] CT
1 LJ
0.667 LW
N
273.667 360 M
282.778 360 L
282.778 360 L
282.778 360 L
S
GR
GS
[0.75 0 0 0.75 0 0.5] CT
1 LJ
0.667 LW
N
282.778 360 M
291.889 360 L
291.889 360 L
291.889 360 L
S
GR
GS
[0.75 0 0 0.75 0 0.5] CT
1 LJ
0.667 LW
N
291.889 360 M
301 360 L
301 360 L
301 360 L
S
GR
GS
[0.75 0 0 0.75 0 0.5] CT
1 LJ
0.667 LW
N
301 360 M
310.111 360 L
310.111 360 L
310.111 360 L
S
GR
GS
[0.75 0 0 0.75 0 0.5] CT
1 LJ
0.667 LW
N
310.111 360 M
319.222 360 L
S
GR
GS
[0.75 0 0 0.75 0 0.5] CT
1 LJ
0.667 LW
N
319.222 360 M
319.222 360 L
319.222 357.52 L
328.333 357.52 L
328.333 360 L
S
GR
GS
[0.75 0 0 0.75 0 0.5] CT
1 GC
N
55 465 M
383 465 L
383 403 L
55 403 L
cp
f
GR
GS
[0.75 0 0 0.75 0 0.5] CT
0.149 GC
2 setlinecap
1 LJ
0.667 LW
N
55 465 M
383 465 L
S
GR
GS
[0.75 0 0 0.75 0 0.5] CT
0.149 GC
2 setlinecap
1 LJ
0.667 LW
N
55 403 M
383 403 L
S
GR
GS
[0.75 0 0 0.75 0 0.5] CT
0.149 GC
2 setlinecap
1 LJ
0.667 LW
N
55 465 M
55 403 L
S
GR
GS
[0.75 0 0 0.75 0 0.5] CT
0.149 GC
2 setlinecap
1 LJ
0.667 LW
N
383 465 M
383 403 L
S
GR
GS
[0.75 0 0 0.75 0 0.5] CT
0.149 GC
2 setlinecap
1 LJ
0.667 LW
N
55 465 M
58.28 465 L
S
GR
GS
[0.75 0 0 0.75 0 0.5] CT
0.149 GC
2 setlinecap
1 LJ
0.667 LW
N
55 440.2 M
58.28 440.2 L
S
GR
GS
[0.75 0 0 0.75 0 0.5] CT
0.149 GC
2 setlinecap
1 LJ
0.667 LW
N
55 415.4 M
58.28 415.4 L
S
GR
GS
[0.75 0 0 0.75 0 0.5] CT
0.149 GC
2 setlinecap
1 LJ
0.667 LW
N
383 465 M
379.72 465 L
S
GR
GS
[0.75 0 0 0.75 0 0.5] CT
0.149 GC
2 setlinecap
1 LJ
0.667 LW
N
383 440.2 M
379.72 440.2 L
S
GR
GS
[0.75 0 0 0.75 0 0.5] CT
0.149 GC
2 setlinecap
1 LJ
0.667 LW
N
383 415.4 M
379.72 415.4 L
S
GR
GS
[0.75 0 0 0.75 37.25 349.25] CT
0.149 GC
/Helvetica 13 F
GS
[1 0 0 1 0 0] CT
-8 5.5 moveto 
1 -1 scale
(0) t 
GR
GR
GS
[0.75 0 0 0.75 37.25 330.65001] CT
0.149 GC
/Helvetica 13 F
GS
[1 0 0 1 0 0] CT
-15 5.5 moveto 
1 -1 scale
(10) t 
GR
GR
GS
[0.75 0 0 0.75 37.25 312.05] CT
0.149 GC
/Helvetica 13 F
GS
[1 0 0 1 0 0] CT
-15 5.5 moveto 
1 -1 scale
(20) t 
GR
GR
GS
[0.75 0 0 0.75 164.25016 300.6875] CT
/Helvetica-Bold 15 F
GS
[1 0 0 1 0 0] CT
-57 -4 moveto 
1 -1 scale
(Luc1-450-Peak2) t 
GR
GR
GS
[0.75 0 0 0.75 0 0.5] CT
0.4 0.4 1 RC
N
91.444 465 M
91.444 462.52 L
100.556 462.52 L
100.556 465 L
cp
f
GR
GS
[0.75 0 0 0.75 0 0.5] CT
0.4 0.4 1 RC
N
100.556 465 M
100.556 462.52 L
109.667 462.52 L
109.667 465 L
cp
f
GR
GS
[0.75 0 0 0.75 0 0.5] CT
0.4 0.4 1 RC
N
109.667 465 M
109.667 457.56 L
118.778 457.56 L
118.778 465 L
cp
f
GR
GS
[0.75 0 0 0.75 0 0.5] CT
0.4 0.4 1 RC
N
118.778 465 M
118.778 430.28 L
127.889 430.28 L
127.889 465 L
cp
f
GR
GS
[0.75 0 0 0.75 0 0.5] CT
0.4 0.4 1 RC
N
127.889 465 M
127.889 412.92 L
137 412.92 L
137 465 L
cp
f
GR
GS
[0.75 0 0 0.75 0 0.5] CT
0.4 0.4 1 RC
N
137 465 M
137 425.32 L
146.111 425.32 L
146.111 465 L
cp
f
GR
GS
[0.75 0 0 0.75 0 0.5] CT
0.4 0.4 1 RC
N
146.111 465 M
146.111 420.36 L
155.222 420.36 L
155.222 465 L
cp
f
GR
GS
[0.75 0 0 0.75 0 0.5] CT
0.4 0.4 1 RC
N
155.222 465 M
155.222 430.28 L
164.333 430.28 L
164.333 465 L
cp
f
GR
GS
[0.75 0 0 0.75 0 0.5] CT
0.4 0.4 1 RC
N
164.333 465 M
164.333 430.28 L
173.444 430.28 L
173.444 465 L
cp
f
GR
GS
[0.75 0 0 0.75 0 0.5] CT
0.4 0.4 1 RC
N
173.444 465 M
173.444 447.64 L
182.556 447.64 L
182.556 465 L
cp
f
GR
GS
[0.75 0 0 0.75 0 0.5] CT
0.4 0.4 1 RC
N
182.556 465 M
182.556 457.56 L
191.667 457.56 L
191.667 465 L
cp
f
GR
GS
[0.75 0 0 0.75 0 0.5] CT
0.4 0.4 1 RC
N
191.667 465 M
191.667 465 L
200.778 465 L
200.778 465 L
cp
f
GR
GS
[0.75 0 0 0.75 0 0.5] CT
0.4 0.4 1 RC
N
200.778 465 M
200.778 455.08 L
209.889 455.08 L
209.889 465 L
cp
f
GR
GS
[0.75 0 0 0.75 0 0.5] CT
0.4 0.4 1 RC
N
209.889 465 M
209.889 455.08 L
219 455.08 L
219 465 L
cp
f
GR
GS
[0.75 0 0 0.75 0 0.5] CT
0.4 0.4 1 RC
N
219 465 M
219 465 L
228.111 465 L
228.111 465 L
cp
f
GR
GS
[0.75 0 0 0.75 0 0.5] CT
0.4 0.4 1 RC
N
228.111 465 M
228.111 462.52 L
237.222 462.52 L
237.222 465 L
cp
f
GR
GS
[0.75 0 0 0.75 0 0.5] CT
0.4 0.4 1 RC
N
237.222 465 M
237.222 465 L
246.333 465 L
246.333 465 L
cp
f
GR
GS
[0.75 0 0 0.75 0 0.5] CT
0.4 0.4 1 RC
N
246.333 465 M
246.333 465 L
255.444 465 L
255.444 465 L
cp
f
GR
GS
[0.75 0 0 0.75 0 0.5] CT
0.4 0.4 1 RC
N
255.444 465 M
255.444 465 L
264.556 465 L
264.556 465 L
cp
f
GR
GS
[0.75 0 0 0.75 0 0.5] CT
0.4 0.4 1 RC
N
264.556 465 M
264.556 465 L
273.667 465 L
273.667 465 L
cp
f
GR
GS
[0.75 0 0 0.75 0 0.5] CT
0.4 0.4 1 RC
N
273.667 465 M
273.667 465 L
282.778 465 L
282.778 465 L
cp
f
GR
GS
[0.75 0 0 0.75 0 0.5] CT
0.4 0.4 1 RC
N
282.778 465 M
282.778 465 L
291.889 465 L
291.889 465 L
cp
f
GR
GS
[0.75 0 0 0.75 0 0.5] CT
0.4 0.4 1 RC
N
291.889 465 M
291.889 462.52 L
301 462.52 L
301 465 L
cp
f
GR
GS
[0.75 0 0 0.75 0 0.5] CT
1 LJ
0.667 LW
N
91.444 465 M
91.444 462.52 L
100.556 462.52 L
100.556 465 L
100.556 465 L
S
GR
GS
[0.75 0 0 0.75 0 0.5] CT
1 LJ
0.667 LW
N
100.556 462.52 M
109.667 462.52 L
S
GR
GS
[0.75 0 0 0.75 0 0.5] CT
1 LJ
0.667 LW
N
109.667 465 M
109.667 465 L
109.667 457.56 L
118.778 457.56 L
S
GR
GS
[0.75 0 0 0.75 0 0.5] CT
1 LJ
0.667 LW
N
118.778 465 M
118.778 465 L
118.778 430.28 L
127.889 430.28 L
S
GR
GS
[0.75 0 0 0.75 0 0.5] CT
1 LJ
0.667 LW
N
127.889 465 M
127.889 465 L
127.889 412.92 L
137 412.92 L
137 465 L
137 465 L
S
GR
GS
[0.75 0 0 0.75 0 0.5] CT
1 LJ
0.667 LW
N
137 425.32 M
146.111 425.32 L
S
GR
GS
[0.75 0 0 0.75 0 0.5] CT
1 LJ
0.667 LW
N
146.111 465 M
146.111 465 L
146.111 420.36 L
155.222 420.36 L
155.222 465 L
155.222 465 L
S
GR
GS
[0.75 0 0 0.75 0 0.5] CT
1 LJ
0.667 LW
N
155.222 430.28 M
164.333 430.28 L
164.333 465 L
164.333 465 L
S
GR
GS
[0.75 0 0 0.75 0 0.5] CT
1 LJ
0.667 LW
N
164.333 430.28 M
173.444 430.28 L
173.444 465 L
173.444 465 L
S
GR
GS
[0.75 0 0 0.75 0 0.5] CT
1 LJ
0.667 LW
N
173.444 447.64 M
182.556 447.64 L
182.556 465 L
182.556 465 L
S
GR
GS
[0.75 0 0 0.75 0 0.5] CT
1 LJ
0.667 LW
N
182.556 457.56 M
191.667 457.56 L
191.667 465 L
191.667 465 L
S
GR
GS
[0.75 0 0 0.75 0 0.5] CT
1 LJ
0.667 LW
N
191.667 465 M
200.778 465 L
S
GR
GS
[0.75 0 0 0.75 0 0.5] CT
1 LJ
0.667 LW
N
200.778 465 M
200.778 465 L
200.778 455.08 L
209.889 455.08 L
209.889 465 L
209.889 465 L
S
GR
GS
[0.75 0 0 0.75 0 0.5] CT
1 LJ
0.667 LW
N
209.889 455.08 M
219 455.08 L
219 465 L
219 465 L
S
GR
GS
[0.75 0 0 0.75 0 0.5] CT
1 LJ
0.667 LW
N
219 465 M
228.111 465 L
S
GR
GS
[0.75 0 0 0.75 0 0.5] CT
1 LJ
0.667 LW
N
228.111 465 M
228.111 465 L
228.111 462.52 L
237.222 462.52 L
237.222 465 L
237.222 465 L
S
GR
GS
[0.75 0 0 0.75 0 0.5] CT
1 LJ
0.667 LW
N
237.222 465 M
246.333 465 L
246.333 465 L
246.333 465 L
S
GR
GS
[0.75 0 0 0.75 0 0.5] CT
1 LJ
0.667 LW
N
246.333 465 M
255.444 465 L
255.444 465 L
255.444 465 L
S
GR
GS
[0.75 0 0 0.75 0 0.5] CT
1 LJ
0.667 LW
N
255.444 465 M
264.556 465 L
264.556 465 L
264.556 465 L
S
GR
GS
[0.75 0 0 0.75 0 0.5] CT
1 LJ
0.667 LW
N
264.556 465 M
273.667 465 L
273.667 465 L
273.667 465 L
S
GR
GS
[0.75 0 0 0.75 0 0.5] CT
1 LJ
0.667 LW
N
273.667 465 M
282.778 465 L
282.778 465 L
282.778 465 L
S
GR
GS
[0.75 0 0 0.75 0 0.5] CT
1 LJ
0.667 LW
N
282.778 465 M
291.889 465 L
S
GR
GS
[0.75 0 0 0.75 0 0.5] CT
1 LJ
0.667 LW
N
291.889 465 M
291.889 465 L
291.889 462.52 L
301 462.52 L
301 465 L
S
GR
GS
[0.75 0 0 0.75 0 0.5] CT
1 GC
N
55 570 M
383 570 L
383 507 L
55 507 L
cp
f
GR
GS
[0.75 0 0 0.75 0 0.5] CT
0.149 GC
2 setlinecap
1 LJ
0.667 LW
N
55 570 M
383 570 L
S
GR
GS
[0.75 0 0 0.75 0 0.5] CT
0.149 GC
2 setlinecap
1 LJ
0.667 LW
N
55 507 M
383 507 L
S
GR
GS
[0.75 0 0 0.75 0 0.5] CT
0.149 GC
2 setlinecap
1 LJ
0.667 LW
N
55 570 M
55 507 L
S
GR
GS
[0.75 0 0 0.75 0 0.5] CT
0.149 GC
2 setlinecap
1 LJ
0.667 LW
N
383 570 M
383 507 L
S
GR
GS
[0.75 0 0 0.75 0 0.5] CT
0.149 GC
2 setlinecap
1 LJ
0.667 LW
N
55 570 M
58.28 570 L
S
GR
GS
[0.75 0 0 0.75 0 0.5] CT
0.149 GC
2 setlinecap
1 LJ
0.667 LW
N
55 538.5 M
58.28 538.5 L
S
GR
GS
[0.75 0 0 0.75 0 0.5] CT
0.149 GC
2 setlinecap
1 LJ
0.667 LW
N
55 507 M
58.28 507 L
S
GR
GS
[0.75 0 0 0.75 0 0.5] CT
0.149 GC
2 setlinecap
1 LJ
0.667 LW
N
383 570 M
379.72 570 L
S
GR
GS
[0.75 0 0 0.75 0 0.5] CT
0.149 GC
2 setlinecap
1 LJ
0.667 LW
N
383 538.5 M
379.72 538.5 L
S
GR
GS
[0.75 0 0 0.75 0 0.5] CT
0.149 GC
2 setlinecap
1 LJ
0.667 LW
N
383 507 M
379.72 507 L
S
GR
GS
[0.75 0 0 0.75 37.25 428] CT
0.149 GC
/Helvetica 13 F
GS
[1 0 0 1 0 0] CT
-8 5.5 moveto 
1 -1 scale
(0) t 
GR
GR
GS
[0.75 0 0 0.75 37.25 404.375] CT
0.149 GC
/Helvetica 13 F
GS
[1 0 0 1 0 0] CT
-8 5.5 moveto 
1 -1 scale
(5) t 
GR
GR
GS
[0.75 0 0 0.75 37.25 380.75] CT
0.149 GC
/Helvetica 13 F
GS
[1 0 0 1 0 0] CT
-15 5.5 moveto 
1 -1 scale
(10) t 
GR
GR
GS
[0.75 0 0 0.75 164.25016 378.6875] CT
/Helvetica-Bold 15 F
GS
[1 0 0 1 0 0] CT
-37 -4 moveto 
1 -1 scale
(Luc46-180) t 
GR
GR
GS
[0.75 0 0 0.75 0 0.5] CT
0.4 0.4 1 RC
N
55 570 M
55 563.7 L
55 563.7 L
55 570 L
cp
f
GR
GS
[0.75 0 0 0.75 0 0.5] CT
0.4 0.4 1 RC
N
55 570 M
55 570 L
73.222 570 L
73.222 570 L
cp
f
GR
GS
[0.75 0 0 0.75 0 0.5] CT
0.4 0.4 1 RC
N
73.222 570 M
73.222 563.7 L
91.444 563.7 L
91.444 570 L
cp
f
GR
GS
[0.75 0 0 0.75 0 0.5] CT
0.4 0.4 1 RC
N
91.444 570 M
91.444 563.7 L
109.667 563.7 L
109.667 570 L
cp
f
GR
GS
[0.75 0 0 0.75 0 0.5] CT
0.4 0.4 1 RC
N
109.667 570 M
109.667 544.8 L
127.889 544.8 L
127.889 570 L
cp
f
GR
GS
[0.75 0 0 0.75 0 0.5] CT
0.4 0.4 1 RC
N
127.889 570 M
127.889 563.7 L
146.111 563.7 L
146.111 570 L
cp
f
GR
GS
[0.75 0 0 0.75 0 0.5] CT
0.4 0.4 1 RC
N
146.111 570 M
146.111 538.5 L
164.333 538.5 L
164.333 570 L
cp
f
GR
GS
[0.75 0 0 0.75 0 0.5] CT
0.4 0.4 1 RC
N
164.333 570 M
164.333 544.8 L
182.556 544.8 L
182.556 570 L
cp
f
GR
GS
[0.75 0 0 0.75 0 0.5] CT
0.4 0.4 1 RC
N
182.556 570 M
182.556 544.8 L
200.778 544.8 L
200.778 570 L
cp
f
GR
GS
[0.75 0 0 0.75 0 0.5] CT
0.4 0.4 1 RC
N
200.778 570 M
200.778 557.4 L
219 557.4 L
219 570 L
cp
f
GR
GS
[0.75 0 0 0.75 0 0.5] CT
0.4 0.4 1 RC
N
219 570 M
219 563.7 L
237.222 563.7 L
237.222 570 L
cp
f
GR
GS
[0.75 0 0 0.75 0 0.5] CT
0.4 0.4 1 RC
N
237.222 570 M
237.222 551.1 L
255.444 551.1 L
255.444 570 L
cp
f
GR
GS
[0.75 0 0 0.75 0 0.5] CT
0.4 0.4 1 RC
N
255.444 570 M
255.444 544.8 L
273.667 544.8 L
273.667 570 L
cp
f
GR
GS
[0.75 0 0 0.75 0 0.5] CT
0.4 0.4 1 RC
N
273.667 570 M
273.667 557.4 L
291.889 557.4 L
291.889 570 L
cp
f
GR
GS
[0.75 0 0 0.75 0 0.5] CT
0.4 0.4 1 RC
N
291.889 570 M
291.889 557.4 L
310.111 557.4 L
310.111 570 L
cp
f
GR
GS
[0.75 0 0 0.75 0 0.5] CT
0.4 0.4 1 RC
N
310.111 570 M
310.111 570 L
328.333 570 L
328.333 570 L
cp
f
GR
GS
[0.75 0 0 0.75 0 0.5] CT
0.4 0.4 1 RC
N
328.333 570 M
328.333 557.4 L
346.556 557.4 L
346.556 570 L
cp
f
GR
GS
[0.75 0 0 0.75 0 0.5] CT
1 LJ
0.667 LW
N
55 570 M
55 563.7 L
55 563.7 L
55 570 L
55 570 L
S
GR
GS
[0.75 0 0 0.75 0 0.5] CT
1 LJ
0.667 LW
N
55 570 M
73.222 570 L
S
GR
GS
[0.75 0 0 0.75 0 0.5] CT
1 LJ
0.667 LW
N
73.222 570 M
73.222 570 L
73.222 563.7 L
91.444 563.7 L
91.444 570 L
91.444 570 L
S
GR
GS
[0.75 0 0 0.75 0 0.5] CT
1 LJ
0.667 LW
N
91.444 563.7 M
109.667 563.7 L
S
GR
GS
[0.75 0 0 0.75 0 0.5] CT
1 LJ
0.667 LW
N
109.667 570 M
109.667 570 L
109.667 544.8 L
127.889 544.8 L
127.889 570 L
127.889 570 L
S
GR
GS
[0.75 0 0 0.75 0 0.5] CT
1 LJ
0.667 LW
N
127.889 563.7 M
146.111 563.7 L
S
GR
GS
[0.75 0 0 0.75 0 0.5] CT
1 LJ
0.667 LW
N
146.111 570 M
146.111 570 L
146.111 538.5 L
164.333 538.5 L
164.333 570 L
164.333 570 L
S
GR
GS
[0.75 0 0 0.75 0 0.5] CT
1 LJ
0.667 LW
N
164.333 544.8 M
182.556 544.8 L
182.556 570 L
182.556 570 L
S
GR
GS
[0.75 0 0 0.75 0 0.5] CT
1 LJ
0.667 LW
N
182.556 544.8 M
200.778 544.8 L
200.778 570 L
200.778 570 L
S
GR
GS
[0.75 0 0 0.75 0 0.5] CT
1 LJ
0.667 LW
N
200.778 557.4 M
219 557.4 L
219 570 L
219 570 L
S
GR
GS
[0.75 0 0 0.75 0 0.5] CT
1 LJ
0.667 LW
N
219 563.7 M
237.222 563.7 L
S
GR
GS
[0.75 0 0 0.75 0 0.5] CT
1 LJ
0.667 LW
N
237.222 570 M
237.222 570 L
237.222 551.1 L
255.444 551.1 L
S
GR
GS
[0.75 0 0 0.75 0 0.5] CT
1 LJ
0.667 LW
N
255.444 570 M
255.444 570 L
255.444 544.8 L
273.667 544.8 L
273.667 570 L
273.667 570 L
S
GR
GS
[0.75 0 0 0.75 0 0.5] CT
1 LJ
0.667 LW
N
273.667 557.4 M
291.889 557.4 L
291.889 570 L
291.889 570 L
S
GR
GS
[0.75 0 0 0.75 0 0.5] CT
1 LJ
0.667 LW
N
291.889 557.4 M
310.111 557.4 L
310.111 570 L
310.111 570 L
S
GR
GS
[0.75 0 0 0.75 0 0.5] CT
1 LJ
0.667 LW
N
310.111 570 M
328.333 570 L
S
GR
GS
[0.75 0 0 0.75 0 0.5] CT
1 LJ
0.667 LW
N
328.333 570 M
328.333 570 L
328.333 557.4 L
346.556 557.4 L
346.556 570 L
S
GR
GS
[0.75 0 0 0.75 0 0.5] CT
1 GC
N
55 675 M
383 675 L
383 612 L
55 612 L
cp
f
GR
GS
[0.75 0 0 0.75 0 0.5] CT
0.149 GC
2 setlinecap
1 LJ
0.667 LW
N
55 675 M
383 675 L
S
GR
GS
[0.75 0 0 0.75 0 0.5] CT
0.149 GC
2 setlinecap
1 LJ
0.667 LW
N
55 612 M
383 612 L
S
GR
GS
[0.75 0 0 0.75 0 0.5] CT
0.149 GC
2 setlinecap
1 LJ
0.667 LW
N
55 675 M
55 612 L
S
GR
GS
[0.75 0 0 0.75 0 0.5] CT
0.149 GC
2 setlinecap
1 LJ
0.667 LW
N
383 675 M
383 612 L
S
GR
GS
[0.75 0 0 0.75 0 0.5] CT
0.149 GC
2 setlinecap
1 LJ
0.667 LW
N
55 675 M
58.28 675 L
S
GR
GS
[0.75 0 0 0.75 0 0.5] CT
0.149 GC
2 setlinecap
1 LJ
0.667 LW
N
55 635.625 M
58.28 635.625 L
S
GR
GS
[0.75 0 0 0.75 0 0.5] CT
0.149 GC
2 setlinecap
1 LJ
0.667 LW
N
383 675 M
379.72 675 L
S
GR
GS
[0.75 0 0 0.75 0 0.5] CT
0.149 GC
2 setlinecap
1 LJ
0.667 LW
N
383 635.625 M
379.72 635.625 L
S
GR
GS
[0.75 0 0 0.75 37.25 506.75] CT
0.149 GC
/Helvetica 13 F
GS
[1 0 0 1 0 0] CT
-8 5.5 moveto 
1 -1 scale
(0) t 
GR
GR
GS
[0.75 0 0 0.75 37.25 477.21875] CT
0.149 GC
/Helvetica 13 F
GS
[1 0 0 1 0 0] CT
-8 5.5 moveto 
1 -1 scale
(5) t 
GR
GR
GS
[0.75 0 0 0.75 164.25016 457.4375] CT
/Helvetica-Bold 15 F
GS
[1 0 0 1 0 0] CT
-41 -4 moveto 
1 -1 scale
(Luc332-440) t 
GR
GR
GS
[0.75 0 0 0.75 0 0.5] CT
0.4 0.4 1 RC
N
73.222 675 M
73.222 667.125 L
91.444 667.125 L
91.444 675 L
cp
f
GR
GS
[0.75 0 0 0.75 0 0.5] CT
0.4 0.4 1 RC
N
91.444 675 M
91.444 643.5 L
109.667 643.5 L
109.667 675 L
cp
f
GR
GS
[0.75 0 0 0.75 0 0.5] CT
0.4 0.4 1 RC
N
109.667 675 M
109.667 643.5 L
127.889 643.5 L
127.889 675 L
cp
f
GR
GS
[0.75 0 0 0.75 0 0.5] CT
0.4 0.4 1 RC
N
127.889 675 M
127.889 635.625 L
146.111 635.625 L
146.111 675 L
cp
f
GR
GS
[0.75 0 0 0.75 0 0.5] CT
0.4 0.4 1 RC
N
146.111 675 M
146.111 659.25 L
164.333 659.25 L
164.333 675 L
cp
f
GR
GS
[0.75 0 0 0.75 0 0.5] CT
0.4 0.4 1 RC
N
164.333 675 M
164.333 619.875 L
182.556 619.875 L
182.556 675 L
cp
f
GR
GS
[0.75 0 0 0.75 0 0.5] CT
0.4 0.4 1 RC
N
182.556 675 M
182.556 675 L
200.778 675 L
200.778 675 L
cp
f
GR
GS
[0.75 0 0 0.75 0 0.5] CT
0.4 0.4 1 RC
N
200.778 675 M
200.778 643.5 L
219 643.5 L
219 675 L
cp
f
GR
GS
[0.75 0 0 0.75 0 0.5] CT
1 LJ
0.667 LW
N
73.222 675 M
73.222 667.125 L
91.444 667.125 L
S
GR
GS
[0.75 0 0 0.75 0 0.5] CT
1 LJ
0.667 LW
N
91.444 675 M
91.444 675 L
91.444 643.5 L
109.667 643.5 L
109.667 675 L
109.667 675 L
S
GR
GS
[0.75 0 0 0.75 0 0.5] CT
1 LJ
0.667 LW
N
109.667 643.5 M
127.889 643.5 L
S
GR
GS
[0.75 0 0 0.75 0 0.5] CT
1 LJ
0.667 LW
N
127.889 675 M
127.889 675 L
127.889 635.625 L
146.111 635.625 L
146.111 675 L
146.111 675 L
S
GR
GS
[0.75 0 0 0.75 0 0.5] CT
1 LJ
0.667 LW
N
146.111 659.25 M
164.333 659.25 L
S
GR
GS
[0.75 0 0 0.75 0 0.5] CT
1 LJ
0.667 LW
N
164.333 675 M
164.333 675 L
164.333 619.875 L
182.556 619.875 L
182.556 675 L
182.556 675 L
S
GR
GS
[0.75 0 0 0.75 0 0.5] CT
1 LJ
0.667 LW
N
182.556 675 M
200.778 675 L
S
GR
GS
[0.75 0 0 0.75 0 0.5] CT
1 LJ
0.667 LW
N
200.778 675 M
200.778 675 L
200.778 643.5 L
219 643.5 L
219 675 L
S
GR
GS
[0.75 0 0 0.75 0 0.5] CT
1 GC
N
55 780 M
383 780 L
383 717 L
55 717 L
cp
f
GR
GS
[0.75 0 0 0.75 0 0.5] CT
0.149 GC
2 setlinecap
1 LJ
0.667 LW
N
55 780 M
383 780 L
S
GR
GS
[0.75 0 0 0.75 0 0.5] CT
0.149 GC
2 setlinecap
1 LJ
0.667 LW
N
55 717 M
383 717 L
S
GR
GS
[0.75 0 0 0.75 0 0.5] CT
0.149 GC
2 setlinecap
1 LJ
0.667 LW
N
55 780 M
55 717 L
S
GR
GS
[0.75 0 0 0.75 0 0.5] CT
0.149 GC
2 setlinecap
1 LJ
0.667 LW
N
383 780 M
383 717 L
S
GR
GS
[0.75 0 0 0.75 0 0.5] CT
0.149 GC
2 setlinecap
1 LJ
0.667 LW
N
55 780 M
58.28 780 L
S
GR
GS
[0.75 0 0 0.75 0 0.5] CT
0.149 GC
2 setlinecap
1 LJ
0.667 LW
N
55 759 M
58.28 759 L
S
GR
GS
[0.75 0 0 0.75 0 0.5] CT
0.149 GC
2 setlinecap
1 LJ
0.667 LW
N
55 738 M
58.28 738 L
S
GR
GS
[0.75 0 0 0.75 0 0.5] CT
0.149 GC
2 setlinecap
1 LJ
0.667 LW
N
55 717 M
58.28 717 L
S
GR
GS
[0.75 0 0 0.75 0 0.5] CT
0.149 GC
2 setlinecap
1 LJ
0.667 LW
N
383 780 M
379.72 780 L
S
GR
GS
[0.75 0 0 0.75 0 0.5] CT
0.149 GC
2 setlinecap
1 LJ
0.667 LW
N
383 759 M
379.72 759 L
S
GR
GS
[0.75 0 0 0.75 0 0.5] CT
0.149 GC
2 setlinecap
1 LJ
0.667 LW
N
383 738 M
379.72 738 L
S
GR
GS
[0.75 0 0 0.75 0 0.5] CT
0.149 GC
2 setlinecap
1 LJ
0.667 LW
N
383 717 M
379.72 717 L
S
GR
GS
[0.75 0 0 0.75 37.25 585.5] CT
0.149 GC
/Helvetica 13 F
GS
[1 0 0 1 0 0] CT
-8 5.5 moveto 
1 -1 scale
(0) t 
GR
GR
GS
[0.75 0 0 0.75 37.25 569.75] CT
0.149 GC
/Helvetica 13 F
GS
[1 0 0 1 0 0] CT
-15 5.5 moveto 
1 -1 scale
(10) t 
GR
GR
GS
[0.75 0 0 0.75 37.25 554] CT
0.149 GC
/Helvetica 13 F
GS
[1 0 0 1 0 0] CT
-15 5.5 moveto 
1 -1 scale
(20) t 
GR
GR
GS
[0.75 0 0 0.75 37.25 538.25] CT
0.149 GC
/Helvetica 13 F
GS
[1 0 0 1 0 0] CT
-15 5.5 moveto 
1 -1 scale
(30) t 
GR
GR
GS
[0.75 0 0 0.75 164.25016 536.1875] CT
/Helvetica-Bold 15 F
GS
[1 0 0 1 0 0] CT
-41 -4 moveto 
1 -1 scale
(Luc433-550) t 
GR
GR
GS
[0.75 0 0 0.75 0 0.5] CT
0.4 0.4 1 RC
N
64.111 780 M
64.111 777.9 L
73.222 777.9 L
73.222 780 L
cp
f
GR
GS
[0.75 0 0 0.75 0 0.5] CT
0.4 0.4 1 RC
N
73.222 780 M
73.222 777.9 L
82.333 777.9 L
82.333 780 L
cp
f
GR
GS
[0.75 0 0 0.75 0 0.5] CT
0.4 0.4 1 RC
N
82.333 780 M
82.333 752.7 L
91.444 752.7 L
91.444 780 L
cp
f
GR
GS
[0.75 0 0 0.75 0 0.5] CT
0.4 0.4 1 RC
N
91.444 780 M
91.444 740.1 L
100.556 740.1 L
100.556 780 L
cp
f
GR
GS
[0.75 0 0 0.75 0 0.5] CT
0.4 0.4 1 RC
N
100.556 780 M
100.556 754.8 L
109.667 754.8 L
109.667 780 L
cp
f
GR
GS
[0.75 0 0 0.75 0 0.5] CT
0.4 0.4 1 RC
N
109.667 780 M
109.667 775.8 L
118.778 775.8 L
118.778 780 L
cp
f
GR
GS
[0.75 0 0 0.75 0 0.5] CT
0.4 0.4 1 RC
N
118.778 780 M
118.778 771.6 L
127.889 771.6 L
127.889 780 L
cp
f
GR
GS
[0.75 0 0 0.75 0 0.5] CT
1 LJ
0.667 LW
N
64.111 780 M
64.111 777.9 L
73.222 777.9 L
73.222 780 L
73.222 780 L
S
GR
GS
[0.75 0 0 0.75 0 0.5] CT
1 LJ
0.667 LW
N
73.222 777.9 M
82.333 777.9 L
S
GR
GS
[0.75 0 0 0.75 0 0.5] CT
1 LJ
0.667 LW
N
82.333 780 M
82.333 780 L
82.333 752.7 L
91.444 752.7 L
S
GR
GS
[0.75 0 0 0.75 0 0.5] CT
1 LJ
0.667 LW
N
91.444 780 M
91.444 780 L
91.444 740.1 L
100.556 740.1 L
100.556 780 L
100.556 780 L
S
GR
GS
[0.75 0 0 0.75 0 0.5] CT
1 LJ
0.667 LW
N
100.556 754.8 M
109.667 754.8 L
109.667 780 L
109.667 780 L
S
GR
GS
[0.75 0 0 0.75 0 0.5] CT
1 LJ
0.667 LW
N
109.667 775.8 M
118.778 775.8 L
S
GR
GS
[0.75 0 0 0.75 0 0.5] CT
1 LJ
0.667 LW
N
118.778 780 M
118.778 780 L
118.778 771.6 L
127.889 771.6 L
127.889 780 L
S
GR
GS
[0.75 0 0 0.75 0 0.5] CT
1 GC
N
55 885 M
383 885 L
383 822 L
55 822 L
cp
f
GR
GS
[0.75 0 0 0.75 0 0.5] CT
0.149 GC
2 setlinecap
1 LJ
0.667 LW
N
55 885 M
383 885 L
S
GR
GS
[0.75 0 0 0.75 0 0.5] CT
0.149 GC
2 setlinecap
1 LJ
0.667 LW
N
55 822 M
383 822 L
S
GR
GS
[0.75 0 0 0.75 0 0.5] CT
0.149 GC
2 setlinecap
1 LJ
0.667 LW
N
55 885 M
55 881.72 L
S
GR
GS
[0.75 0 0 0.75 0 0.5] CT
0.149 GC
2 setlinecap
1 LJ
0.667 LW
N
146.111 885 M
146.111 881.72 L
S
GR
GS
[0.75 0 0 0.75 0 0.5] CT
0.149 GC
2 setlinecap
1 LJ
0.667 LW
N
237.222 885 M
237.222 881.72 L
S
GR
GS
[0.75 0 0 0.75 0 0.5] CT
0.149 GC
2 setlinecap
1 LJ
0.667 LW
N
328.333 885 M
328.333 881.72 L
S
GR
GS
[0.75 0 0 0.75 0 0.5] CT
0.149 GC
2 setlinecap
1 LJ
0.667 LW
N
55 822 M
55 825.28 L
S
GR
GS
[0.75 0 0 0.75 0 0.5] CT
0.149 GC
2 setlinecap
1 LJ
0.667 LW
N
146.111 822 M
146.111 825.28 L
S
GR
GS
[0.75 0 0 0.75 0 0.5] CT
0.149 GC
2 setlinecap
1 LJ
0.667 LW
N
237.222 822 M
237.222 825.28 L
S
GR
GS
[0.75 0 0 0.75 0 0.5] CT
0.149 GC
2 setlinecap
1 LJ
0.667 LW
N
328.333 822 M
328.333 825.28 L
S
GR
GS
[0.75 0 0 0.75 41.25 668.24998] CT
0.149 GC
/Helvetica 13 F
GS
[1 0 0 1 0 0] CT
-4 14 moveto 
1 -1 scale
(0) t 
GR
GR
GS
[0.75 0 0 0.75 109.58334 668.24998] CT
0.149 GC
/Helvetica 13 F
GS
[1 0 0 1 0 0] CT
-7.5 14 moveto 
1 -1 scale
(50) t 
GR
GR
GS
[0.75 0 0 0.75 177.91667 668.24998] CT
0.149 GC
/Helvetica 13 F
GS
[1 0 0 1 0 0] CT
-11 14 moveto 
1 -1 scale
(100) t 
GR
GR
GS
[0.75 0 0 0.75 246.25001 668.24998] CT
0.149 GC
/Helvetica 13 F
GS
[1 0 0 1 0 0] CT
-11 14 moveto 
1 -1 scale
(150) t 
GR
GR
GS
[0.75 0 0 0.75 164.25011 682.00002] CT
0.149 GC
/Helvetica 15 F
GS
[1 0 0 1 0 0] CT
-66.5 16 moveto 
1 -1 scale
(Unfolding force [pN]) t 
GR
GR
GS
[0.75 0 0 0.75 0 0.5] CT
0.149 GC
2 setlinecap
1 LJ
0.667 LW
N
55 885 M
55 822 L
S
GR
GS
[0.75 0 0 0.75 0 0.5] CT
0.149 GC
2 setlinecap
1 LJ
0.667 LW
N
383 885 M
383 822 L
S
GR
GS
[0.75 0 0 0.75 0 0.5] CT
0.149 GC
2 setlinecap
1 LJ
0.667 LW
N
55 885 M
58.28 885 L
S
GR
GS
[0.75 0 0 0.75 0 0.5] CT
0.149 GC
2 setlinecap
1 LJ
0.667 LW
N
55 850 M
58.28 850 L
S
GR
GS
[0.75 0 0 0.75 0 0.5] CT
0.149 GC
2 setlinecap
1 LJ
0.667 LW
N
383 885 M
379.72 885 L
S
GR
GS
[0.75 0 0 0.75 0 0.5] CT
0.149 GC
2 setlinecap
1 LJ
0.667 LW
N
383 850 M
379.72 850 L
S
GR
GS
[0.75 0 0 0.75 37.25 664.25] CT
0.149 GC
/Helvetica 13 F
GS
[1 0 0 1 0 0] CT
-8 5.5 moveto 
1 -1 scale
(0) t 
GR
GR
GS
[0.75 0 0 0.75 37.25 638] CT
0.149 GC
/Helvetica 13 F
GS
[1 0 0 1 0 0] CT
-22 5.5 moveto 
1 -1 scale
(100) t 
GR
GR
GS
[0.75 0 0 0.75 164.25016 614.9375] CT
/Helvetica-Bold 15 F
GS
[1 0 0 1 0 0] CT
-53 -4 moveto 
1 -1 scale
(Full Luciferase) t 
GR
GR
GS
[0.75 0 0 0.75 0 0.5] CT
0.4 0.4 1 RC
N
64.111 885 M
64.111 880.45 L
73.222 880.45 L
73.222 885 L
cp
f
GR
GS
[0.75 0 0 0.75 0 0.5] CT
0.4 0.4 1 RC
N
73.222 885 M
73.222 855.6 L
82.333 855.6 L
82.333 885 L
cp
f
GR
GS
[0.75 0 0 0.75 0 0.5] CT
0.4 0.4 1 RC
N
82.333 885 M
82.333 853.5 L
91.444 853.5 L
91.444 885 L
cp
f
GR
GS
[0.75 0 0 0.75 0 0.5] CT
0.4 0.4 1 RC
N
91.444 885 M
91.444 845.1 L
100.556 845.1 L
100.556 885 L
cp
f
GR
GS
[0.75 0 0 0.75 0 0.5] CT
0.4 0.4 1 RC
N
100.556 885 M
100.556 857 L
109.667 857 L
109.667 885 L
cp
f
GR
GS
[0.75 0 0 0.75 0 0.5] CT
0.4 0.4 1 RC
N
109.667 885 M
109.667 872.4 L
118.778 872.4 L
118.778 885 L
cp
f
GR
GS
[0.75 0 0 0.75 0 0.5] CT
0.4 0.4 1 RC
N
118.778 885 M
118.778 878.7 L
127.889 878.7 L
127.889 885 L
cp
f
GR
GS
[0.75 0 0 0.75 0 0.5] CT
0.4 0.4 1 RC
N
127.889 885 M
127.889 875.9 L
137 875.9 L
137 885 L
cp
f
GR
GS
[0.75 0 0 0.75 0 0.5] CT
0.4 0.4 1 RC
N
137 885 M
137 882.2 L
146.111 882.2 L
146.111 885 L
cp
f
GR
GS
[0.75 0 0 0.75 0 0.5] CT
0.4 0.4 1 RC
N
146.111 885 M
146.111 883.95 L
155.222 883.95 L
155.222 885 L
cp
f
GR
GS
[0.75 0 0 0.75 0 0.5] CT
0.4 0.4 1 RC
N
155.222 885 M
155.222 883.6 L
164.333 883.6 L
164.333 885 L
cp
f
GR
GS
[0.75 0 0 0.75 0 0.5] CT
0.4 0.4 1 RC
N
164.333 885 M
164.333 883.6 L
173.444 883.6 L
173.444 885 L
cp
f
GR
GS
[0.75 0 0 0.75 0 0.5] CT
0.4 0.4 1 RC
N
173.444 885 M
173.444 885 L
182.556 885 L
182.556 885 L
cp
f
GR
GS
[0.75 0 0 0.75 0 0.5] CT
0.4 0.4 1 RC
N
182.556 885 M
182.556 884.65 L
191.667 884.65 L
191.667 885 L
cp
f
GR
GS
[0.75 0 0 0.75 0 0.5] CT
0.4 0.4 1 RC
N
191.667 885 M
191.667 885 L
200.778 885 L
200.778 885 L
cp
f
GR
GS
[0.75 0 0 0.75 0 0.5] CT
0.4 0.4 1 RC
N
200.778 885 M
200.778 884.65 L
209.889 884.65 L
209.889 885 L
cp
f
GR
GS
[0.75 0 0 0.75 0 0.5] CT
0.4 0.4 1 RC
N
209.889 885 M
209.889 884.65 L
219 884.65 L
219 885 L
cp
f
GR
GS
[0.75 0 0 0.75 0 0.5] CT
0.4 0.4 1 RC
N
219 885 M
219 884.65 L
228.111 884.65 L
228.111 885 L
cp
f
GR
GS
[0.75 0 0 0.75 0 0.5] CT
0.4 0.4 1 RC
N
228.111 885 M
228.111 884.65 L
237.222 884.65 L
237.222 885 L
cp
f
GR
GS
[0.75 0 0 0.75 0 0.5] CT
1 LJ
0.667 LW
N
64.111 885 M
64.111 880.45 L
73.222 880.45 L
S
GR
GS
[0.75 0 0 0.75 0 0.5] CT
1 LJ
0.667 LW
N
73.222 885 M
73.222 885 L
73.222 855.6 L
82.333 855.6 L
S
GR
GS
[0.75 0 0 0.75 0 0.5] CT
1 LJ
0.667 LW
N
82.333 885 M
82.333 885 L
82.333 853.5 L
91.444 853.5 L
S
GR
GS
[0.75 0 0 0.75 0 0.5] CT
1 LJ
0.667 LW
N
91.444 885 M
91.444 885 L
91.444 845.1 L
100.556 845.1 L
100.556 885 L
100.556 885 L
S
GR
GS
[0.75 0 0 0.75 0 0.5] CT
1 LJ
0.667 LW
N
100.556 857 M
109.667 857 L
109.667 885 L
109.667 885 L
S
GR
GS
[0.75 0 0 0.75 0 0.5] CT
1 LJ
0.667 LW
N
109.667 872.4 M
118.778 872.4 L
118.778 885 L
118.778 885 L
S
GR
GS
[0.75 0 0 0.75 0 0.5] CT
1 LJ
0.667 LW
N
118.778 878.7 M
127.889 878.7 L
S
GR
GS
[0.75 0 0 0.75 0 0.5] CT
1 LJ
0.667 LW
N
127.889 885 M
127.889 885 L
127.889 875.9 L
137 875.9 L
137 885 L
137 885 L
S
GR
GS
[0.75 0 0 0.75 0 0.5] CT
1 LJ
0.667 LW
N
137 882.2 M
146.111 882.2 L
146.111 885 L
146.111 885 L
S
GR
GS
[0.75 0 0 0.75 0 0.5] CT
1 LJ
0.667 LW
N
146.111 883.95 M
155.222 883.95 L
S
GR
GS
[0.75 0 0 0.75 0 0.5] CT
1 LJ
0.667 LW
N
155.222 885 M
155.222 885 L
155.222 883.6 L
164.333 883.6 L
164.333 885 L
164.333 885 L
S
GR
GS
[0.75 0 0 0.75 0 0.5] CT
1 LJ
0.667 LW
N
164.333 883.6 M
173.444 883.6 L
173.444 885 L
173.444 885 L
S
GR
GS
[0.75 0 0 0.75 0 0.5] CT
1 LJ
0.667 LW
N
173.444 885 M
182.556 885 L
S
GR
GS
[0.75 0 0 0.75 0 0.5] CT
1 LJ
0.667 LW
N
182.556 885 M
182.556 885 L
182.556 884.65 L
191.667 884.65 L
191.667 885 L
191.667 885 L
S
GR
GS
[0.75 0 0 0.75 0 0.5] CT
1 LJ
0.667 LW
N
191.667 885 M
200.778 885 L
S
GR
GS
[0.75 0 0 0.75 0 0.5] CT
1 LJ
0.667 LW
N
200.778 885 M
200.778 885 L
200.778 884.65 L
209.889 884.65 L
209.889 885 L
209.889 885 L
S
GR
GS
[0.75 0 0 0.75 0 0.5] CT
1 LJ
0.667 LW
N
209.889 884.65 M
219 884.65 L
219 885 L
219 885 L
S
GR
GS
[0.75 0 0 0.75 0 0.5] CT
1 LJ
0.667 LW
N
219 884.65 M
228.111 884.65 L
228.111 885 L
228.111 885 L
S
GR
GS
[0.75 0 0 0.75 0 0.5] CT
1 LJ
0.667 LW
N
228.111 884.65 M
237.222 884.65 L
237.222 885 L
S
GR
GS
[0.75 0 0 0.75 0 0.5] CT
0.4 1 0.4 RC
N
73.222 885 M
73.222 883.25 L
82.333 883.25 L
82.333 885 L
cp
f
GR
GS
[0.75 0 0 0.75 0 0.5] CT
0.4 1 0.4 RC
N
82.333 885 M
82.333 878.35 L
91.444 878.35 L
91.444 885 L
cp
f
GR
GS
[0.75 0 0 0.75 0 0.5] CT
0.4 1 0.4 RC
N
91.444 885 M
91.444 867.5 L
100.556 867.5 L
100.556 885 L
cp
f
GR
GS
[0.75 0 0 0.75 0 0.5] CT
0.4 1 0.4 RC
N
100.556 885 M
100.556 864.35 L
109.667 864.35 L
109.667 885 L
cp
f
GR
GS
[0.75 0 0 0.75 0 0.5] CT
0.4 1 0.4 RC
N
109.667 885 M
109.667 849.65 L
118.778 849.65 L
118.778 885 L
cp
f
GR
GS
[0.75 0 0 0.75 0 0.5] CT
0.4 1 0.4 RC
N
118.778 885 M
118.778 859.8 L
127.889 859.8 L
127.889 885 L
cp
f
GR
GS
[0.75 0 0 0.75 0 0.5] CT
0.4 1 0.4 RC
N
127.889 885 M
127.889 867.5 L
137 867.5 L
137 885 L
cp
f
GR
GS
[0.75 0 0 0.75 0 0.5] CT
0.4 1 0.4 RC
N
137 885 M
137 871.7 L
146.111 871.7 L
146.111 885 L
cp
f
GR
GS
[0.75 0 0 0.75 0 0.5] CT
0.4 1 0.4 RC
N
146.111 885 M
146.111 875.2 L
155.222 875.2 L
155.222 885 L
cp
f
GR
GS
[0.75 0 0 0.75 0 0.5] CT
0.4 1 0.4 RC
N
155.222 885 M
155.222 875.55 L
164.333 875.55 L
164.333 885 L
cp
f
GR
GS
[0.75 0 0 0.75 0 0.5] CT
0.4 1 0.4 RC
N
164.333 885 M
164.333 879.4 L
173.444 879.4 L
173.444 885 L
cp
f
GR
GS
[0.75 0 0 0.75 0 0.5] CT
0.4 1 0.4 RC
N
173.444 885 M
173.444 882.9 L
182.556 882.9 L
182.556 885 L
cp
f
GR
GS
[0.75 0 0 0.75 0 0.5] CT
0.4 1 0.4 RC
N
182.556 885 M
182.556 882.9 L
191.667 882.9 L
191.667 885 L
cp
f
GR
GS
[0.75 0 0 0.75 0 0.5] CT
0.4 1 0.4 RC
N
191.667 885 M
191.667 883.95 L
200.778 883.95 L
200.778 885 L
cp
f
GR
GS
[0.75 0 0 0.75 0 0.5] CT
0.4 1 0.4 RC
N
200.778 885 M
200.778 884.65 L
209.889 884.65 L
209.889 885 L
cp
f
GR
GS
[0.75 0 0 0.75 0 0.5] CT
0.4 1 0.4 RC
N
209.889 885 M
209.889 884.65 L
219 884.65 L
219 885 L
cp
f
GR
GS
[0.75 0 0 0.75 0 0.5] CT
0.4 1 0.4 RC
N
219 885 M
219 884.65 L
228.111 884.65 L
228.111 885 L
cp
f
GR
GS
[0.75 0 0 0.75 0 0.5] CT
0.4 1 0.4 RC
N
228.111 885 M
228.111 884.65 L
237.222 884.65 L
237.222 885 L
cp
f
GR
GS
[0.75 0 0 0.75 0 0.5] CT
0.4 1 0.4 RC
N
237.222 885 M
237.222 885 L
246.333 885 L
246.333 885 L
cp
f
GR
GS
[0.75 0 0 0.75 0 0.5] CT
0.4 1 0.4 RC
N
246.333 885 M
246.333 885 L
255.444 885 L
255.444 885 L
cp
f
GR
GS
[0.75 0 0 0.75 0 0.5] CT
0.4 1 0.4 RC
N
255.444 885 M
255.444 885 L
264.556 885 L
264.556 885 L
cp
f
GR
GS
[0.75 0 0 0.75 0 0.5] CT
0.4 1 0.4 RC
N
264.556 885 M
264.556 885 L
273.667 885 L
273.667 885 L
cp
f
GR
GS
[0.75 0 0 0.75 0 0.5] CT
0.4 1 0.4 RC
N
273.667 885 M
273.667 885 L
282.778 885 L
282.778 885 L
cp
f
GR
GS
[0.75 0 0 0.75 0 0.5] CT
0.4 1 0.4 RC
N
282.778 885 M
282.778 885 L
291.889 885 L
291.889 885 L
cp
f
GR
GS
[0.75 0 0 0.75 0 0.5] CT
0.4 1 0.4 RC
N
291.889 885 M
291.889 885 L
301 885 L
301 885 L
cp
f
GR
GS
[0.75 0 0 0.75 0 0.5] CT
0.4 1 0.4 RC
N
301 885 M
301 885 L
310.111 885 L
310.111 885 L
cp
f
GR
GS
[0.75 0 0 0.75 0 0.5] CT
0.4 1 0.4 RC
N
310.111 885 M
310.111 884.65 L
319.222 884.65 L
319.222 885 L
cp
f
GR
GS
[0.75 0 0 0.75 0 0.5] CT
1 LJ
0.667 LW
N
73.222 885 M
73.222 883.25 L
82.333 883.25 L
S
GR
GS
[0.75 0 0 0.75 0 0.5] CT
1 LJ
0.667 LW
N
82.333 885 M
82.333 885 L
82.333 878.35 L
91.444 878.35 L
S
GR
GS
[0.75 0 0 0.75 0 0.5] CT
1 LJ
0.667 LW
N
91.444 885 M
91.444 885 L
91.444 867.5 L
100.556 867.5 L
S
GR
GS
[0.75 0 0 0.75 0 0.5] CT
1 LJ
0.667 LW
N
100.556 885 M
100.556 885 L
100.556 864.35 L
109.667 864.35 L
S
GR
GS
[0.75 0 0 0.75 0 0.5] CT
1 LJ
0.667 LW
N
109.667 885 M
109.667 885 L
109.667 849.65 L
118.778 849.65 L
118.778 885 L
118.778 885 L
S
GR
GS
[0.75 0 0 0.75 0 0.5] CT
1 LJ
0.667 LW
N
118.778 859.8 M
127.889 859.8 L
127.889 885 L
127.889 885 L
S
GR
GS
[0.75 0 0 0.75 0 0.5] CT
1 LJ
0.667 LW
N
127.889 867.5 M
137 867.5 L
137 885 L
137 885 L
S
GR
GS
[0.75 0 0 0.75 0 0.5] CT
1 LJ
0.667 LW
N
137 871.7 M
146.111 871.7 L
146.111 885 L
146.111 885 L
S
GR
GS
[0.75 0 0 0.75 0 0.5] CT
1 LJ
0.667 LW
N
146.111 875.2 M
155.222 875.2 L
155.222 885 L
155.222 885 L
S
GR
GS
[0.75 0 0 0.75 0 0.5] CT
1 LJ
0.667 LW
N
155.222 875.55 M
164.333 875.55 L
164.333 885 L
164.333 885 L
S
GR
GS
[0.75 0 0 0.75 0 0.5] CT
1 LJ
0.667 LW
N
164.333 879.4 M
173.444 879.4 L
173.444 885 L
173.444 885 L
S
GR
GS
[0.75 0 0 0.75 0 0.5] CT
1 LJ
0.667 LW
N
173.444 882.9 M
182.556 882.9 L
182.556 885 L
182.556 885 L
S
GR
GS
[0.75 0 0 0.75 0 0.5] CT
1 LJ
0.667 LW
N
182.556 882.9 M
191.667 882.9 L
191.667 885 L
191.667 885 L
S
GR
GS
[0.75 0 0 0.75 0 0.5] CT
1 LJ
0.667 LW
N
191.667 883.95 M
200.778 883.95 L
200.778 885 L
200.778 885 L
S
GR
GS
[0.75 0 0 0.75 0 0.5] CT
1 LJ
0.667 LW
N
200.778 884.65 M
209.889 884.65 L
209.889 885 L
209.889 885 L
S
GR
GS
[0.75 0 0 0.75 0 0.5] CT
1 LJ
0.667 LW
N
209.889 884.65 M
219 884.65 L
219 885 L
219 885 L
S
GR
GS
[0.75 0 0 0.75 0 0.5] CT
1 LJ
0.667 LW
N
219 884.65 M
228.111 884.65 L
228.111 885 L
228.111 885 L
S
GR
GS
[0.75 0 0 0.75 0 0.5] CT
1 LJ
0.667 LW
N
228.111 884.65 M
237.222 884.65 L
237.222 885 L
237.222 885 L
S
GR
GS
[0.75 0 0 0.75 0 0.5] CT
1 LJ
0.667 LW
N
237.222 885 M
246.333 885 L
246.333 885 L
246.333 885 L
S
GR
GS
[0.75 0 0 0.75 0 0.5] CT
1 LJ
0.667 LW
N
246.333 885 M
255.444 885 L
255.444 885 L
255.444 885 L
S
GR
GS
[0.75 0 0 0.75 0 0.5] CT
1 LJ
0.667 LW
N
255.444 885 M
264.556 885 L
264.556 885 L
264.556 885 L
S
GR
GS
[0.75 0 0 0.75 0 0.5] CT
1 LJ
0.667 LW
N
264.556 885 M
273.667 885 L
273.667 885 L
273.667 885 L
S
GR
GS
[0.75 0 0 0.75 0 0.5] CT
1 LJ
0.667 LW
N
273.667 885 M
282.778 885 L
282.778 885 L
282.778 885 L
S
GR
GS
[0.75 0 0 0.75 0 0.5] CT
1 LJ
0.667 LW
N
282.778 885 M
291.889 885 L
291.889 885 L
291.889 885 L
S
GR
GS
[0.75 0 0 0.75 0 0.5] CT
1 LJ
0.667 LW
N
291.889 885 M
301 885 L
301 885 L
301 885 L
S
GR
GS
[0.75 0 0 0.75 0 0.5] CT
1 LJ
0.667 LW
N
301 885 M
310.111 885 L
S
GR
GS
[0.75 0 0 0.75 0 0.5] CT
1 LJ
0.667 LW
N
310.111 885 M
310.111 885 L
310.111 884.65 L
319.222 884.65 L
319.222 885 L
S
GR
GS
[0.75 0 0 0.75 0 0.5] CT
1 0.4 0.4 RC
N
91.444 885 M
91.444 883.6 L
100.556 883.6 L
100.556 885 L
cp
f
GR
GS
[0.75 0 0 0.75 0 0.5] CT
1 0.4 0.4 RC
N
100.556 885 M
100.556 880.45 L
109.667 880.45 L
109.667 885 L
cp
f
GR
GS
[0.75 0 0 0.75 0 0.5] CT
1 0.4 0.4 RC
N
109.667 885 M
109.667 871.35 L
118.778 871.35 L
118.778 885 L
cp
f
GR
GS
[0.75 0 0 0.75 0 0.5] CT
1 0.4 0.4 RC
N
118.778 885 M
118.778 868.2 L
127.889 868.2 L
127.889 885 L
cp
f
GR
GS
[0.75 0 0 0.75 0 0.5] CT
1 0.4 0.4 RC
N
127.889 885 M
127.889 863.3 L
137 863.3 L
137 885 L
cp
f
GR
GS
[0.75 0 0 0.75 0 0.5] CT
1 0.4 0.4 RC
N
137 885 M
137 859.45 L
146.111 859.45 L
146.111 885 L
cp
f
GR
GS
[0.75 0 0 0.75 0 0.5] CT
1 0.4 0.4 RC
N
146.111 885 M
146.111 868.55 L
155.222 868.55 L
155.222 885 L
cp
f
GR
GS
[0.75 0 0 0.75 0 0.5] CT
1 0.4 0.4 RC
N
155.222 885 M
155.222 870.65 L
164.333 870.65 L
164.333 885 L
cp
f
GR
GS
[0.75 0 0 0.75 0 0.5] CT
1 0.4 0.4 RC
N
164.333 885 M
164.333 872.75 L
173.444 872.75 L
173.444 885 L
cp
f
GR
GS
[0.75 0 0 0.75 0 0.5] CT
1 0.4 0.4 RC
N
173.444 885 M
173.444 871 L
182.556 871 L
182.556 885 L
cp
f
GR
GS
[0.75 0 0 0.75 0 0.5] CT
1 0.4 0.4 RC
N
182.556 885 M
182.556 878.7 L
191.667 878.7 L
191.667 885 L
cp
f
GR
GS
[0.75 0 0 0.75 0 0.5] CT
1 0.4 0.4 RC
N
191.667 885 M
191.667 878 L
200.778 878 L
200.778 885 L
cp
f
GR
GS
[0.75 0 0 0.75 0 0.5] CT
1 0.4 0.4 RC
N
200.778 885 M
200.778 879.05 L
209.889 879.05 L
209.889 885 L
cp
f
GR
GS
[0.75 0 0 0.75 0 0.5] CT
1 0.4 0.4 RC
N
209.889 885 M
209.889 881.5 L
219 881.5 L
219 885 L
cp
f
GR
GS
[0.75 0 0 0.75 0 0.5] CT
1 0.4 0.4 RC
N
219 885 M
219 883.95 L
228.111 883.95 L
228.111 885 L
cp
f
GR
GS
[0.75 0 0 0.75 0 0.5] CT
1 0.4 0.4 RC
N
228.111 885 M
228.111 882.55 L
237.222 882.55 L
237.222 885 L
cp
f
GR
GS
[0.75 0 0 0.75 0 0.5] CT
1 0.4 0.4 RC
N
237.222 885 M
237.222 883.95 L
246.333 883.95 L
246.333 885 L
cp
f
GR
GS
[0.75 0 0 0.75 0 0.5] CT
1 0.4 0.4 RC
N
246.333 885 M
246.333 884.3 L
255.444 884.3 L
255.444 885 L
cp
f
GR
GS
[0.75 0 0 0.75 0 0.5] CT
1 0.4 0.4 RC
N
255.444 885 M
255.444 885 L
264.556 885 L
264.556 885 L
cp
f
GR
GS
[0.75 0 0 0.75 0 0.5] CT
1 0.4 0.4 RC
N
264.556 885 M
264.556 884.3 L
273.667 884.3 L
273.667 885 L
cp
f
GR
GS
[0.75 0 0 0.75 0 0.5] CT
1 0.4 0.4 RC
N
273.667 885 M
273.667 885 L
282.778 885 L
282.778 885 L
cp
f
GR
GS
[0.75 0 0 0.75 0 0.5] CT
1 0.4 0.4 RC
N
282.778 885 M
282.778 884.65 L
291.889 884.65 L
291.889 885 L
cp
f
GR
GS
[0.75 0 0 0.75 0 0.5] CT
1 LJ
0.667 LW
N
91.444 885 M
91.444 883.6 L
100.556 883.6 L
S
GR
GS
[0.75 0 0 0.75 0 0.5] CT
1 LJ
0.667 LW
N
100.556 885 M
100.556 885 L
100.556 880.45 L
109.667 880.45 L
S
GR
GS
[0.75 0 0 0.75 0 0.5] CT
1 LJ
0.667 LW
N
109.667 885 M
109.667 885 L
109.667 871.35 L
118.778 871.35 L
S
GR
GS
[0.75 0 0 0.75 0 0.5] CT
1 LJ
0.667 LW
N
118.778 885 M
118.778 885 L
118.778 868.2 L
127.889 868.2 L
S
GR
GS
[0.75 0 0 0.75 0 0.5] CT
1 LJ
0.667 LW
N
127.889 885 M
127.889 885 L
127.889 863.3 L
137 863.3 L
S
GR
GS
[0.75 0 0 0.75 0 0.5] CT
1 LJ
0.667 LW
N
137 885 M
137 885 L
137 859.45 L
146.111 859.45 L
146.111 885 L
146.111 885 L
S
GR
GS
[0.75 0 0 0.75 0 0.5] CT
1 LJ
0.667 LW
N
146.111 868.55 M
155.222 868.55 L
155.222 885 L
155.222 885 L
S
GR
GS
[0.75 0 0 0.75 0 0.5] CT
1 LJ
0.667 LW
N
155.222 870.65 M
164.333 870.65 L
164.333 885 L
164.333 885 L
S
GR
GS
[0.75 0 0 0.75 0 0.5] CT
1 LJ
0.667 LW
N
164.333 872.75 M
173.444 872.75 L
S
GR
GS
[0.75 0 0 0.75 0 0.5] CT
1 LJ
0.667 LW
N
173.444 885 M
173.444 885 L
173.444 871 L
182.556 871 L
182.556 885 L
182.556 885 L
S
GR
GS
[0.75 0 0 0.75 0 0.5] CT
1 LJ
0.667 LW
N
182.556 878.7 M
191.667 878.7 L
S
GR
GS
[0.75 0 0 0.75 0 0.5] CT
1 LJ
0.667 LW
N
191.667 885 M
191.667 885 L
191.667 878 L
200.778 878 L
200.778 885 L
200.778 885 L
S
GR
GS
[0.75 0 0 0.75 0 0.5] CT
1 LJ
0.667 LW
N
200.778 879.05 M
209.889 879.05 L
209.889 885 L
209.889 885 L
S
GR
GS
[0.75 0 0 0.75 0 0.5] CT
1 LJ
0.667 LW
N
209.889 881.5 M
219 881.5 L
219 885 L
219 885 L
S
GR
GS
[0.75 0 0 0.75 0 0.5] CT
1 LJ
0.667 LW
N
219 883.95 M
228.111 883.95 L
S
GR
GS
[0.75 0 0 0.75 0 0.5] CT
1 LJ
0.667 LW
N
228.111 885 M
228.111 885 L
228.111 882.55 L
237.222 882.55 L
237.222 885 L
237.222 885 L
S
GR
GS
[0.75 0 0 0.75 0 0.5] CT
1 LJ
0.667 LW
N
237.222 883.95 M
246.333 883.95 L
246.333 885 L
246.333 885 L
S
GR
GS
[0.75 0 0 0.75 0 0.5] CT
1 LJ
0.667 LW
N
246.333 884.3 M
255.444 884.3 L
255.444 885 L
255.444 885 L
S
GR
GS
[0.75 0 0 0.75 0 0.5] CT
1 LJ
0.667 LW
N
255.444 885 M
264.556 885 L
S
GR
GS
[0.75 0 0 0.75 0 0.5] CT
1 LJ
0.667 LW
N
264.556 885 M
264.556 885 L
264.556 884.3 L
273.667 884.3 L
273.667 885 L
273.667 885 L
S
GR
GS
[0.75 0 0 0.75 0 0.5] CT
1 LJ
0.667 LW
N
273.667 885 M
282.778 885 L
S
GR
GS
[0.75 0 0 0.75 0 0.5] CT
1 LJ
0.667 LW
N
282.778 885 M
282.778 885 L
282.778 884.65 L
291.889 884.65 L
291.889 885 L
S
GR
%%Trailer
%%Pages: 1
%%EOF
