%!PS-Adobe-3.0 EPSF-3.0
%%Creator: (MATLAB, The Mathworks, Inc. Version 8.6.0.267246 \(R2015b\). Operating System: Windows 8)
%%Title: (D:/Marszalek Lab/Force Curves/LuciferaseTruncations/Analysis/Lcs.eps)
%%CreationDate: 2016-05-05T08:48:59
%%Pages: (atend)
%%BoundingBox: 0 0 295 746
%%LanguageLevel: 2
%%EndComments
%%BeginProlog
%%BeginResource: procset (Apache XML Graphics Std ProcSet) 1.2 0
%%Version: 1.2 0
%%Copyright: (Copyright 2001-2003,2010 The Apache Software Foundation. License terms: http://www.apache.org/licenses/LICENSE-2.0)
/bd{bind def}bind def
/ld{load def}bd
/GR/grestore ld
/M/moveto ld
/LJ/setlinejoin ld
/C/curveto ld
/f/fill ld
/LW/setlinewidth ld
/GC/setgray ld
/t/show ld
/N/newpath ld
/CT/concat ld
/cp/closepath ld
/S/stroke ld
/L/lineto ld
/CC/setcmykcolor ld
/A/ashow ld
/GS/gsave ld
/RC/setrgbcolor ld
/RM/rmoveto ld
/ML/setmiterlimit ld
/re {4 2 roll M
1 index 0 rlineto
0 exch rlineto
neg 0 rlineto
cp } bd
/_ctm matrix def
/_tm matrix def
/BT { _ctm currentmatrix pop matrix _tm copy pop 0 0 moveto } bd
/ET { _ctm setmatrix } bd
/iTm { _ctm setmatrix _tm concat } bd
/Tm { _tm astore pop iTm 0 0 moveto } bd
/ux 0.0 def
/uy 0.0 def
/F {
  /Tp exch def
  /Tf exch def
  Tf findfont Tp scalefont setfont
  /cf Tf def  /cs Tp def
} bd
/ULS {currentpoint /uy exch def /ux exch def} bd
/ULE {
  /Tcx currentpoint pop def
  gsave
  newpath
  cf findfont cs scalefont dup
  /FontMatrix get 0 get /Ts exch def /FontInfo get dup
  /UnderlinePosition get Ts mul /To exch def
  /UnderlineThickness get Ts mul /Tt exch def
  ux uy To add moveto  Tcx uy To add lineto
  Tt setlinewidth stroke
  grestore
} bd
/OLE {
  /Tcx currentpoint pop def
  gsave
  newpath
  cf findfont cs scalefont dup
  /FontMatrix get 0 get /Ts exch def /FontInfo get dup
  /UnderlinePosition get Ts mul /To exch def
  /UnderlineThickness get Ts mul /Tt exch def
  ux uy To add cs add moveto Tcx uy To add cs add lineto
  Tt setlinewidth stroke
  grestore
} bd
/SOE {
  /Tcx currentpoint pop def
  gsave
  newpath
  cf findfont cs scalefont dup
  /FontMatrix get 0 get /Ts exch def /FontInfo get dup
  /UnderlinePosition get Ts mul /To exch def
  /UnderlineThickness get Ts mul /Tt exch def
  ux uy To add cs 10 mul 26 idiv add moveto Tcx uy To add cs 10 mul 26 idiv add lineto
  Tt setlinewidth stroke
  grestore
} bd
/QT {
/Y22 exch store
/X22 exch store
/Y21 exch store
/X21 exch store
currentpoint
/Y21 load 2 mul add 3 div exch
/X21 load 2 mul add 3 div exch
/X21 load 2 mul /X22 load add 3 div
/Y21 load 2 mul /Y22 load add 3 div
/X22 load /Y22 load curveto
} bd
/SSPD {
dup length /d exch dict def
{
/v exch def
/k exch def
currentpagedevice k known {
/cpdv currentpagedevice k get def
v cpdv ne {
/upd false def
/nullv v type /nulltype eq def
/nullcpdv cpdv type /nulltype eq def
nullv nullcpdv or
{
/upd true def
} {
/sametype v type cpdv type eq def
sametype {
v type /arraytype eq {
/vlen v length def
/cpdvlen cpdv length def
vlen cpdvlen eq {
0 1 vlen 1 sub {
/i exch def
/obj v i get def
/cpdobj cpdv i get def
obj cpdobj ne {
/upd true def
exit
} if
} for
} {
/upd true def
} ifelse
} {
v type /dicttype eq {
v {
/dv exch def
/dk exch def
/cpddv cpdv dk get def
dv cpddv ne {
/upd true def
exit
} if
} forall
} {
/upd true def
} ifelse
} ifelse
} if
} ifelse
upd true eq {
d k v put
} if
} if
} if
} forall
d length 0 gt {
d setpagedevice
} if
} bd
%%EndResource
%%BeginResource: procset (Apache XML Graphics EPS ProcSet) 1.0 0
%%Version: 1.0 0
%%Copyright: (Copyright 2002-2003 The Apache Software Foundation. License terms: http://www.apache.org/licenses/LICENSE-2.0)
/BeginEPSF { %def
/b4_Inc_state save def         % Save state for cleanup
/dict_count countdictstack def % Count objects on dict stack
/op_count count 1 sub def      % Count objects on operand stack
userdict begin                 % Push userdict on dict stack
/showpage { } def              % Redefine showpage, { } = null proc
0 setgray 0 setlinecap         % Prepare graphics state
1 setlinewidth 0 setlinejoin
10 setmiterlimit [ ] 0 setdash newpath
/languagelevel where           % If level not equal to 1 then
{pop languagelevel             % set strokeadjust and
1 ne                           % overprint to their defaults.
{false setstrokeadjust false setoverprint
} if
} if
} bd
/EndEPSF { %def
count op_count sub {pop} repeat            % Clean up stacks
countdictstack dict_count sub {end} repeat
b4_Inc_state restore
} bd
%%EndResource
%FOPBeginFontDict
%%IncludeResource: font Courier-Bold
%%IncludeResource: font Helvetica
%%IncludeResource: font Courier-BoldOblique
%%IncludeResource: font Courier-Oblique
%%IncludeResource: font Times-Roman
%%IncludeResource: font Helvetica-BoldOblique
%%IncludeResource: font Helvetica-Bold
%%IncludeResource: font Helvetica-Oblique
%%IncludeResource: font Times-BoldItalic
%%IncludeResource: font Courier
%%IncludeResource: font Times-Italic
%%IncludeResource: font Times-Bold
%%IncludeResource: font Symbol
%%IncludeResource: font ZapfDingbats
%FOPEndFontDict
%%BeginResource: encoding WinAnsiEncoding
/WinAnsiEncoding [
/.notdef /.notdef /.notdef /.notdef /.notdef
/.notdef /.notdef /.notdef /.notdef /.notdef
/.notdef /.notdef /.notdef /.notdef /.notdef
/.notdef /.notdef /.notdef /.notdef /.notdef
/.notdef /.notdef /.notdef /.notdef /.notdef
/.notdef /.notdef /.notdef /.notdef /.notdef
/.notdef /.notdef /space /exclam /quotedbl
/numbersign /dollar /percent /ampersand /quotesingle
/parenleft /parenright /asterisk /plus /comma
/hyphen /period /slash /zero /one
/two /three /four /five /six
/seven /eight /nine /colon /semicolon
/less /equal /greater /question /at
/A /B /C /D /E
/F /G /H /I /J
/K /L /M /N /O
/P /Q /R /S /T
/U /V /W /X /Y
/Z /bracketleft /backslash /bracketright /asciicircum
/underscore /quoteleft /a /b /c
/d /e /f /g /h
/i /j /k /l /m
/n /o /p /q /r
/s /t /u /v /w
/x /y /z /braceleft /bar
/braceright /asciitilde /bullet /Euro /bullet
/quotesinglbase /florin /quotedblbase /ellipsis /dagger
/daggerdbl /circumflex /perthousand /Scaron /guilsinglleft
/OE /bullet /Zcaron /bullet /bullet
/quoteleft /quoteright /quotedblleft /quotedblright /bullet
/endash /emdash /asciitilde /trademark /scaron
/guilsinglright /oe /bullet /zcaron /Ydieresis
/space /exclamdown /cent /sterling /currency
/yen /brokenbar /section /dieresis /copyright
/ordfeminine /guillemotleft /logicalnot /sfthyphen /registered
/macron /degree /plusminus /twosuperior /threesuperior
/acute /mu /paragraph /middot /cedilla
/onesuperior /ordmasculine /guillemotright /onequarter /onehalf
/threequarters /questiondown /Agrave /Aacute /Acircumflex
/Atilde /Adieresis /Aring /AE /Ccedilla
/Egrave /Eacute /Ecircumflex /Edieresis /Igrave
/Iacute /Icircumflex /Idieresis /Eth /Ntilde
/Ograve /Oacute /Ocircumflex /Otilde /Odieresis
/multiply /Oslash /Ugrave /Uacute /Ucircumflex
/Udieresis /Yacute /Thorn /germandbls /agrave
/aacute /acircumflex /atilde /adieresis /aring
/ae /ccedilla /egrave /eacute /ecircumflex
/edieresis /igrave /iacute /icircumflex /idieresis
/eth /ntilde /ograve /oacute /ocircumflex
/otilde /odieresis /divide /oslash /ugrave
/uacute /ucircumflex /udieresis /yacute /thorn
/ydieresis
] def
%%EndResource
%FOPBeginFontReencode
/Courier-Bold findfont
dup length dict begin
  {1 index /FID ne {def} {pop pop} ifelse} forall
  /Encoding WinAnsiEncoding def
  currentdict
end
/Courier-Bold exch definefont pop
/Helvetica findfont
dup length dict begin
  {1 index /FID ne {def} {pop pop} ifelse} forall
  /Encoding WinAnsiEncoding def
  currentdict
end
/Helvetica exch definefont pop
/Courier-BoldOblique findfont
dup length dict begin
  {1 index /FID ne {def} {pop pop} ifelse} forall
  /Encoding WinAnsiEncoding def
  currentdict
end
/Courier-BoldOblique exch definefont pop
/Courier-Oblique findfont
dup length dict begin
  {1 index /FID ne {def} {pop pop} ifelse} forall
  /Encoding WinAnsiEncoding def
  currentdict
end
/Courier-Oblique exch definefont pop
/Times-Roman findfont
dup length dict begin
  {1 index /FID ne {def} {pop pop} ifelse} forall
  /Encoding WinAnsiEncoding def
  currentdict
end
/Times-Roman exch definefont pop
/Helvetica-BoldOblique findfont
dup length dict begin
  {1 index /FID ne {def} {pop pop} ifelse} forall
  /Encoding WinAnsiEncoding def
  currentdict
end
/Helvetica-BoldOblique exch definefont pop
/Helvetica-Bold findfont
dup length dict begin
  {1 index /FID ne {def} {pop pop} ifelse} forall
  /Encoding WinAnsiEncoding def
  currentdict
end
/Helvetica-Bold exch definefont pop
/Helvetica-Oblique findfont
dup length dict begin
  {1 index /FID ne {def} {pop pop} ifelse} forall
  /Encoding WinAnsiEncoding def
  currentdict
end
/Helvetica-Oblique exch definefont pop
/Times-BoldItalic findfont
dup length dict begin
  {1 index /FID ne {def} {pop pop} ifelse} forall
  /Encoding WinAnsiEncoding def
  currentdict
end
/Times-BoldItalic exch definefont pop
/Courier findfont
dup length dict begin
  {1 index /FID ne {def} {pop pop} ifelse} forall
  /Encoding WinAnsiEncoding def
  currentdict
end
/Courier exch definefont pop
/Times-Italic findfont
dup length dict begin
  {1 index /FID ne {def} {pop pop} ifelse} forall
  /Encoding WinAnsiEncoding def
  currentdict
end
/Times-Italic exch definefont pop
/Times-Bold findfont
dup length dict begin
  {1 index /FID ne {def} {pop pop} ifelse} forall
  /Encoding WinAnsiEncoding def
  currentdict
end
/Times-Bold exch definefont pop
%FOPEndFontReencode
%%EndProlog
%%Page: 1 1
%%PageBoundingBox: 0 0 295 746
%%BeginPageSetup
[1 0 0 -1 0 746] CT
%%EndPageSetup
GS
[0.75 0 0 0.75 0 0.5] CT
1 GC
N
0 0 393 994 re
f
GR
GS
[0.75 0 0 0.75 0 0.5] CT
1 GC
N
0 0 393 994 re
f
GR
GS
[0.75 0 0 0.75 0 0.5] CT
1 GC
N
51 150 M
356 150 L
356 88 L
51 88 L
cp
f
GR
GS
[0.75 0 0 0.75 0 0.5] CT
0.149 GC
2 setlinecap
1 LJ
0.667 LW
N
51 150 M
356 150 L
S
GR
GS
[0.75 0 0 0.75 0 0.5] CT
0.149 GC
2 setlinecap
1 LJ
0.667 LW
N
51 88 M
356 88 L
S
GR
GS
[0.75 0 0 0.75 0 0.5] CT
0.149 GC
2 setlinecap
1 LJ
0.667 LW
N
51 150 M
51 88 L
S
GR
GS
[0.75 0 0 0.75 0 0.5] CT
0.149 GC
2 setlinecap
1 LJ
0.667 LW
N
356 150 M
356 88 L
S
GR
GS
[0.75 0 0 0.75 0 0.5] CT
0.149 GC
2 setlinecap
1 LJ
0.667 LW
N
51 150 M
54.05 150 L
S
GR
GS
[0.75 0 0 0.75 0 0.5] CT
0.149 GC
2 setlinecap
1 LJ
0.667 LW
N
51 125.2 M
54.05 125.2 L
S
GR
GS
[0.75 0 0 0.75 0 0.5] CT
0.149 GC
2 setlinecap
1 LJ
0.667 LW
N
51 100.4 M
54.05 100.4 L
S
GR
GS
[0.75 0 0 0.75 0 0.5] CT
0.149 GC
2 setlinecap
1 LJ
0.667 LW
N
356 150 M
352.95 150 L
S
GR
GS
[0.75 0 0 0.75 0 0.5] CT
0.149 GC
2 setlinecap
1 LJ
0.667 LW
N
356 125.2 M
352.95 125.2 L
S
GR
GS
[0.75 0 0 0.75 0 0.5] CT
0.149 GC
2 setlinecap
1 LJ
0.667 LW
N
356 100.4 M
352.95 100.4 L
S
GR
GS
[0.75 0 0 0.75 34.25 113] CT
0.149 GC
/Helvetica 13 F
GS
[1 0 0 1 0 0] CT
-8 5.5 moveto 
1 -1 scale
(0) t 
GR
GR
GS
[0.75 0 0 0.75 34.25 94.4] CT
0.149 GC
/Helvetica 13 F
GS
[1 0 0 1 0 0] CT
-15 5.5 moveto 
1 -1 scale
(10) t 
GR
GR
GS
[0.75 0 0 0.75 34.25 75.8] CT
0.149 GC
/Helvetica 13 F
GS
[1 0 0 1 0 0] CT
-15 5.5 moveto 
1 -1 scale
(20) t 
GR
GR
GS
[0.75 0 0 0.75 152.62515 64.4375] CT
/Helvetica-Bold 15 F
GS
[1 0 0 1 0 0] CT
-33 -4 moveto 
1 -1 scale
(Luc1-203) t 
GR
GR
GS
[0.75 0 0 0.75 0 0.5] CT
0.4 0.4 1 RC
N
93.361 150 M
93.361 142.56 L
101.833 142.56 L
101.833 150 L
cp
f
GR
GS
[0.75 0 0 0.75 0 0.5] CT
0.4 0.4 1 RC
N
101.833 150 M
101.833 135.12 L
110.306 135.12 L
110.306 150 L
cp
f
GR
GS
[0.75 0 0 0.75 0 0.5] CT
0.4 0.4 1 RC
N
110.306 150 M
110.306 132.64 L
118.778 132.64 L
118.778 150 L
cp
f
GR
GS
[0.75 0 0 0.75 0 0.5] CT
0.4 0.4 1 RC
N
118.778 150 M
118.778 125.2 L
127.25 125.2 L
127.25 150 L
cp
f
GR
GS
[0.75 0 0 0.75 0 0.5] CT
0.4 0.4 1 RC
N
127.25 150 M
127.25 115.28 L
135.722 115.28 L
135.722 150 L
cp
f
GR
GS
[0.75 0 0 0.75 0 0.5] CT
0.4 0.4 1 RC
N
135.722 150 M
135.722 95.44 L
144.194 95.44 L
144.194 150 L
cp
f
GR
GS
[0.75 0 0 0.75 0 0.5] CT
0.4 0.4 1 RC
N
144.194 150 M
144.194 102.88 L
152.667 102.88 L
152.667 150 L
cp
f
GR
GS
[0.75 0 0 0.75 0 0.5] CT
0.4 0.4 1 RC
N
152.667 150 M
152.667 132.64 L
161.139 132.64 L
161.139 150 L
cp
f
GR
GS
[0.75 0 0 0.75 0 0.5] CT
0.4 0.4 1 RC
N
161.139 150 M
161.139 140.08 L
169.611 140.08 L
169.611 150 L
cp
f
GR
GS
[0.75 0 0 0.75 0 0.5] CT
0.4 0.4 1 RC
N
169.611 150 M
169.611 137.6 L
178.083 137.6 L
178.083 150 L
cp
f
GR
GS
[0.75 0 0 0.75 0 0.5] CT
0.4 0.4 1 RC
N
178.083 150 M
178.083 137.6 L
186.556 137.6 L
186.556 150 L
cp
f
GR
GS
[0.75 0 0 0.75 0 0.5] CT
0.4 0.4 1 RC
N
186.556 150 M
186.556 145.04 L
195.028 145.04 L
195.028 150 L
cp
f
GR
GS
[0.75 0 0 0.75 0 0.5] CT
0.4 0.4 1 RC
N
195.028 150 M
195.028 147.52 L
203.5 147.52 L
203.5 150 L
cp
f
GR
GS
[0.75 0 0 0.75 0 0.5] CT
0.4 0.4 1 RC
N
203.5 150 M
203.5 147.52 L
211.972 147.52 L
211.972 150 L
cp
f
GR
GS
[0.75 0 0 0.75 0 0.5] CT
0.4 0.4 1 RC
N
211.972 150 M
211.972 147.52 L
220.444 147.52 L
220.444 150 L
cp
f
GR
GS
[0.75 0 0 0.75 0 0.5] CT
1 LJ
0.667 LW
N
93.361 150 M
93.361 142.56 L
101.833 142.56 L
S
GR
GS
[0.75 0 0 0.75 0 0.5] CT
1 LJ
0.667 LW
N
101.833 150 M
101.833 150 L
101.833 135.12 L
110.306 135.12 L
S
GR
GS
[0.75 0 0 0.75 0 0.5] CT
1 LJ
0.667 LW
N
110.306 150 M
110.306 150 L
110.306 132.64 L
118.778 132.64 L
S
GR
GS
[0.75 0 0 0.75 0 0.5] CT
1 LJ
0.667 LW
N
118.778 150 M
118.778 150 L
118.778 125.2 L
127.25 125.2 L
S
GR
GS
[0.75 0 0 0.75 0 0.5] CT
1 LJ
0.667 LW
N
127.25 150 M
127.25 150 L
127.25 115.28 L
135.722 115.28 L
S
GR
GS
[0.75 0 0 0.75 0 0.5] CT
1 LJ
0.667 LW
N
135.722 150 M
135.722 150 L
135.722 95.44 L
144.194 95.44 L
144.194 150 L
144.194 150 L
S
GR
GS
[0.75 0 0 0.75 0 0.5] CT
1 LJ
0.667 LW
N
144.194 102.88 M
152.667 102.88 L
152.667 150 L
152.667 150 L
S
GR
GS
[0.75 0 0 0.75 0 0.5] CT
1 LJ
0.667 LW
N
152.667 132.64 M
161.139 132.64 L
161.139 150 L
161.139 150 L
S
GR
GS
[0.75 0 0 0.75 0 0.5] CT
1 LJ
0.667 LW
N
161.139 140.08 M
169.611 140.08 L
S
GR
GS
[0.75 0 0 0.75 0 0.5] CT
1 LJ
0.667 LW
N
169.611 150 M
169.611 150 L
169.611 137.6 L
178.083 137.6 L
178.083 150 L
178.083 150 L
S
GR
GS
[0.75 0 0 0.75 0 0.5] CT
1 LJ
0.667 LW
N
178.083 137.6 M
186.556 137.6 L
186.556 150 L
186.556 150 L
S
GR
GS
[0.75 0 0 0.75 0 0.5] CT
1 LJ
0.667 LW
N
186.556 145.04 M
195.028 145.04 L
195.028 150 L
195.028 150 L
S
GR
GS
[0.75 0 0 0.75 0 0.5] CT
1 LJ
0.667 LW
N
195.028 147.52 M
203.5 147.52 L
203.5 150 L
203.5 150 L
S
GR
GS
[0.75 0 0 0.75 0 0.5] CT
1 LJ
0.667 LW
N
203.5 147.52 M
211.972 147.52 L
211.972 150 L
211.972 150 L
S
GR
GS
[0.75 0 0 0.75 0 0.5] CT
1 LJ
0.667 LW
N
211.972 147.52 M
220.444 147.52 L
220.444 150 L
S
GR
GS
[0.75 0 0 0.75 0 0.5] CT
1 0 0 RC
1 LJ
4 LW
N
176.55 150 M
176.55 87.994 L
S
GR
GS
[0.75 0 0 0.75 0 0.5] CT
0 1 0 RC
1 LJ
6.667 LW
N
151.811 150 M
151.811 87.994 L
S
GR
GS
[0.75 0 0 0.75 0 0.5] CT
1 GC
N
51 255 M
356 255 L
356 193 L
51 193 L
cp
f
GR
GS
[0.75 0 0 0.75 0 0.5] CT
0.149 GC
2 setlinecap
1 LJ
0.667 LW
N
51 255 M
356 255 L
S
GR
GS
[0.75 0 0 0.75 0 0.5] CT
0.149 GC
2 setlinecap
1 LJ
0.667 LW
N
51 193 M
356 193 L
S
GR
GS
[0.75 0 0 0.75 0 0.5] CT
0.149 GC
2 setlinecap
1 LJ
0.667 LW
N
51 255 M
51 193 L
S
GR
GS
[0.75 0 0 0.75 0 0.5] CT
0.149 GC
2 setlinecap
1 LJ
0.667 LW
N
356 255 M
356 193 L
S
GR
GS
[0.75 0 0 0.75 0 0.5] CT
0.149 GC
2 setlinecap
1 LJ
0.667 LW
N
51 255 M
54.05 255 L
S
GR
GS
[0.75 0 0 0.75 0 0.5] CT
0.149 GC
2 setlinecap
1 LJ
0.667 LW
N
51 234.333 M
54.05 234.333 L
S
GR
GS
[0.75 0 0 0.75 0 0.5] CT
0.149 GC
2 setlinecap
1 LJ
0.667 LW
N
51 213.667 M
54.05 213.667 L
S
GR
GS
[0.75 0 0 0.75 0 0.5] CT
0.149 GC
2 setlinecap
1 LJ
0.667 LW
N
51 193 M
54.05 193 L
S
GR
GS
[0.75 0 0 0.75 0 0.5] CT
0.149 GC
2 setlinecap
1 LJ
0.667 LW
N
356 255 M
352.95 255 L
S
GR
GS
[0.75 0 0 0.75 0 0.5] CT
0.149 GC
2 setlinecap
1 LJ
0.667 LW
N
356 234.333 M
352.95 234.333 L
S
GR
GS
[0.75 0 0 0.75 0 0.5] CT
0.149 GC
2 setlinecap
1 LJ
0.667 LW
N
356 213.667 M
352.95 213.667 L
S
GR
GS
[0.75 0 0 0.75 0 0.5] CT
0.149 GC
2 setlinecap
1 LJ
0.667 LW
N
356 193 M
352.95 193 L
S
GR
GS
[0.75 0 0 0.75 34.25 191.75] CT
0.149 GC
/Helvetica 13 F
GS
[1 0 0 1 0 0] CT
-8 5.5 moveto 
1 -1 scale
(0) t 
GR
GR
GS
[0.75 0 0 0.75 34.25 176.25] CT
0.149 GC
/Helvetica 13 F
GS
[1 0 0 1 0 0] CT
-15 5.5 moveto 
1 -1 scale
(10) t 
GR
GR
GS
[0.75 0 0 0.75 34.25 160.75] CT
0.149 GC
/Helvetica 13 F
GS
[1 0 0 1 0 0] CT
-15 5.5 moveto 
1 -1 scale
(20) t 
GR
GR
GS
[0.75 0 0 0.75 34.25 145.25] CT
0.149 GC
/Helvetica 13 F
GS
[1 0 0 1 0 0] CT
-15 5.5 moveto 
1 -1 scale
(30) t 
GR
GR
GS
[0.75 0 0 0.75 152.62515 143.1875] CT
/Helvetica-Bold 15 F
GS
[1 0 0 1 0 0] CT
-33 -4 moveto 
1 -1 scale
(Luc1-268) t 
GR
GR
GS
[0.75 0 0 0.75 0 0.5] CT
0.4 0.4 1 RC
N
93.361 255 M
93.361 250.867 L
101.833 250.867 L
101.833 255 L
cp
f
GR
GS
[0.75 0 0 0.75 0 0.5] CT
0.4 0.4 1 RC
N
101.833 255 M
101.833 255 L
110.306 255 L
110.306 255 L
cp
f
GR
GS
[0.75 0 0 0.75 0 0.5] CT
0.4 0.4 1 RC
N
110.306 255 M
110.306 255 L
118.778 255 L
118.778 255 L
cp
f
GR
GS
[0.75 0 0 0.75 0 0.5] CT
0.4 0.4 1 RC
N
118.778 255 M
118.778 252.933 L
127.25 252.933 L
127.25 255 L
cp
f
GR
GS
[0.75 0 0 0.75 0 0.5] CT
0.4 0.4 1 RC
N
127.25 255 M
127.25 248.8 L
135.722 248.8 L
135.722 255 L
cp
f
GR
GS
[0.75 0 0 0.75 0 0.5] CT
0.4 0.4 1 RC
N
135.722 255 M
135.722 248.8 L
144.194 248.8 L
144.194 255 L
cp
f
GR
GS
[0.75 0 0 0.75 0 0.5] CT
0.4 0.4 1 RC
N
144.194 255 M
144.194 248.8 L
152.667 248.8 L
152.667 255 L
cp
f
GR
GS
[0.75 0 0 0.75 0 0.5] CT
0.4 0.4 1 RC
N
152.667 255 M
152.667 246.733 L
161.139 246.733 L
161.139 255 L
cp
f
GR
GS
[0.75 0 0 0.75 0 0.5] CT
0.4 0.4 1 RC
N
161.139 255 M
161.139 232.267 L
169.611 232.267 L
169.611 255 L
cp
f
GR
GS
[0.75 0 0 0.75 0 0.5] CT
0.4 0.4 1 RC
N
169.611 255 M
169.611 221.933 L
178.083 221.933 L
178.083 255 L
cp
f
GR
GS
[0.75 0 0 0.75 0 0.5] CT
0.4 0.4 1 RC
N
178.083 255 M
178.083 197.133 L
186.556 197.133 L
186.556 255 L
cp
f
GR
GS
[0.75 0 0 0.75 0 0.5] CT
0.4 0.4 1 RC
N
186.556 255 M
186.556 205.4 L
195.028 205.4 L
195.028 255 L
cp
f
GR
GS
[0.75 0 0 0.75 0 0.5] CT
0.4 0.4 1 RC
N
195.028 255 M
195.028 224 L
203.5 224 L
203.5 255 L
cp
f
GR
GS
[0.75 0 0 0.75 0 0.5] CT
0.4 0.4 1 RC
N
203.5 255 M
203.5 236.4 L
211.972 236.4 L
211.972 255 L
cp
f
GR
GS
[0.75 0 0 0.75 0 0.5] CT
0.4 0.4 1 RC
N
211.972 255 M
211.972 248.8 L
220.444 248.8 L
220.444 255 L
cp
f
GR
GS
[0.75 0 0 0.75 0 0.5] CT
0.4 0.4 1 RC
N
220.444 255 M
220.444 236.4 L
228.917 236.4 L
228.917 255 L
cp
f
GR
GS
[0.75 0 0 0.75 0 0.5] CT
0.4 0.4 1 RC
N
228.917 255 M
228.917 248.8 L
237.389 248.8 L
237.389 255 L
cp
f
GR
GS
[0.75 0 0 0.75 0 0.5] CT
0.4 0.4 1 RC
N
237.389 255 M
237.389 248.8 L
245.861 248.8 L
245.861 255 L
cp
f
GR
GS
[0.75 0 0 0.75 0 0.5] CT
0.4 0.4 1 RC
N
245.861 255 M
245.861 250.867 L
254.333 250.867 L
254.333 255 L
cp
f
GR
GS
[0.75 0 0 0.75 0 0.5] CT
0.4 0.4 1 RC
N
254.333 255 M
254.333 252.933 L
262.806 252.933 L
262.806 255 L
cp
f
GR
GS
[0.75 0 0 0.75 0 0.5] CT
0.4 0.4 1 RC
N
262.806 255 M
262.806 248.8 L
271.278 248.8 L
271.278 255 L
cp
f
GR
GS
[0.75 0 0 0.75 0 0.5] CT
0.4 0.4 1 RC
N
271.278 255 M
271.278 255 L
279.75 255 L
279.75 255 L
cp
f
GR
GS
[0.75 0 0 0.75 0 0.5] CT
0.4 0.4 1 RC
N
279.75 255 M
279.75 252.933 L
288.222 252.933 L
288.222 255 L
cp
f
GR
GS
[0.75 0 0 0.75 0 0.5] CT
1 LJ
0.667 LW
N
93.361 255 M
93.361 250.867 L
101.833 250.867 L
101.833 255 L
101.833 255 L
S
GR
GS
[0.75 0 0 0.75 0 0.5] CT
1 LJ
0.667 LW
N
101.833 255 M
110.306 255 L
110.306 255 L
110.306 255 L
S
GR
GS
[0.75 0 0 0.75 0 0.5] CT
1 LJ
0.667 LW
N
110.306 255 M
118.778 255 L
S
GR
GS
[0.75 0 0 0.75 0 0.5] CT
1 LJ
0.667 LW
N
118.778 255 M
118.778 255 L
118.778 252.933 L
127.25 252.933 L
S
GR
GS
[0.75 0 0 0.75 0 0.5] CT
1 LJ
0.667 LW
N
127.25 255 M
127.25 255 L
127.25 248.8 L
135.722 248.8 L
135.722 255 L
135.722 255 L
S
GR
GS
[0.75 0 0 0.75 0 0.5] CT
1 LJ
0.667 LW
N
135.722 248.8 M
144.194 248.8 L
144.194 255 L
144.194 255 L
S
GR
GS
[0.75 0 0 0.75 0 0.5] CT
1 LJ
0.667 LW
N
144.194 248.8 M
152.667 248.8 L
S
GR
GS
[0.75 0 0 0.75 0 0.5] CT
1 LJ
0.667 LW
N
152.667 255 M
152.667 255 L
152.667 246.733 L
161.139 246.733 L
S
GR
GS
[0.75 0 0 0.75 0 0.5] CT
1 LJ
0.667 LW
N
161.139 255 M
161.139 255 L
161.139 232.267 L
169.611 232.267 L
S
GR
GS
[0.75 0 0 0.75 0 0.5] CT
1 LJ
0.667 LW
N
169.611 255 M
169.611 255 L
169.611 221.933 L
178.083 221.933 L
S
GR
GS
[0.75 0 0 0.75 0 0.5] CT
1 LJ
0.667 LW
N
178.083 255 M
178.083 255 L
178.083 197.133 L
186.556 197.133 L
186.556 255 L
186.556 255 L
S
GR
GS
[0.75 0 0 0.75 0 0.5] CT
1 LJ
0.667 LW
N
186.556 205.4 M
195.028 205.4 L
195.028 255 L
195.028 255 L
S
GR
GS
[0.75 0 0 0.75 0 0.5] CT
1 LJ
0.667 LW
N
195.028 224 M
203.5 224 L
203.5 255 L
203.5 255 L
S
GR
GS
[0.75 0 0 0.75 0 0.5] CT
1 LJ
0.667 LW
N
203.5 236.4 M
211.972 236.4 L
211.972 255 L
211.972 255 L
S
GR
GS
[0.75 0 0 0.75 0 0.5] CT
1 LJ
0.667 LW
N
211.972 248.8 M
220.444 248.8 L
S
GR
GS
[0.75 0 0 0.75 0 0.5] CT
1 LJ
0.667 LW
N
220.444 255 M
220.444 255 L
220.444 236.4 L
228.917 236.4 L
228.917 255 L
228.917 255 L
S
GR
GS
[0.75 0 0 0.75 0 0.5] CT
1 LJ
0.667 LW
N
228.917 248.8 M
237.389 248.8 L
237.389 255 L
237.389 255 L
S
GR
GS
[0.75 0 0 0.75 0 0.5] CT
1 LJ
0.667 LW
N
237.389 248.8 M
245.861 248.8 L
245.861 255 L
245.861 255 L
S
GR
GS
[0.75 0 0 0.75 0 0.5] CT
1 LJ
0.667 LW
N
245.861 250.867 M
254.333 250.867 L
254.333 255 L
254.333 255 L
S
GR
GS
[0.75 0 0 0.75 0 0.5] CT
1 LJ
0.667 LW
N
254.333 252.933 M
262.806 252.933 L
S
GR
GS
[0.75 0 0 0.75 0 0.5] CT
1 LJ
0.667 LW
N
262.806 255 M
262.806 255 L
262.806 248.8 L
271.278 248.8 L
271.278 255 L
271.278 255 L
S
GR
GS
[0.75 0 0 0.75 0 0.5] CT
1 LJ
0.667 LW
N
271.278 255 M
279.75 255 L
S
GR
GS
[0.75 0 0 0.75 0 0.5] CT
1 LJ
0.667 LW
N
279.75 255 M
279.75 255 L
279.75 252.933 L
288.222 252.933 L
288.222 255 L
S
GR
GS
[0.75 0 0 0.75 0 0.5] CT
1 0 0 RC
1 LJ
4 LW
N
216.751 255 M
216.751 192.994 L
S
GR
GS
[0.75 0 0 0.75 0 0.5] CT
0 1 0 RC
1 LJ
6.667 LW
N
192.012 255 M
192.012 192.994 L
S
GR
GS
[0.75 0 0 0.75 0 0.5] CT
1 GC
N
51 360 M
356 360 L
356 298 L
51 298 L
cp
f
GR
GS
[0.75 0 0 0.75 0 0.5] CT
0.149 GC
2 setlinecap
1 LJ
0.667 LW
N
51 360 M
356 360 L
S
GR
GS
[0.75 0 0 0.75 0 0.5] CT
0.149 GC
2 setlinecap
1 LJ
0.667 LW
N
51 298 M
356 298 L
S
GR
GS
[0.75 0 0 0.75 0 0.5] CT
0.149 GC
2 setlinecap
1 LJ
0.667 LW
N
51 360 M
51 298 L
S
GR
GS
[0.75 0 0 0.75 0 0.5] CT
0.149 GC
2 setlinecap
1 LJ
0.667 LW
N
356 360 M
356 298 L
S
GR
GS
[0.75 0 0 0.75 0 0.5] CT
0.149 GC
2 setlinecap
1 LJ
0.667 LW
N
51 360 M
54.05 360 L
S
GR
GS
[0.75 0 0 0.75 0 0.5] CT
0.149 GC
2 setlinecap
1 LJ
0.667 LW
N
51 308.333 M
54.05 308.333 L
S
GR
GS
[0.75 0 0 0.75 0 0.5] CT
0.149 GC
2 setlinecap
1 LJ
0.667 LW
N
356 360 M
352.95 360 L
S
GR
GS
[0.75 0 0 0.75 0 0.5] CT
0.149 GC
2 setlinecap
1 LJ
0.667 LW
N
356 308.333 M
352.95 308.333 L
S
GR
GS
[0.75 0 0 0.75 34.25 270.5] CT
0.149 GC
/Helvetica 13 F
GS
[1 0 0 1 0 0] CT
-8 5.5 moveto 
1 -1 scale
(0) t 
GR
GR
GS
[0.75 0 0 0.75 34.25 231.75001] CT
0.149 GC
/Helvetica 13 F
GS
[1 0 0 1 0 0] CT
-15 5.5 moveto 
1 -1 scale
(50) t 
GR
GR
GS
[0.75 0 0 0.75 152.62515 221.9375] CT
/Helvetica-Bold 15 F
GS
[1 0 0 1 0 0] CT
-57 -4 moveto 
1 -1 scale
(Luc1-450-Peak1) t 
GR
GR
GS
[0.75 0 0 0.75 0 0.5] CT
0.4 0.4 1 RC
N
118.778 360 M
118.778 357.933 L
127.25 357.933 L
127.25 360 L
cp
f
GR
GS
[0.75 0 0 0.75 0 0.5] CT
0.4 0.4 1 RC
N
127.25 360 M
127.25 360 L
135.722 360 L
135.722 360 L
cp
f
GR
GS
[0.75 0 0 0.75 0 0.5] CT
0.4 0.4 1 RC
N
135.722 360 M
135.722 357.933 L
144.194 357.933 L
144.194 360 L
cp
f
GR
GS
[0.75 0 0 0.75 0 0.5] CT
0.4 0.4 1 RC
N
144.194 360 M
144.194 356.9 L
152.667 356.9 L
152.667 360 L
cp
f
GR
GS
[0.75 0 0 0.75 0 0.5] CT
0.4 0.4 1 RC
N
152.667 360 M
152.667 352.767 L
161.139 352.767 L
161.139 360 L
cp
f
GR
GS
[0.75 0 0 0.75 0 0.5] CT
0.4 0.4 1 RC
N
161.139 360 M
161.139 345.533 L
169.611 345.533 L
169.611 360 L
cp
f
GR
GS
[0.75 0 0 0.75 0 0.5] CT
0.4 0.4 1 RC
N
169.611 360 M
169.611 314.533 L
178.083 314.533 L
178.083 360 L
cp
f
GR
GS
[0.75 0 0 0.75 0 0.5] CT
0.4 0.4 1 RC
N
178.083 360 M
178.083 319.7 L
186.556 319.7 L
186.556 360 L
cp
f
GR
GS
[0.75 0 0 0.75 0 0.5] CT
0.4 0.4 1 RC
N
186.556 360 M
186.556 351.733 L
195.028 351.733 L
195.028 360 L
cp
f
GR
GS
[0.75 0 0 0.75 0 0.5] CT
0.4 0.4 1 RC
N
195.028 360 M
195.028 356.9 L
203.5 356.9 L
203.5 360 L
cp
f
GR
GS
[0.75 0 0 0.75 0 0.5] CT
1 LJ
0.667 LW
N
118.778 360 M
118.778 357.933 L
127.25 357.933 L
127.25 360 L
127.25 360 L
S
GR
GS
[0.75 0 0 0.75 0 0.5] CT
1 LJ
0.667 LW
N
127.25 360 M
135.722 360 L
S
GR
GS
[0.75 0 0 0.75 0 0.5] CT
1 LJ
0.667 LW
N
135.722 360 M
135.722 360 L
135.722 357.933 L
144.194 357.933 L
S
GR
GS
[0.75 0 0 0.75 0 0.5] CT
1 LJ
0.667 LW
N
144.194 360 M
144.194 360 L
144.194 356.9 L
152.667 356.9 L
S
GR
GS
[0.75 0 0 0.75 0 0.5] CT
1 LJ
0.667 LW
N
152.667 360 M
152.667 360 L
152.667 352.767 L
161.139 352.767 L
S
GR
GS
[0.75 0 0 0.75 0 0.5] CT
1 LJ
0.667 LW
N
161.139 360 M
161.139 360 L
161.139 345.533 L
169.611 345.533 L
S
GR
GS
[0.75 0 0 0.75 0 0.5] CT
1 LJ
0.667 LW
N
169.611 360 M
169.611 360 L
169.611 314.533 L
178.083 314.533 L
178.083 360 L
178.083 360 L
S
GR
GS
[0.75 0 0 0.75 0 0.5] CT
1 LJ
0.667 LW
N
178.083 319.7 M
186.556 319.7 L
186.556 360 L
186.556 360 L
S
GR
GS
[0.75 0 0 0.75 0 0.5] CT
1 LJ
0.667 LW
N
186.556 351.733 M
195.028 351.733 L
195.028 360 L
195.028 360 L
S
GR
GS
[0.75 0 0 0.75 0 0.5] CT
1 LJ
0.667 LW
N
195.028 356.9 M
203.5 356.9 L
203.5 360 L
S
GR
GS
[0.75 0 0 0.75 0 0.5] CT
1 0 0 RC
1 LJ
4 LW
N
329.313 360 M
329.313 317.633 L
S
GR
GS
[0.75 0 0 0.75 0 0.5] CT
0 1 0 RC
1 LJ
6.667 LW
N
165.417 360 M
165.417 297.994 L
S
GR
GS
[0.75 0 0 0.75 0 0.5] CT
1 GC
N
51 465 M
356 465 L
356 403 L
51 403 L
cp
f
GR
GS
[0.75 0 0 0.75 0 0.5] CT
0.149 GC
2 setlinecap
1 LJ
0.667 LW
N
51 465 M
356 465 L
S
GR
GS
[0.75 0 0 0.75 0 0.5] CT
0.149 GC
2 setlinecap
1 LJ
0.667 LW
N
51 403 M
356 403 L
S
GR
GS
[0.75 0 0 0.75 0 0.5] CT
0.149 GC
2 setlinecap
1 LJ
0.667 LW
N
51 465 M
51 403 L
S
GR
GS
[0.75 0 0 0.75 0 0.5] CT
0.149 GC
2 setlinecap
1 LJ
0.667 LW
N
356 465 M
356 403 L
S
GR
GS
[0.75 0 0 0.75 0 0.5] CT
0.149 GC
2 setlinecap
1 LJ
0.667 LW
N
51 465 M
54.05 465 L
S
GR
GS
[0.75 0 0 0.75 0 0.5] CT
0.149 GC
2 setlinecap
1 LJ
0.667 LW
N
51 413.333 M
54.05 413.333 L
S
GR
GS
[0.75 0 0 0.75 0 0.5] CT
0.149 GC
2 setlinecap
1 LJ
0.667 LW
N
356 465 M
352.95 465 L
S
GR
GS
[0.75 0 0 0.75 0 0.5] CT
0.149 GC
2 setlinecap
1 LJ
0.667 LW
N
356 413.333 M
352.95 413.333 L
S
GR
GS
[0.75 0 0 0.75 34.25 349.25] CT
0.149 GC
/Helvetica 13 F
GS
[1 0 0 1 0 0] CT
-8 5.5 moveto 
1 -1 scale
(0) t 
GR
GR
GS
[0.75 0 0 0.75 34.25 310.50001] CT
0.149 GC
/Helvetica 13 F
GS
[1 0 0 1 0 0] CT
-15 5.5 moveto 
1 -1 scale
(50) t 
GR
GR
GS
[0.75 0 0 0.75 152.62515 300.6875] CT
/Helvetica-Bold 15 F
GS
[1 0 0 1 0 0] CT
-57 -4 moveto 
1 -1 scale
(Luc1-450-Peak2) t 
GR
GR
GS
[0.75 0 0 0.75 0 0.5] CT
0.4 0.4 1 RC
N
152.667 465 M
152.667 460.867 L
161.139 460.867 L
161.139 465 L
cp
f
GR
GS
[0.75 0 0 0.75 0 0.5] CT
0.4 0.4 1 RC
N
161.139 465 M
161.139 460.867 L
169.611 460.867 L
169.611 465 L
cp
f
GR
GS
[0.75 0 0 0.75 0 0.5] CT
0.4 0.4 1 RC
N
169.611 465 M
169.611 462.933 L
178.083 462.933 L
178.083 465 L
cp
f
GR
GS
[0.75 0 0 0.75 0 0.5] CT
0.4 0.4 1 RC
N
178.083 465 M
178.083 458.8 L
186.556 458.8 L
186.556 465 L
cp
f
GR
GS
[0.75 0 0 0.75 0 0.5] CT
0.4 0.4 1 RC
N
186.556 465 M
186.556 418.5 L
195.028 418.5 L
195.028 465 L
cp
f
GR
GS
[0.75 0 0 0.75 0 0.5] CT
0.4 0.4 1 RC
N
195.028 465 M
195.028 413.333 L
203.5 413.333 L
203.5 465 L
cp
f
GR
GS
[0.75 0 0 0.75 0 0.5] CT
0.4 0.4 1 RC
N
203.5 465 M
203.5 455.7 L
211.972 455.7 L
211.972 465 L
cp
f
GR
GS
[0.75 0 0 0.75 0 0.5] CT
0.4 0.4 1 RC
N
211.972 465 M
211.972 463.967 L
220.444 463.967 L
220.444 465 L
cp
f
GR
GS
[0.75 0 0 0.75 0 0.5] CT
0.4 0.4 1 RC
N
220.444 465 M
220.444 463.967 L
228.917 463.967 L
228.917 465 L
cp
f
GR
GS
[0.75 0 0 0.75 0 0.5] CT
1 LJ
0.667 LW
N
152.667 465 M
152.667 460.867 L
161.139 460.867 L
161.139 465 L
161.139 465 L
S
GR
GS
[0.75 0 0 0.75 0 0.5] CT
1 LJ
0.667 LW
N
161.139 460.867 M
169.611 460.867 L
169.611 465 L
169.611 465 L
S
GR
GS
[0.75 0 0 0.75 0 0.5] CT
1 LJ
0.667 LW
N
169.611 462.933 M
178.083 462.933 L
S
GR
GS
[0.75 0 0 0.75 0 0.5] CT
1 LJ
0.667 LW
N
178.083 465 M
178.083 465 L
178.083 458.8 L
186.556 458.8 L
S
GR
GS
[0.75 0 0 0.75 0 0.5] CT
1 LJ
0.667 LW
N
186.556 465 M
186.556 465 L
186.556 418.5 L
195.028 418.5 L
S
GR
GS
[0.75 0 0 0.75 0 0.5] CT
1 LJ
0.667 LW
N
195.028 465 M
195.028 465 L
195.028 413.333 L
203.5 413.333 L
203.5 465 L
203.5 465 L
S
GR
GS
[0.75 0 0 0.75 0 0.5] CT
1 LJ
0.667 LW
N
203.5 455.7 M
211.972 455.7 L
211.972 465 L
211.972 465 L
S
GR
GS
[0.75 0 0 0.75 0 0.5] CT
1 LJ
0.667 LW
N
211.972 463.967 M
220.444 463.967 L
220.444 465 L
220.444 465 L
S
GR
GS
[0.75 0 0 0.75 0 0.5] CT
1 LJ
0.667 LW
N
220.444 463.967 M
228.917 463.967 L
228.917 465 L
S
GR
GS
[0.75 0 0 0.75 0 0.5] CT
1 0 0 RC
1 LJ
4 LW
N
329.313 465 M
329.313 422.633 L
S
GR
GS
[0.75 0 0 0.75 0 0.5] CT
0 1 0 RC
1 LJ
6.667 LW
N
204.381 465 M
204.381 402.994 L
S
GR
GS
[0.75 0 0 0.75 0 0.5] CT
1 GC
N
51 570 M
356 570 L
356 507 L
51 507 L
cp
f
GR
GS
[0.75 0 0 0.75 0 0.5] CT
0.149 GC
2 setlinecap
1 LJ
0.667 LW
N
51 570 M
356 570 L
S
GR
GS
[0.75 0 0 0.75 0 0.5] CT
0.149 GC
2 setlinecap
1 LJ
0.667 LW
N
51 507 M
356 507 L
S
GR
GS
[0.75 0 0 0.75 0 0.5] CT
0.149 GC
2 setlinecap
1 LJ
0.667 LW
N
51 570 M
51 507 L
S
GR
GS
[0.75 0 0 0.75 0 0.5] CT
0.149 GC
2 setlinecap
1 LJ
0.667 LW
N
356 570 M
356 507 L
S
GR
GS
[0.75 0 0 0.75 0 0.5] CT
0.149 GC
2 setlinecap
1 LJ
0.667 LW
N
51 570 M
54.05 570 L
S
GR
GS
[0.75 0 0 0.75 0 0.5] CT
0.149 GC
2 setlinecap
1 LJ
0.667 LW
N
51 538.5 M
54.05 538.5 L
S
GR
GS
[0.75 0 0 0.75 0 0.5] CT
0.149 GC
2 setlinecap
1 LJ
0.667 LW
N
51 507 M
54.05 507 L
S
GR
GS
[0.75 0 0 0.75 0 0.5] CT
0.149 GC
2 setlinecap
1 LJ
0.667 LW
N
356 570 M
352.95 570 L
S
GR
GS
[0.75 0 0 0.75 0 0.5] CT
0.149 GC
2 setlinecap
1 LJ
0.667 LW
N
356 538.5 M
352.95 538.5 L
S
GR
GS
[0.75 0 0 0.75 0 0.5] CT
0.149 GC
2 setlinecap
1 LJ
0.667 LW
N
356 507 M
352.95 507 L
S
GR
GS
[0.75 0 0 0.75 34.25 428] CT
0.149 GC
/Helvetica 13 F
GS
[1 0 0 1 0 0] CT
-8 5.5 moveto 
1 -1 scale
(0) t 
GR
GR
GS
[0.75 0 0 0.75 34.25 404.375] CT
0.149 GC
/Helvetica 13 F
GS
[1 0 0 1 0 0] CT
-8 5.5 moveto 
1 -1 scale
(5) t 
GR
GR
GS
[0.75 0 0 0.75 34.25 380.75] CT
0.149 GC
/Helvetica 13 F
GS
[1 0 0 1 0 0] CT
-15 5.5 moveto 
1 -1 scale
(10) t 
GR
GR
GS
[0.75 0 0 0.75 152.62515 378.6875] CT
/Helvetica-Bold 15 F
GS
[1 0 0 1 0 0] CT
-37 -4 moveto 
1 -1 scale
(Luc46-180) t 
GR
GR
GS
[0.75 0 0 0.75 0 0.5] CT
0.4 0.4 1 RC
N
76.417 570 M
76.417 557.4 L
84.889 557.4 L
84.889 570 L
cp
f
GR
GS
[0.75 0 0 0.75 0 0.5] CT
0.4 0.4 1 RC
N
84.889 570 M
84.889 557.4 L
93.361 557.4 L
93.361 570 L
cp
f
GR
GS
[0.75 0 0 0.75 0 0.5] CT
0.4 0.4 1 RC
N
93.361 570 M
93.361 544.8 L
101.833 544.8 L
101.833 570 L
cp
f
GR
GS
[0.75 0 0 0.75 0 0.5] CT
0.4 0.4 1 RC
N
101.833 570 M
101.833 551.1 L
110.306 551.1 L
110.306 570 L
cp
f
GR
GS
[0.75 0 0 0.75 0 0.5] CT
0.4 0.4 1 RC
N
110.306 570 M
110.306 532.2 L
118.778 532.2 L
118.778 570 L
cp
f
GR
GS
[0.75 0 0 0.75 0 0.5] CT
0.4 0.4 1 RC
N
118.778 570 M
118.778 525.9 L
127.25 525.9 L
127.25 570 L
cp
f
GR
GS
[0.75 0 0 0.75 0 0.5] CT
0.4 0.4 1 RC
N
127.25 570 M
127.25 525.9 L
135.722 525.9 L
135.722 570 L
cp
f
GR
GS
[0.75 0 0 0.75 0 0.5] CT
0.4 0.4 1 RC
N
135.722 570 M
135.722 551.1 L
144.194 551.1 L
144.194 570 L
cp
f
GR
GS
[0.75 0 0 0.75 0 0.5] CT
0.4 0.4 1 RC
N
144.194 570 M
144.194 563.7 L
152.667 563.7 L
152.667 570 L
cp
f
GR
GS
[0.75 0 0 0.75 0 0.5] CT
0.4 0.4 1 RC
N
152.667 570 M
152.667 563.7 L
161.139 563.7 L
161.139 570 L
cp
f
GR
GS
[0.75 0 0 0.75 0 0.5] CT
0.4 0.4 1 RC
N
161.139 570 M
161.139 570 L
169.611 570 L
169.611 570 L
cp
f
GR
GS
[0.75 0 0 0.75 0 0.5] CT
0.4 0.4 1 RC
N
169.611 570 M
169.611 570 L
178.083 570 L
178.083 570 L
cp
f
GR
GS
[0.75 0 0 0.75 0 0.5] CT
0.4 0.4 1 RC
N
178.083 570 M
178.083 570 L
186.556 570 L
186.556 570 L
cp
f
GR
GS
[0.75 0 0 0.75 0 0.5] CT
0.4 0.4 1 RC
N
186.556 570 M
186.556 563.7 L
195.028 563.7 L
195.028 570 L
cp
f
GR
GS
[0.75 0 0 0.75 0 0.5] CT
1 LJ
0.667 LW
N
76.417 570 M
76.417 557.4 L
84.889 557.4 L
84.889 570 L
84.889 570 L
S
GR
GS
[0.75 0 0 0.75 0 0.5] CT
1 LJ
0.667 LW
N
84.889 557.4 M
93.361 557.4 L
S
GR
GS
[0.75 0 0 0.75 0 0.5] CT
1 LJ
0.667 LW
N
93.361 570 M
93.361 570 L
93.361 544.8 L
101.833 544.8 L
101.833 570 L
101.833 570 L
S
GR
GS
[0.75 0 0 0.75 0 0.5] CT
1 LJ
0.667 LW
N
101.833 551.1 M
110.306 551.1 L
S
GR
GS
[0.75 0 0 0.75 0 0.5] CT
1 LJ
0.667 LW
N
110.306 570 M
110.306 570 L
110.306 532.2 L
118.778 532.2 L
S
GR
GS
[0.75 0 0 0.75 0 0.5] CT
1 LJ
0.667 LW
N
118.778 570 M
118.778 570 L
118.778 525.9 L
127.25 525.9 L
127.25 570 L
127.25 570 L
S
GR
GS
[0.75 0 0 0.75 0 0.5] CT
1 LJ
0.667 LW
N
127.25 525.9 M
135.722 525.9 L
135.722 570 L
135.722 570 L
S
GR
GS
[0.75 0 0 0.75 0 0.5] CT
1 LJ
0.667 LW
N
135.722 551.1 M
144.194 551.1 L
144.194 570 L
144.194 570 L
S
GR
GS
[0.75 0 0 0.75 0 0.5] CT
1 LJ
0.667 LW
N
144.194 563.7 M
152.667 563.7 L
152.667 570 L
152.667 570 L
S
GR
GS
[0.75 0 0 0.75 0 0.5] CT
1 LJ
0.667 LW
N
152.667 563.7 M
161.139 563.7 L
161.139 570 L
161.139 570 L
S
GR
GS
[0.75 0 0 0.75 0 0.5] CT
1 LJ
0.667 LW
N
161.139 570 M
169.611 570 L
169.611 570 L
169.611 570 L
S
GR
GS
[0.75 0 0 0.75 0 0.5] CT
1 LJ
0.667 LW
N
169.611 570 M
178.083 570 L
178.083 570 L
178.083 570 L
S
GR
GS
[0.75 0 0 0.75 0 0.5] CT
1 LJ
0.667 LW
N
178.083 570 M
186.556 570 L
S
GR
GS
[0.75 0 0 0.75 0 0.5] CT
1 LJ
0.667 LW
N
186.556 570 M
186.556 570 L
186.556 563.7 L
195.028 563.7 L
195.028 570 L
S
GR
GS
[0.75 0 0 0.75 0 0.5] CT
1 0 0 RC
1 LJ
4 LW
N
133.875 570 M
133.875 506.994 L
S
GR
GS
[0.75 0 0 0.75 0 0.5] CT
0 1 0 RC
1 LJ
6.667 LW
N
130.639 570 M
130.639 506.994 L
S
GR
GS
[0.75 0 0 0.75 0 0.5] CT
1 GC
N
51 675 M
356 675 L
356 612 L
51 612 L
cp
f
GR
GS
[0.75 0 0 0.75 0 0.5] CT
0.149 GC
2 setlinecap
1 LJ
0.667 LW
N
51 675 M
356 675 L
S
GR
GS
[0.75 0 0 0.75 0 0.5] CT
0.149 GC
2 setlinecap
1 LJ
0.667 LW
N
51 612 M
356 612 L
S
GR
GS
[0.75 0 0 0.75 0 0.5] CT
0.149 GC
2 setlinecap
1 LJ
0.667 LW
N
51 675 M
51 612 L
S
GR
GS
[0.75 0 0 0.75 0 0.5] CT
0.149 GC
2 setlinecap
1 LJ
0.667 LW
N
356 675 M
356 612 L
S
GR
GS
[0.75 0 0 0.75 0 0.5] CT
0.149 GC
2 setlinecap
1 LJ
0.667 LW
N
51 675 M
54.05 675 L
S
GR
GS
[0.75 0 0 0.75 0 0.5] CT
0.149 GC
2 setlinecap
1 LJ
0.667 LW
N
51 648.75 M
54.05 648.75 L
S
GR
GS
[0.75 0 0 0.75 0 0.5] CT
0.149 GC
2 setlinecap
1 LJ
0.667 LW
N
51 622.5 M
54.05 622.5 L
S
GR
GS
[0.75 0 0 0.75 0 0.5] CT
0.149 GC
2 setlinecap
1 LJ
0.667 LW
N
356 675 M
352.95 675 L
S
GR
GS
[0.75 0 0 0.75 0 0.5] CT
0.149 GC
2 setlinecap
1 LJ
0.667 LW
N
356 648.75 M
352.95 648.75 L
S
GR
GS
[0.75 0 0 0.75 0 0.5] CT
0.149 GC
2 setlinecap
1 LJ
0.667 LW
N
356 622.5 M
352.95 622.5 L
S
GR
GS
[0.75 0 0 0.75 34.25 506.75] CT
0.149 GC
/Helvetica 13 F
GS
[1 0 0 1 0 0] CT
-8 5.5 moveto 
1 -1 scale
(0) t 
GR
GR
GS
[0.75 0 0 0.75 34.25 487.0625] CT
0.149 GC
/Helvetica 13 F
GS
[1 0 0 1 0 0] CT
-8 5.5 moveto 
1 -1 scale
(5) t 
GR
GR
GS
[0.75 0 0 0.75 34.25 467.375] CT
0.149 GC
/Helvetica 13 F
GS
[1 0 0 1 0 0] CT
-15 5.5 moveto 
1 -1 scale
(10) t 
GR
GR
GS
[0.75 0 0 0.75 152.62515 457.4375] CT
/Helvetica-Bold 15 F
GS
[1 0 0 1 0 0] CT
-41 -4 moveto 
1 -1 scale
(Luc332-440) t 
GR
GR
GS
[0.75 0 0 0.75 0 0.5] CT
0.4 0.4 1 RC
N
67.944 675 M
67.944 669.75 L
76.417 669.75 L
76.417 675 L
cp
f
GR
GS
[0.75 0 0 0.75 0 0.5] CT
0.4 0.4 1 RC
N
76.417 675 M
76.417 664.5 L
84.889 664.5 L
84.889 675 L
cp
f
GR
GS
[0.75 0 0 0.75 0 0.5] CT
0.4 0.4 1 RC
N
84.889 675 M
84.889 648.75 L
93.361 648.75 L
93.361 675 L
cp
f
GR
GS
[0.75 0 0 0.75 0 0.5] CT
0.4 0.4 1 RC
N
93.361 675 M
93.361 617.25 L
101.833 617.25 L
101.833 675 L
cp
f
GR
GS
[0.75 0 0 0.75 0 0.5] CT
0.4 0.4 1 RC
N
101.833 675 M
101.833 654 L
110.306 654 L
110.306 675 L
cp
f
GR
GS
[0.75 0 0 0.75 0 0.5] CT
0.4 0.4 1 RC
N
110.306 675 M
110.306 669.75 L
118.778 669.75 L
118.778 675 L
cp
f
GR
GS
[0.75 0 0 0.75 0 0.5] CT
0.4 0.4 1 RC
N
118.778 675 M
118.778 669.75 L
127.25 669.75 L
127.25 675 L
cp
f
GR
GS
[0.75 0 0 0.75 0 0.5] CT
0.4 0.4 1 RC
N
127.25 675 M
127.25 669.75 L
135.722 669.75 L
135.722 675 L
cp
f
GR
GS
[0.75 0 0 0.75 0 0.5] CT
0.4 0.4 1 RC
N
135.722 675 M
135.722 669.75 L
144.194 669.75 L
144.194 675 L
cp
f
GR
GS
[0.75 0 0 0.75 0 0.5] CT
1 LJ
0.667 LW
N
67.944 675 M
67.944 669.75 L
76.417 669.75 L
S
GR
GS
[0.75 0 0 0.75 0 0.5] CT
1 LJ
0.667 LW
N
76.417 675 M
76.417 675 L
76.417 664.5 L
84.889 664.5 L
S
GR
GS
[0.75 0 0 0.75 0 0.5] CT
1 LJ
0.667 LW
N
84.889 675 M
84.889 675 L
84.889 648.75 L
93.361 648.75 L
S
GR
GS
[0.75 0 0 0.75 0 0.5] CT
1 LJ
0.667 LW
N
93.361 675 M
93.361 675 L
93.361 617.25 L
101.833 617.25 L
101.833 675 L
101.833 675 L
S
GR
GS
[0.75 0 0 0.75 0 0.5] CT
1 LJ
0.667 LW
N
101.833 654 M
110.306 654 L
110.306 675 L
110.306 675 L
S
GR
GS
[0.75 0 0 0.75 0 0.5] CT
1 LJ
0.667 LW
N
110.306 669.75 M
118.778 669.75 L
118.778 675 L
118.778 675 L
S
GR
GS
[0.75 0 0 0.75 0 0.5] CT
1 LJ
0.667 LW
N
118.778 669.75 M
127.25 669.75 L
127.25 675 L
127.25 675 L
S
GR
GS
[0.75 0 0 0.75 0 0.5] CT
1 LJ
0.667 LW
N
127.25 669.75 M
135.722 669.75 L
135.722 675 L
135.722 675 L
S
GR
GS
[0.75 0 0 0.75 0 0.5] CT
1 LJ
0.667 LW
N
135.722 669.75 M
144.194 669.75 L
144.194 675 L
S
GR
GS
[0.75 0 0 0.75 0 0.5] CT
1 0 0 RC
1 LJ
4 LW
N
117.795 675 M
117.795 611.994 L
S
GR
GS
[0.75 0 0 0.75 0 0.5] CT
0 1 0 RC
1 LJ
6.667 LW
N
108.111 675 M
108.111 611.994 L
S
GR
GS
[0.75 0 0 0.75 0 0.5] CT
1 GC
N
51 780 M
356 780 L
356 717 L
51 717 L
cp
f
GR
GS
[0.75 0 0 0.75 0 0.5] CT
0.149 GC
2 setlinecap
1 LJ
0.667 LW
N
51 780 M
356 780 L
S
GR
GS
[0.75 0 0 0.75 0 0.5] CT
0.149 GC
2 setlinecap
1 LJ
0.667 LW
N
51 717 M
356 717 L
S
GR
GS
[0.75 0 0 0.75 0 0.5] CT
0.149 GC
2 setlinecap
1 LJ
0.667 LW
N
51 780 M
51 717 L
S
GR
GS
[0.75 0 0 0.75 0 0.5] CT
0.149 GC
2 setlinecap
1 LJ
0.667 LW
N
356 780 M
356 717 L
S
GR
GS
[0.75 0 0 0.75 0 0.5] CT
0.149 GC
2 setlinecap
1 LJ
0.667 LW
N
51 780 M
54.05 780 L
S
GR
GS
[0.75 0 0 0.75 0 0.5] CT
0.149 GC
2 setlinecap
1 LJ
0.667 LW
N
51 759 M
54.05 759 L
S
GR
GS
[0.75 0 0 0.75 0 0.5] CT
0.149 GC
2 setlinecap
1 LJ
0.667 LW
N
51 738 M
54.05 738 L
S
GR
GS
[0.75 0 0 0.75 0 0.5] CT
0.149 GC
2 setlinecap
1 LJ
0.667 LW
N
51 717 M
54.05 717 L
S
GR
GS
[0.75 0 0 0.75 0 0.5] CT
0.149 GC
2 setlinecap
1 LJ
0.667 LW
N
356 780 M
352.95 780 L
S
GR
GS
[0.75 0 0 0.75 0 0.5] CT
0.149 GC
2 setlinecap
1 LJ
0.667 LW
N
356 759 M
352.95 759 L
S
GR
GS
[0.75 0 0 0.75 0 0.5] CT
0.149 GC
2 setlinecap
1 LJ
0.667 LW
N
356 738 M
352.95 738 L
S
GR
GS
[0.75 0 0 0.75 0 0.5] CT
0.149 GC
2 setlinecap
1 LJ
0.667 LW
N
356 717 M
352.95 717 L
S
GR
GS
[0.75 0 0 0.75 34.25 585.5] CT
0.149 GC
/Helvetica 13 F
GS
[1 0 0 1 0 0] CT
-8 5.5 moveto 
1 -1 scale
(0) t 
GR
GR
GS
[0.75 0 0 0.75 34.25 569.75] CT
0.149 GC
/Helvetica 13 F
GS
[1 0 0 1 0 0] CT
-15 5.5 moveto 
1 -1 scale
(10) t 
GR
GR
GS
[0.75 0 0 0.75 34.25 554] CT
0.149 GC
/Helvetica 13 F
GS
[1 0 0 1 0 0] CT
-15 5.5 moveto 
1 -1 scale
(20) t 
GR
GR
GS
[0.75 0 0 0.75 34.25 538.25] CT
0.149 GC
/Helvetica 13 F
GS
[1 0 0 1 0 0] CT
-15 5.5 moveto 
1 -1 scale
(30) t 
GR
GR
GS
[0.75 0 0 0.75 152.62515 536.1875] CT
/Helvetica-Bold 15 F
GS
[1 0 0 1 0 0] CT
-41 -4 moveto 
1 -1 scale
(Luc433-550) t 
GR
GR
GS
[0.75 0 0 0.75 0 0.5] CT
0.4 0.4 1 RC
N
67.944 780 M
67.944 777.9 L
76.417 777.9 L
76.417 780 L
cp
f
GR
GS
[0.75 0 0 0.75 0 0.5] CT
0.4 0.4 1 RC
N
76.417 780 M
76.417 780 L
84.889 780 L
84.889 780 L
cp
f
GR
GS
[0.75 0 0 0.75 0 0.5] CT
0.4 0.4 1 RC
N
84.889 780 M
84.889 765.3 L
93.361 765.3 L
93.361 780 L
cp
f
GR
GS
[0.75 0 0 0.75 0 0.5] CT
0.4 0.4 1 RC
N
93.361 780 M
93.361 765.3 L
101.833 765.3 L
101.833 780 L
cp
f
GR
GS
[0.75 0 0 0.75 0 0.5] CT
0.4 0.4 1 RC
N
101.833 780 M
101.833 763.2 L
110.306 763.2 L
110.306 780 L
cp
f
GR
GS
[0.75 0 0 0.75 0 0.5] CT
0.4 0.4 1 RC
N
110.306 780 M
110.306 729.6 L
118.778 729.6 L
118.778 780 L
cp
f
GR
GS
[0.75 0 0 0.75 0 0.5] CT
0.4 0.4 1 RC
N
118.778 780 M
118.778 756.9 L
127.25 756.9 L
127.25 780 L
cp
f
GR
GS
[0.75 0 0 0.75 0 0.5] CT
0.4 0.4 1 RC
N
127.25 780 M
127.25 775.8 L
135.722 775.8 L
135.722 780 L
cp
f
GR
GS
[0.75 0 0 0.75 0 0.5] CT
0.4 0.4 1 RC
N
135.722 780 M
135.722 775.8 L
144.194 775.8 L
144.194 780 L
cp
f
GR
GS
[0.75 0 0 0.75 0 0.5] CT
1 LJ
0.667 LW
N
67.944 780 M
67.944 777.9 L
76.417 777.9 L
76.417 780 L
76.417 780 L
S
GR
GS
[0.75 0 0 0.75 0 0.5] CT
1 LJ
0.667 LW
N
76.417 780 M
84.889 780 L
S
GR
GS
[0.75 0 0 0.75 0 0.5] CT
1 LJ
0.667 LW
N
84.889 780 M
84.889 780 L
84.889 765.3 L
93.361 765.3 L
93.361 780 L
93.361 780 L
S
GR
GS
[0.75 0 0 0.75 0 0.5] CT
1 LJ
0.667 LW
N
93.361 765.3 M
101.833 765.3 L
S
GR
GS
[0.75 0 0 0.75 0 0.5] CT
1 LJ
0.667 LW
N
101.833 780 M
101.833 780 L
101.833 763.2 L
110.306 763.2 L
S
GR
GS
[0.75 0 0 0.75 0 0.5] CT
1 LJ
0.667 LW
N
110.306 780 M
110.306 780 L
110.306 729.6 L
118.778 729.6 L
118.778 780 L
118.778 780 L
S
GR
GS
[0.75 0 0 0.75 0 0.5] CT
1 LJ
0.667 LW
N
118.778 756.9 M
127.25 756.9 L
127.25 780 L
127.25 780 L
S
GR
GS
[0.75 0 0 0.75 0 0.5] CT
1 LJ
0.667 LW
N
127.25 775.8 M
135.722 775.8 L
135.722 780 L
135.722 780 L
S
GR
GS
[0.75 0 0 0.75 0 0.5] CT
1 LJ
0.667 LW
N
135.722 775.8 M
144.194 775.8 L
144.194 780 L
S
GR
GS
[0.75 0 0 0.75 0 0.5] CT
1 0 0 RC
1 LJ
4 LW
N
123.361 780 M
123.361 716.994 L
S
GR
GS
[0.75 0 0 0.75 0 0.5] CT
0 1 0 RC
1 LJ
6.667 LW
N
112.144 780 M
112.144 716.994 L
S
GR
GS
[0.75 0 0 0.75 0 0.5] CT
1 GC
N
51 885 M
356 885 L
356 822 L
51 822 L
cp
f
GR
GS
[0.75 0 0 0.75 0 0.5] CT
0.149 GC
2 setlinecap
1 LJ
0.667 LW
N
51 885 M
356 885 L
S
GR
GS
[0.75 0 0 0.75 0 0.5] CT
0.149 GC
2 setlinecap
1 LJ
0.667 LW
N
51 822 M
356 822 L
S
GR
GS
[0.75 0 0 0.75 0 0.5] CT
0.149 GC
2 setlinecap
1 LJ
0.667 LW
N
51 885 M
51 881.95 L
S
GR
GS
[0.75 0 0 0.75 0 0.5] CT
0.149 GC
2 setlinecap
1 LJ
0.667 LW
N
135.722 885 M
135.722 881.95 L
S
GR
GS
[0.75 0 0 0.75 0 0.5] CT
0.149 GC
2 setlinecap
1 LJ
0.667 LW
N
220.444 885 M
220.444 881.95 L
S
GR
GS
[0.75 0 0 0.75 0 0.5] CT
0.149 GC
2 setlinecap
1 LJ
0.667 LW
N
305.167 885 M
305.167 881.95 L
S
GR
GS
[0.75 0 0 0.75 0 0.5] CT
0.149 GC
2 setlinecap
1 LJ
0.667 LW
N
51 822 M
51 825.05 L
S
GR
GS
[0.75 0 0 0.75 0 0.5] CT
0.149 GC
2 setlinecap
1 LJ
0.667 LW
N
135.722 822 M
135.722 825.05 L
S
GR
GS
[0.75 0 0 0.75 0 0.5] CT
0.149 GC
2 setlinecap
1 LJ
0.667 LW
N
220.444 822 M
220.444 825.05 L
S
GR
GS
[0.75 0 0 0.75 0 0.5] CT
0.149 GC
2 setlinecap
1 LJ
0.667 LW
N
305.167 822 M
305.167 825.05 L
S
GR
GS
[0.75 0 0 0.75 38.25 668.24998] CT
0.149 GC
/Helvetica 13 F
GS
[1 0 0 1 0 0] CT
-4 14 moveto 
1 -1 scale
(0) t 
GR
GR
GS
[0.75 0 0 0.75 101.79167 668.24998] CT
0.149 GC
/Helvetica 13 F
GS
[1 0 0 1 0 0] CT
-7.5 14 moveto 
1 -1 scale
(50) t 
GR
GR
GS
[0.75 0 0 0.75 165.33333 668.24998] CT
0.149 GC
/Helvetica 13 F
GS
[1 0 0 1 0 0] CT
-11 14 moveto 
1 -1 scale
(100) t 
GR
GR
GS
[0.75 0 0 0.75 228.87499 668.24998] CT
0.149 GC
/Helvetica 13 F
GS
[1 0 0 1 0 0] CT
-11 14 moveto 
1 -1 scale
(150) t 
GR
GR
GS
[0.75 0 0 0.75 152.6251 682.00002] CT
0.149 GC
/Helvetica 15 F
GS
[1 0 0 1 0 0] CT
-101 16 moveto 
1 -1 scale
(Contour length increment [nm]) t 
GR
GR
GS
[0.75 0 0 0.75 0 0.5] CT
0.149 GC
2 setlinecap
1 LJ
0.667 LW
N
51 885 M
51 822 L
S
GR
GS
[0.75 0 0 0.75 0 0.5] CT
0.149 GC
2 setlinecap
1 LJ
0.667 LW
N
356 885 M
356 822 L
S
GR
GS
[0.75 0 0 0.75 0 0.5] CT
0.149 GC
2 setlinecap
1 LJ
0.667 LW
N
51 885 M
54.05 885 L
S
GR
GS
[0.75 0 0 0.75 0 0.5] CT
0.149 GC
2 setlinecap
1 LJ
0.667 LW
N
51 859.8 M
54.05 859.8 L
S
GR
GS
[0.75 0 0 0.75 0 0.5] CT
0.149 GC
2 setlinecap
1 LJ
0.667 LW
N
51 834.6 M
54.05 834.6 L
S
GR
GS
[0.75 0 0 0.75 0 0.5] CT
0.149 GC
2 setlinecap
1 LJ
0.667 LW
N
356 885 M
352.95 885 L
S
GR
GS
[0.75 0 0 0.75 0 0.5] CT
0.149 GC
2 setlinecap
1 LJ
0.667 LW
N
356 859.8 M
352.95 859.8 L
S
GR
GS
[0.75 0 0 0.75 0 0.5] CT
0.149 GC
2 setlinecap
1 LJ
0.667 LW
N
356 834.6 M
352.95 834.6 L
S
GR
GS
[0.75 0 0 0.75 34.25 664.25] CT
0.149 GC
/Helvetica 13 F
GS
[1 0 0 1 0 0] CT
-8 5.5 moveto 
1 -1 scale
(0) t 
GR
GR
GS
[0.75 0 0 0.75 34.25 645.34999] CT
0.149 GC
/Helvetica 13 F
GS
[1 0 0 1 0 0] CT
-22 5.5 moveto 
1 -1 scale
(100) t 
GR
GR
GS
[0.75 0 0 0.75 34.25 626.44998] CT
0.149 GC
/Helvetica 13 F
GS
[1 0 0 1 0 0] CT
-22 5.5 moveto 
1 -1 scale
(200) t 
GR
GR
GS
[0.75 0 0 0.75 152.62515 614.9375] CT
/Helvetica-Bold 15 F
GS
[1 0 0 1 0 0] CT
-53 -4 moveto 
1 -1 scale
(Full Luciferase) t 
GR
GR
GS
[0.75 0 0 0.75 0 0.5] CT
0.4 0.4 1 RC
N
84.889 885 M
84.889 883.74 L
93.361 883.74 L
93.361 885 L
cp
f
GR
GS
[0.75 0 0 0.75 0 0.5] CT
0.4 0.4 1 RC
N
93.361 885 M
93.361 876.684 L
101.833 876.684 L
101.833 885 L
cp
f
GR
GS
[0.75 0 0 0.75 0 0.5] CT
0.4 0.4 1 RC
N
101.833 885 M
101.833 856.776 L
110.306 856.776 L
110.306 885 L
cp
f
GR
GS
[0.75 0 0 0.75 0 0.5] CT
0.4 0.4 1 RC
N
110.306 885 M
110.306 846.696 L
118.778 846.696 L
118.778 885 L
cp
f
GR
GS
[0.75 0 0 0.75 0 0.5] CT
0.4 0.4 1 RC
N
118.778 885 M
118.778 863.58 L
127.25 863.58 L
127.25 885 L
cp
f
GR
GS
[0.75 0 0 0.75 0 0.5] CT
0.4 0.4 1 RC
N
127.25 885 M
127.25 866.856 L
135.722 866.856 L
135.722 885 L
cp
f
GR
GS
[0.75 0 0 0.75 0 0.5] CT
0.4 0.4 1 RC
N
135.722 885 M
135.722 878.952 L
144.194 878.952 L
144.194 885 L
cp
f
GR
GS
[0.75 0 0 0.75 0 0.5] CT
0.4 0.4 1 RC
N
144.194 885 M
144.194 884.496 L
152.667 884.496 L
152.667 885 L
cp
f
GR
GS
[0.75 0 0 0.75 0 0.5] CT
1 LJ
0.667 LW
N
84.889 885 M
84.889 883.74 L
93.361 883.74 L
S
GR
GS
[0.75 0 0 0.75 0 0.5] CT
1 LJ
0.667 LW
N
93.361 885 M
93.361 885 L
93.361 876.684 L
101.833 876.684 L
S
GR
GS
[0.75 0 0 0.75 0 0.5] CT
1 LJ
0.667 LW
N
101.833 885 M
101.833 885 L
101.833 856.776 L
110.306 856.776 L
S
GR
GS
[0.75 0 0 0.75 0 0.5] CT
1 LJ
0.667 LW
N
110.306 885 M
110.306 885 L
110.306 846.696 L
118.778 846.696 L
118.778 885 L
118.778 885 L
S
GR
GS
[0.75 0 0 0.75 0 0.5] CT
1 LJ
0.667 LW
N
118.778 863.58 M
127.25 863.58 L
127.25 885 L
127.25 885 L
S
GR
GS
[0.75 0 0 0.75 0 0.5] CT
1 LJ
0.667 LW
N
127.25 866.856 M
135.722 866.856 L
135.722 885 L
135.722 885 L
S
GR
GS
[0.75 0 0 0.75 0 0.5] CT
1 LJ
0.667 LW
N
135.722 878.952 M
144.194 878.952 L
144.194 885 L
144.194 885 L
S
GR
GS
[0.75 0 0 0.75 0 0.5] CT
1 LJ
0.667 LW
N
144.194 884.496 M
152.667 884.496 L
152.667 885 L
S
GR
GS
[0.75 0 0 0.75 0 0.5] CT
0.4 1 0.4 RC
N
135.722 885 M
135.722 884.748 L
144.194 884.748 L
144.194 885 L
cp
f
GR
GS
[0.75 0 0 0.75 0 0.5] CT
0.4 1 0.4 RC
N
144.194 885 M
144.194 881.22 L
152.667 881.22 L
152.667 885 L
cp
f
GR
GS
[0.75 0 0 0.75 0 0.5] CT
0.4 1 0.4 RC
N
152.667 885 M
152.667 873.408 L
161.139 873.408 L
161.139 885 L
cp
f
GR
GS
[0.75 0 0 0.75 0 0.5] CT
0.4 1 0.4 RC
N
161.139 885 M
161.139 859.296 L
169.611 859.296 L
169.611 885 L
cp
f
GR
GS
[0.75 0 0 0.75 0 0.5] CT
0.4 1 0.4 RC
N
169.611 885 M
169.611 842.16 L
178.083 842.16 L
178.083 885 L
cp
f
GR
GS
[0.75 0 0 0.75 0 0.5] CT
0.4 1 0.4 RC
N
178.083 885 M
178.083 853.248 L
186.556 853.248 L
186.556 885 L
cp
f
GR
GS
[0.75 0 0 0.75 0 0.5] CT
0.4 1 0.4 RC
N
186.556 885 M
186.556 878.952 L
195.028 878.952 L
195.028 885 L
cp
f
GR
GS
[0.75 0 0 0.75 0 0.5] CT
0.4 1 0.4 RC
N
195.028 885 M
195.028 884.748 L
203.5 884.748 L
203.5 885 L
cp
f
GR
GS
[0.75 0 0 0.75 0 0.5] CT
1 LJ
0.667 LW
N
135.722 885 M
135.722 884.748 L
144.194 884.748 L
S
GR
GS
[0.75 0 0 0.75 0 0.5] CT
1 LJ
0.667 LW
N
144.194 885 M
144.194 885 L
144.194 881.22 L
152.667 881.22 L
S
GR
GS
[0.75 0 0 0.75 0 0.5] CT
1 LJ
0.667 LW
N
152.667 885 M
152.667 885 L
152.667 873.408 L
161.139 873.408 L
S
GR
GS
[0.75 0 0 0.75 0 0.5] CT
1 LJ
0.667 LW
N
161.139 885 M
161.139 885 L
161.139 859.296 L
169.611 859.296 L
S
GR
GS
[0.75 0 0 0.75 0 0.5] CT
1 LJ
0.667 LW
N
169.611 885 M
169.611 885 L
169.611 842.16 L
178.083 842.16 L
178.083 885 L
178.083 885 L
S
GR
GS
[0.75 0 0 0.75 0 0.5] CT
1 LJ
0.667 LW
N
178.083 853.248 M
186.556 853.248 L
186.556 885 L
186.556 885 L
S
GR
GS
[0.75 0 0 0.75 0 0.5] CT
1 LJ
0.667 LW
N
186.556 878.952 M
195.028 878.952 L
195.028 885 L
195.028 885 L
S
GR
GS
[0.75 0 0 0.75 0 0.5] CT
1 LJ
0.667 LW
N
195.028 884.748 M
203.5 884.748 L
203.5 885 L
S
GR
GS
[0.75 0 0 0.75 0 0.5] CT
1 0.4 0.4 RC
N
169.611 885 M
169.611 884.496 L
178.083 884.496 L
178.083 885 L
cp
f
GR
GS
[0.75 0 0 0.75 0 0.5] CT
1 0.4 0.4 RC
N
178.083 885 M
178.083 880.212 L
186.556 880.212 L
186.556 885 L
cp
f
GR
GS
[0.75 0 0 0.75 0 0.5] CT
1 0.4 0.4 RC
N
186.556 885 M
186.556 849.972 L
195.028 849.972 L
195.028 885 L
cp
f
GR
GS
[0.75 0 0 0.75 0 0.5] CT
1 0.4 0.4 RC
N
195.028 885 M
195.028 834.852 L
203.5 834.852 L
203.5 885 L
cp
f
GR
GS
[0.75 0 0 0.75 0 0.5] CT
1 0.4 0.4 RC
N
203.5 885 M
203.5 861.564 L
211.972 861.564 L
211.972 885 L
cp
f
GR
GS
[0.75 0 0 0.75 0 0.5] CT
1 0.4 0.4 RC
N
211.972 885 M
211.972 879.456 L
220.444 879.456 L
220.444 885 L
cp
f
GR
GS
[0.75 0 0 0.75 0 0.5] CT
1 0.4 0.4 RC
N
220.444 885 M
220.444 883.488 L
228.917 883.488 L
228.917 885 L
cp
f
GR
GS
[0.75 0 0 0.75 0 0.5] CT
1 0.4 0.4 RC
N
228.917 885 M
228.917 883.992 L
237.389 883.992 L
237.389 885 L
cp
f
GR
GS
[0.75 0 0 0.75 0 0.5] CT
1 0.4 0.4 RC
N
237.389 885 M
237.389 884.748 L
245.861 884.748 L
245.861 885 L
cp
f
GR
GS
[0.75 0 0 0.75 0 0.5] CT
1 LJ
0.667 LW
N
169.611 885 M
169.611 884.496 L
178.083 884.496 L
S
GR
GS
[0.75 0 0 0.75 0 0.5] CT
1 LJ
0.667 LW
N
178.083 885 M
178.083 885 L
178.083 880.212 L
186.556 880.212 L
S
GR
GS
[0.75 0 0 0.75 0 0.5] CT
1 LJ
0.667 LW
N
186.556 885 M
186.556 885 L
186.556 849.972 L
195.028 849.972 L
S
GR
GS
[0.75 0 0 0.75 0 0.5] CT
1 LJ
0.667 LW
N
195.028 885 M
195.028 885 L
195.028 834.852 L
203.5 834.852 L
203.5 885 L
203.5 885 L
S
GR
GS
[0.75 0 0 0.75 0 0.5] CT
1 LJ
0.667 LW
N
203.5 861.564 M
211.972 861.564 L
211.972 885 L
211.972 885 L
S
GR
GS
[0.75 0 0 0.75 0 0.5] CT
1 LJ
0.667 LW
N
211.972 879.456 M
220.444 879.456 L
220.444 885 L
220.444 885 L
S
GR
GS
[0.75 0 0 0.75 0 0.5] CT
1 LJ
0.667 LW
N
220.444 883.488 M
228.917 883.488 L
228.917 885 L
228.917 885 L
S
GR
GS
[0.75 0 0 0.75 0 0.5] CT
1 LJ
0.667 LW
N
228.917 883.992 M
237.389 883.992 L
237.389 885 L
237.389 885 L
S
GR
GS
[0.75 0 0 0.75 0 0.5] CT
1 LJ
0.667 LW
N
237.389 884.748 M
245.861 884.748 L
245.861 885 L
S
GR
%%Trailer
%%Pages: 1
%%EOF
