Log file opened on Wed Jul  8 10:59:38 2015
Host: golem14.egr.duke.edu  pid: 30037  nodeid: 0  nnodes:  1
The Gromacs distribution was built Fri Apr 19 11:12:56 UTC 2013 by
mockbuild@buildvm-13.phx2.fedoraproject.org [CMAKE] (Linux 2.6.32-358.2.1.el6.x86_64 x86_64)


                         :-)  G  R  O  M  A  C  S  (-:

                   GROningen MAchine for Chemical Simulation

                            :-)  VERSION 4.5.7  (-:

        Written by Emile Apol, Rossen Apostolov, Herman J.C. Berendsen,
      Aldert van Buuren, Pär Bjelkmar, Rudi van Drunen, Anton Feenstra, 
        Gerrit Groenhof, Peter Kasson, Per Larsson, Pieter Meulenhoff, 
           Teemu Murtola, Szilard Pall, Sander Pronk, Roland Schulz, 
                Michael Shirts, Alfons Sijbers, Peter Tieleman,

               Berk Hess, David van der Spoel, and Erik Lindahl.

       Copyright (c) 1991-2000, University of Groningen, The Netherlands.
            Copyright (c) 2001-2010, The GROMACS development team at
        Uppsala University & The Royal Institute of Technology, Sweden.
            check out http://www.gromacs.org for more information.

         This program is free software; you can redistribute it and/or
          modify it under the terms of the GNU General Public License
         as published by the Free Software Foundation; either version 2
             of the License, or (at your option) any later version.

                               :-)  g_mdrun  (-:


++++ PLEASE READ AND CITE THE FOLLOWING REFERENCE ++++
B. Hess and C. Kutzner and D. van der Spoel and E. Lindahl
GROMACS 4: Algorithms for highly efficient, load-balanced, and scalable
molecular simulation
J. Chem. Theory Comput. 4 (2008) pp. 435-447
-------- -------- --- Thank You --- -------- --------


++++ PLEASE READ AND CITE THE FOLLOWING REFERENCE ++++
D. van der Spoel, E. Lindahl, B. Hess, G. Groenhof, A. E. Mark and H. J. C.
Berendsen
GROMACS: Fast, Flexible and Free
J. Comp. Chem. 26 (2005) pp. 1701-1719
-------- -------- --- Thank You --- -------- --------


++++ PLEASE READ AND CITE THE FOLLOWING REFERENCE ++++
E. Lindahl and B. Hess and D. van der Spoel
GROMACS 3.0: A package for molecular simulation and trajectory analysis
J. Mol. Mod. 7 (2001) pp. 306-317
-------- -------- --- Thank You --- -------- --------


++++ PLEASE READ AND CITE THE FOLLOWING REFERENCE ++++
H. J. C. Berendsen, D. van der Spoel and R. van Drunen
GROMACS: A message-passing parallel molecular dynamics implementation
Comp. Phys. Comm. 91 (1995) pp. 43-56
-------- -------- --- Thank You --- -------- --------

Input Parameters:
   integrator           = sd
   nsteps               = 101840000
   init_step            = 0
   ns_type              = Grid
   nstlist              = 20
   ndelta               = 2
   nstcomm              = 20
   comm_mode            = Angular
   nstlog               = 1000000
   nstxout              = 2000000
   nstvout              = 2000000
   nstfout              = 0
   nstcalcenergy        = 20
   nstenergy            = 100000
   nstxtcout            = 100000
   init_t               = 0
   delta_t              = 0.0005
   xtcprec              = 1000
   nkx                  = 0
   nky                  = 0
   nkz                  = 0
   pme_order            = 4
   ewald_rtol           = 1e-05
   ewald_geometry       = 0
   epsilon_surface      = 0
   optimize_fft         = FALSE
   ePBC                 = xyz
   bPeriodicMols        = FALSE
   bContinuation        = FALSE
   bShakeSOR            = FALSE
   etc                  = No
   nsttcouple           = -1
   epc                  = No
   epctype              = Isotropic
   nstpcouple           = -1
   tau_p                = 1
   ref_p (3x3):
      ref_p[    0]={ 0.00000e+00,  0.00000e+00,  0.00000e+00}
      ref_p[    1]={ 0.00000e+00,  0.00000e+00,  0.00000e+00}
      ref_p[    2]={ 0.00000e+00,  0.00000e+00,  0.00000e+00}
   compress (3x3):
      compress[    0]={ 0.00000e+00,  0.00000e+00,  0.00000e+00}
      compress[    1]={ 0.00000e+00,  0.00000e+00,  0.00000e+00}
      compress[    2]={ 0.00000e+00,  0.00000e+00,  0.00000e+00}
   refcoord_scaling     = No
   posres_com (3):
      posres_com[0]= 0.00000e+00
      posres_com[1]= 0.00000e+00
      posres_com[2]= 0.00000e+00
   posres_comB (3):
      posres_comB[0]= 0.00000e+00
      posres_comB[1]= 0.00000e+00
      posres_comB[2]= 0.00000e+00
   andersen_seed        = 815131
   rlist                = 3
   rlistlong            = 3
   rtpi                 = 0.05
   coulombtype          = User
   rcoulomb_switch      = 0
   rcoulomb             = 3
   vdwtype              = User
   rvdw_switch          = 0
   rvdw                 = 3
   epsilon_r            = 1
   epsilon_rf           = 1
   tabext               = 370
   implicit_solvent     = No
   gb_algorithm         = Still
   gb_epsilon_solvent   = 80
   nstgbradii           = 1
   rgbradii             = 1
   gb_saltconc          = 0
   gb_obc_alpha         = 1
   gb_obc_beta          = 0.8
   gb_obc_gamma         = 4.85
   gb_dielectric_offset = 0.009
   sa_algorithm         = Ace-approximation
   sa_surface_tension   = 2.05016
   DispCorr             = No
   free_energy          = no
   init_lambda          = 0
   delta_lambda         = 0
   n_foreign_lambda     = 0
   sc_alpha             = 0
   sc_power             = 0
   sc_sigma             = 0.3
   sc_sigma_min         = 0.3
   nstdhdl              = 10
   separate_dhdl_file   = yes
   dhdl_derivatives     = yes
   dh_hist_size         = 0
   dh_hist_spacing      = 0.1
   nwall                = 0
   wall_type            = 9-3
   wall_atomtype[0]     = -1
   wall_atomtype[1]     = -1
   wall_density[0]      = 0
   wall_density[1]      = 0
   wall_ewald_zfac      = 3
   pull                 = umbrella
   pull_geometry        = direction
   pull_dim (3):
      pull_dim[0]=0
      pull_dim[1]=0
      pull_dim[2]=1
   pull_r1              = 1
   pull_r0              = 1.5
   pull_constr_tol      = 1e-06
   pull_nstxout         = 10000
   pull_nstfout         = 10000
   pull_ngrp            = 1
   pull_group 0:
     atom (1):
        atom[0]=0
     weight: not available
     pbcatom              = -1
     vec (3):
        vec[0]= 0.00000e+00
        vec[1]= 0.00000e+00
        vec[2]= 0.00000e+00
     init (3):
        init[0]= 0.00000e+00
        init[1]= 0.00000e+00
        init[2]= 0.00000e+00
     rate                 = 0
     k                    = 0
     kB                   = 0
   pull_group 1:
     atom (1):
        atom[0]=133
     weight: not available
     pbcatom              = -1
     vec (3):
        vec[0]= 0.00000e+00
        vec[1]= 0.00000e+00
        vec[2]=-1.00000e+00
     init (3):
        init[0]= 2.28522e+00
        init[1]= 0.00000e+00
        init[2]= 0.00000e+00
     rate                 = 0.001
     k                    = 3.61446
     kB                   = 3.61446
   disre                = No
   disre_weighting      = Conservative
   disre_mixed          = FALSE
   dr_fc                = 1000
   dr_tau               = 0
   nstdisreout          = 100
   orires_fc            = 0
   orires_tau           = 0
   nstorireout          = 100
   dihre-fc             = 1000
   em_stepsize          = 0.01
   em_tol               = 10
   niter                = 20
   fc_stepsize          = 0
   nstcgsteep           = 1000
   nbfgscorr            = 10
   ConstAlg             = Lincs
   shake_tol            = 0.0001
   lincs_order          = 4
   lincs_warnangle      = 30
   lincs_iter           = 1
   bd_fric              = 0
   ld_seed              = 30035
   cos_accel            = 0
   deform (3x3):
      deform[    0]={ 0.00000e+00,  0.00000e+00,  0.00000e+00}
      deform[    1]={ 0.00000e+00,  0.00000e+00,  0.00000e+00}
      deform[    2]={ 0.00000e+00,  0.00000e+00,  0.00000e+00}
   userint1             = 0
   userint2             = 0
   userint3             = 0
   userint4             = 0
   userreal1            = 0
   userreal2            = 0
   userreal3            = 0
   userreal4            = 0
grpopts:
   nrdf:         396
   ref_t:         130
   tau_t:           1
anneal:          No
ann_npoints:           0
   acc:	           0           0           0
   nfreeze:           N           N           N
   energygrp_flags[  0]: 0
   efield-x:
      n = 0
   efield-xt:
      n = 0
   efield-y:
      n = 0
   efield-yt:
      n = 0
   efield-z:
      n = 0
   efield-zt:
      n = 0
   bQMMM                = FALSE
   QMconstraints        = 0
   QMMMscheme           = 0
   scalefactor          = 1
qm_opts:
   ngQM                 = 0
Table routines are used for coulomb: TRUE
Table routines are used for vdw:     TRUE
Cut-off's:   NS: 3   Coulomb: 3   LJ: 3
System total charge: 0.000
Read user tables from ../../0-build/table.xvg with 662000 data points.
Tabscale = 500 points/nm
Read user tables from ../../0-build/table.xvg with 662000 data points.
Tabscale = 500 points/nm
Configuring nonbonded kernels...
Configuring standard C nonbonded kernels...
Testing x86_64 SSE2 support... present.


Removing pbc first time

Will apply umbrella COM pulling in geometry 'direction'
between a reference group and 1 group
Pull group 0:     1 atoms, mass     1.000
Pull group 1:     1 atoms, mass     1.000
Center of mass motion removal mode is Angular
We have the following groups for center of mass motion removal:
  0:  rest
There are: 134 Atoms
Max number of connections per atom is 32
Total number of connections is 3186
Max number of graph edges per atom is 2
Total number of graph edges is 266
Initial temperature: 167.612 K

Started mdrun on node 0 Wed Jul  8 10:59:46 2015

           Step           Time         Lambda
              0        0.00000        0.00000

Grid: 33 x 33 x 117 cells
   Energies (kJ/mol)
           Bond          Angle    Proper Dih.          LJ-14     Coulomb-14
    9.66307e+01    6.28206e+01    3.01667e+01   -3.10318e+02    0.00000e+00
        LJ (SR)   Coulomb (SR)   COM Pull En.      Potential    Kinetic En.
    2.49106e-01    0.00000e+00    0.00000e+00   -1.20450e+02    2.73777e+02
   Total Energy    Temperature Pressure (bar)
    1.53326e+02    1.66301e+02   -1.32948e-04

           Step           Time         Lambda
        1000000      500.00000        0.00000

   Energies (kJ/mol)
           Bond          Angle    Proper Dih.          LJ-14     Coulomb-14
    8.08803e+01    5.47858e+01    4.03278e+01   -2.88754e+02    0.00000e+00
        LJ (SR)   Coulomb (SR)   COM Pull En.      Potential    Kinetic En.
    1.40226e-01    0.00000e+00    2.14917e-03   -1.12618e+02    2.06316e+02
   Total Energy    Temperature Pressure (bar)
    9.36978e+01    1.25323e+02   -1.93415e-03

           Step           Time         Lambda
        2000000     1000.00000        0.00000

   Energies (kJ/mol)
           Bond          Angle    Proper Dih.          LJ-14     Coulomb-14
    8.28219e+01    7.83676e+01    3.93023e+01   -2.87725e+02    0.00000e+00
        LJ (SR)   Coulomb (SR)   COM Pull En.      Potential    Kinetic En.
    4.33250e-01    0.00000e+00    8.65153e-01   -8.59348e+01    2.35962e+02
   Total Energy    Temperature Pressure (bar)
    1.50027e+02    1.43331e+02    7.91040e-04

Writing checkpoint, step 2093940 at Wed Jul  8 11:14:46 2015


           Step           Time         Lambda
        3000000     1500.00000        0.00000

   Energies (kJ/mol)
           Bond          Angle    Proper Dih.          LJ-14     Coulomb-14
    8.22999e+01    6.95627e+01    3.23481e+01   -2.90677e+02    0.00000e+00
        LJ (SR)   Coulomb (SR)   COM Pull En.      Potential    Kinetic En.
    6.25063e-01    0.00000e+00    1.39604e-02   -1.05827e+02    2.65737e+02
   Total Energy    Temperature Pressure (bar)
    1.59909e+02    1.61417e+02    1.70622e-03

           Step           Time         Lambda
        4000000     2000.00000        0.00000

   Energies (kJ/mol)
           Bond          Angle    Proper Dih.          LJ-14     Coulomb-14
    8.32976e+01    6.43101e+01    3.11341e+01   -2.71540e+02    0.00000e+00
        LJ (SR)   Coulomb (SR)   COM Pull En.      Potential    Kinetic En.
    1.12373e-01    0.00000e+00    1.87874e-02   -9.26670e+01    2.13130e+02
   Total Energy    Temperature Pressure (bar)
    1.20463e+02    1.29462e+02   -1.67758e-03

Writing checkpoint, step 4124060 at Wed Jul  8 11:29:46 2015


           Step           Time         Lambda
        5000000     2500.00000        0.00000

   Energies (kJ/mol)
           Bond          Angle    Proper Dih.          LJ-14     Coulomb-14
    9.34399e+01    7.24410e+01    4.65293e+01   -2.70008e+02    0.00000e+00
        LJ (SR)   Coulomb (SR)   COM Pull En.      Potential    Kinetic En.
    2.67475e-01    0.00000e+00    1.36635e-01   -5.71940e+01    2.12471e+02
   Total Energy    Temperature Pressure (bar)
    1.55277e+02    1.29062e+02   -6.56098e-04

           Step           Time         Lambda
        6000000     3000.00000        0.00000

   Energies (kJ/mol)
           Bond          Angle    Proper Dih.          LJ-14     Coulomb-14
    8.28589e+01    5.57647e+01    4.02106e+01   -2.80171e+02    0.00000e+00
        LJ (SR)   Coulomb (SR)   COM Pull En.      Potential    Kinetic En.
    3.91831e-01    0.00000e+00    6.85962e-01   -1.00259e+02    2.26197e+02
   Total Energy    Temperature Pressure (bar)
    1.25938e+02    1.37399e+02    1.92884e-03

Writing checkpoint, step 6085020 at Wed Jul  8 11:44:46 2015


           Step           Time         Lambda
        7000000     3500.00000        0.00000

   Energies (kJ/mol)
           Bond          Angle    Proper Dih.          LJ-14     Coulomb-14
    8.45937e+01    7.09960e+01    3.71220e+01   -2.82098e+02    0.00000e+00
        LJ (SR)   Coulomb (SR)   COM Pull En.      Potential    Kinetic En.
    3.66737e-01    0.00000e+00    1.64962e-01   -8.88545e+01    2.40149e+02
   Total Energy    Temperature Pressure (bar)
    1.51294e+02    1.45874e+02   -7.33363e-04

           Step           Time         Lambda
        8000000     4000.00000        0.00000

   Energies (kJ/mol)
           Bond          Angle    Proper Dih.          LJ-14     Coulomb-14
    7.31736e+01    6.84174e+01    3.91433e+01   -2.76877e+02    0.00000e+00
        LJ (SR)   Coulomb (SR)   COM Pull En.      Potential    Kinetic En.
    1.44835e-01    0.00000e+00    1.84426e+00   -9.41531e+01    2.40605e+02
   Total Energy    Temperature Pressure (bar)
    1.46452e+02    1.46151e+02   -1.06355e-03

Writing checkpoint, step 8178020 at Wed Jul  8 11:59:46 2015


           Step           Time         Lambda
        9000000     4500.00000        0.00000

   Energies (kJ/mol)
           Bond          Angle    Proper Dih.          LJ-14     Coulomb-14
    9.08929e+01    6.61920e+01    3.55722e+01   -2.94031e+02    0.00000e+00
        LJ (SR)   Coulomb (SR)   COM Pull En.      Potential    Kinetic En.
    1.48776e-01    0.00000e+00    5.85594e+00   -9.53697e+01    2.48616e+02
   Total Energy    Temperature Pressure (bar)
    1.53246e+02    1.51017e+02   -1.64830e-05

           Step           Time         Lambda
       10000000     5000.00000        0.00000

   Energies (kJ/mol)
           Bond          Angle    Proper Dih.          LJ-14     Coulomb-14
    7.86816e+01    6.89999e+01    3.57181e+01   -2.70581e+02    0.00000e+00
        LJ (SR)   Coulomb (SR)   COM Pull En.      Potential    Kinetic En.
    8.61076e-02    0.00000e+00    1.77210e+00   -8.53228e+01    2.35135e+02
   Total Energy    Temperature Pressure (bar)
    1.49812e+02    1.42829e+02    4.20062e-04

Writing checkpoint, step 10049240 at Wed Jul  8 12:14:46 2015


           Step           Time         Lambda
       11000000     5500.00000        0.00000

   Energies (kJ/mol)
           Bond          Angle    Proper Dih.          LJ-14     Coulomb-14
    7.76721e+01    7.76975e+01    5.30157e+01   -2.62079e+02    0.00000e+00
        LJ (SR)   Coulomb (SR)   COM Pull En.      Potential    Kinetic En.
    7.79014e-01    0.00000e+00    3.97169e+00   -4.89432e+01    2.21529e+02
   Total Energy    Temperature Pressure (bar)
    1.72586e+02    1.34564e+02   -2.74696e-04

           Step           Time         Lambda
       12000000     6000.00000        0.00000

   Energies (kJ/mol)
           Bond          Angle    Proper Dih.          LJ-14     Coulomb-14
    8.27209e+01    6.38984e+01    6.00847e+01   -2.52793e+02    0.00000e+00
        LJ (SR)   Coulomb (SR)   COM Pull En.      Potential    Kinetic En.
    7.90745e-02    0.00000e+00    9.70325e+00   -3.63066e+01    2.39469e+02
   Total Energy    Temperature Pressure (bar)
    2.03162e+02    1.45461e+02    1.77382e-03

Writing checkpoint, step 12087580 at Wed Jul  8 12:29:46 2015


           Step           Time         Lambda
       13000000     6500.00000        0.00000

   Energies (kJ/mol)
           Bond          Angle    Proper Dih.          LJ-14     Coulomb-14
    8.31404e+01    5.88185e+01    6.50467e+01   -2.25726e+02    0.00000e+00
        LJ (SR)   Coulomb (SR)   COM Pull En.      Potential    Kinetic En.
    4.18551e-01    0.00000e+00    2.73054e+00   -1.55710e+01    2.41451e+02
   Total Energy    Temperature Pressure (bar)
    2.25880e+02    1.46665e+02    7.78737e-04

           Step           Time         Lambda
       14000000     7000.00000        0.00000

   Energies (kJ/mol)
           Bond          Angle    Proper Dih.          LJ-14     Coulomb-14
    7.14788e+01    5.17482e+01    4.29816e+01   -2.29990e+02    0.00000e+00
        LJ (SR)   Coulomb (SR)   COM Pull En.      Potential    Kinetic En.
    1.05111e-01    0.00000e+00    7.11891e-01   -6.29640e+01    2.30956e+02
   Total Energy    Temperature Pressure (bar)
    1.67992e+02    1.40290e+02   -4.40079e-04

Writing checkpoint, step 14145960 at Wed Jul  8 12:44:46 2015


           Step           Time         Lambda
       15000000     7500.00000        0.00000

   Energies (kJ/mol)
           Bond          Angle    Proper Dih.          LJ-14     Coulomb-14
    8.72952e+01    7.23072e+01    5.55940e+01   -2.02146e+02    0.00000e+00
        LJ (SR)   Coulomb (SR)   COM Pull En.      Potential    Kinetic En.
    9.23066e-02    0.00000e+00    3.44735e+00    1.65902e+01    2.40616e+02
   Total Energy    Temperature Pressure (bar)
    2.57206e+02    1.46158e+02   -3.31818e-04

           Step           Time         Lambda
       16000000     8000.00000        0.00000

   Energies (kJ/mol)
           Bond          Angle    Proper Dih.          LJ-14     Coulomb-14
    8.53543e+01    5.89081e+01    6.16203e+01   -2.10427e+02    0.00000e+00
        LJ (SR)   Coulomb (SR)   COM Pull En.      Potential    Kinetic En.
    2.81739e-01    0.00000e+00    3.17478e+00   -1.08732e+00    2.38644e+02
   Total Energy    Temperature Pressure (bar)
    2.37557e+02    1.44960e+02   -9.82330e-04

Writing checkpoint, step 16275500 at Wed Jul  8 12:59:46 2015


           Step           Time         Lambda
       17000000     8500.00000        0.00000

   Energies (kJ/mol)
           Bond          Angle    Proper Dih.          LJ-14     Coulomb-14
    7.87236e+01    7.03496e+01    6.99118e+01   -1.85219e+02    0.00000e+00
        LJ (SR)   Coulomb (SR)   COM Pull En.      Potential    Kinetic En.
    1.96980e-01    0.00000e+00    3.17273e+00    3.71354e+01    2.75089e+02
   Total Energy    Temperature Pressure (bar)
    3.12224e+02    1.67098e+02    4.96455e-04

           Step           Time         Lambda
       18000000     9000.00000        0.00000

   Energies (kJ/mol)
           Bond          Angle    Proper Dih.          LJ-14     Coulomb-14
    8.28172e+01    5.56562e+01    7.10900e+01   -1.89314e+02    0.00000e+00
        LJ (SR)   Coulomb (SR)   COM Pull En.      Potential    Kinetic En.
    1.95393e-01    0.00000e+00    1.00725e+01    3.05177e+01    2.62985e+02
   Total Energy    Temperature Pressure (bar)
    2.93503e+02    1.59746e+02    1.55035e-03

Writing checkpoint, step 18654560 at Wed Jul  8 13:14:46 2015


           Step           Time         Lambda
       19000000     9500.00000        0.00000

   Energies (kJ/mol)
           Bond          Angle    Proper Dih.          LJ-14     Coulomb-14
    7.79694e+01    7.31628e+01    6.76617e+01   -2.05278e+02    0.00000e+00
        LJ (SR)   Coulomb (SR)   COM Pull En.      Potential    Kinetic En.
    1.30151e-01    0.00000e+00    6.57445e+00    2.02204e+01    2.38649e+02
   Total Energy    Temperature Pressure (bar)
    2.58869e+02    1.44963e+02    1.69631e-03

           Step           Time         Lambda
       20000000    10000.00000        0.00000

   Energies (kJ/mol)
           Bond          Angle    Proper Dih.          LJ-14     Coulomb-14
    9.64205e+01    5.80742e+01    5.41603e+01   -2.00206e+02    0.00000e+00
        LJ (SR)   Coulomb (SR)   COM Pull En.      Potential    Kinetic En.
    1.64225e-01    0.00000e+00    1.08710e+01    1.94844e+01    2.24212e+02
   Total Energy    Temperature Pressure (bar)
    2.43696e+02    1.36194e+02   -3.41303e-04

Writing checkpoint, step 20978340 at Wed Jul  8 13:29:46 2015


           Step           Time         Lambda
       21000000    10500.00000        0.00000

   Energies (kJ/mol)
           Bond          Angle    Proper Dih.          LJ-14     Coulomb-14
    1.06329e+02    6.37299e+01    8.11029e+01   -1.70341e+02    0.00000e+00
        LJ (SR)   Coulomb (SR)   COM Pull En.      Potential    Kinetic En.
    5.76552e-01    0.00000e+00    1.31881e+00    8.27168e+01    2.45141e+02
   Total Energy    Temperature Pressure (bar)
    3.27858e+02    1.48906e+02    1.30186e-03

           Step           Time         Lambda
       22000000    11000.00000        0.00000

   Energies (kJ/mol)
           Bond          Angle    Proper Dih.          LJ-14     Coulomb-14
    8.93079e+01    8.50604e+01    6.41757e+01   -1.66653e+02    0.00000e+00
        LJ (SR)   Coulomb (SR)   COM Pull En.      Potential    Kinetic En.
    2.21059e-01    0.00000e+00    3.54013e+00    7.56520e+01    2.51893e+02
   Total Energy    Temperature Pressure (bar)
    3.27546e+02    1.53008e+02    8.78303e-04

           Step           Time         Lambda
       23000000    11500.00000        0.00000

   Energies (kJ/mol)
           Bond          Angle    Proper Dih.          LJ-14     Coulomb-14
    7.35403e+01    8.21719e+01    7.29377e+01   -1.50858e+02    0.00000e+00
        LJ (SR)   Coulomb (SR)   COM Pull En.      Potential    Kinetic En.
    4.99604e-02    0.00000e+00    4.92561e+00    8.27678e+01    2.26360e+02
   Total Energy    Temperature Pressure (bar)
    3.09128e+02    1.37499e+02   -1.85197e-03

Writing checkpoint, step 23648740 at Wed Jul  8 13:44:46 2015


           Step           Time         Lambda
       24000000    12000.00000        0.00000

   Energies (kJ/mol)
           Bond          Angle    Proper Dih.          LJ-14     Coulomb-14
    8.13822e+01    6.13225e+01    6.11897e+01   -1.78329e+02    0.00000e+00
        LJ (SR)   Coulomb (SR)   COM Pull En.      Potential    Kinetic En.
    1.77156e-01    0.00000e+00    2.47798e+00    2.82210e+01    2.22800e+02
   Total Energy    Temperature Pressure (bar)
    2.51021e+02    1.35336e+02    1.33688e-04

           Step           Time         Lambda
       25000000    12500.00000        0.00000

   Energies (kJ/mol)
           Bond          Angle    Proper Dih.          LJ-14     Coulomb-14
    6.77850e+01    5.73219e+01    6.87144e+01   -1.83710e+02    0.00000e+00
        LJ (SR)   Coulomb (SR)   COM Pull En.      Potential    Kinetic En.
    1.97681e-01    0.00000e+00    7.35388e+00    1.76627e+01    2.05547e+02
   Total Energy    Temperature Pressure (bar)
    2.23210e+02    1.24856e+02   -4.68808e-04

           Step           Time         Lambda
       26000000    13000.00000        0.00000

   Energies (kJ/mol)
           Bond          Angle    Proper Dih.          LJ-14     Coulomb-14
    9.27996e+01    6.88115e+01    1.35587e+02   -6.05093e+01    0.00000e+00
        LJ (SR)   Coulomb (SR)   COM Pull En.      Potential    Kinetic En.
    4.19929e+00    0.00000e+00    8.02087e-01    2.41690e+02    2.27323e+02
   Total Energy    Temperature Pressure (bar)
    4.69012e+02    1.38083e+02   -3.57625e-04

Writing checkpoint, step 26264400 at Wed Jul  8 13:59:46 2015


           Step           Time         Lambda
       27000000    13500.00000        0.00000

   Energies (kJ/mol)
           Bond          Angle    Proper Dih.          LJ-14     Coulomb-14
    7.40528e+01    6.99659e+01    1.13800e+02   -5.02762e+01    0.00000e+00
        LJ (SR)   Coulomb (SR)   COM Pull En.      Potential    Kinetic En.
    3.62463e-01    0.00000e+00    5.18079e-01    2.08423e+02    2.12874e+02
   Total Energy    Temperature Pressure (bar)
    4.21297e+02    1.29307e+02   -1.23199e-03

           Step           Time         Lambda
       28000000    14000.00000        0.00000

   Energies (kJ/mol)
           Bond          Angle    Proper Dih.          LJ-14     Coulomb-14
    8.64217e+01    6.73637e+01    1.11855e+02   -6.48803e+01    0.00000e+00
        LJ (SR)   Coulomb (SR)   COM Pull En.      Potential    Kinetic En.
    2.17491e-01    0.00000e+00    2.82961e-01    2.01260e+02    2.27682e+02
   Total Energy    Temperature Pressure (bar)
    4.28942e+02    1.38301e+02    1.15160e-03

Writing checkpoint, step 28674140 at Wed Jul  8 14:14:46 2015


           Step           Time         Lambda
       29000000    14500.00000        0.00000

   Energies (kJ/mol)
           Bond          Angle    Proper Dih.          LJ-14     Coulomb-14
    8.97637e+01    8.23001e+01    1.04547e+02   -5.89521e+01    0.00000e+00
        LJ (SR)   Coulomb (SR)   COM Pull En.      Potential    Kinetic En.
    8.76877e-01    0.00000e+00    6.53201e-01    2.19189e+02    2.40191e+02
   Total Energy    Temperature Pressure (bar)
    4.59380e+02    1.45900e+02   -9.31009e-05

           Step           Time         Lambda
       30000000    15000.00000        0.00000

   Energies (kJ/mol)
           Bond          Angle    Proper Dih.          LJ-14     Coulomb-14
    8.26083e+01    8.36877e+01    1.10149e+02   -5.21332e+01    0.00000e+00
        LJ (SR)   Coulomb (SR)   COM Pull En.      Potential    Kinetic En.
    1.89190e+00    0.00000e+00    3.75226e-01    2.26579e+02    2.75818e+02
   Total Energy    Temperature Pressure (bar)
    5.02396e+02    1.67541e+02   -1.28042e-03

           Step           Time         Lambda
       31000000    15500.00000        0.00000

   Energies (kJ/mol)
           Bond          Angle    Proper Dih.          LJ-14     Coulomb-14
    7.51837e+01    7.38513e+01    1.31183e+02   -4.50062e+01    0.00000e+00
        LJ (SR)   Coulomb (SR)   COM Pull En.      Potential    Kinetic En.
    9.03793e-02    0.00000e+00    2.31625e-01    2.35533e+02    2.09683e+02
   Total Energy    Temperature Pressure (bar)
    4.45216e+02    1.27368e+02   -8.29757e-05

Writing checkpoint, step 31150520 at Wed Jul  8 14:29:46 2015


           Step           Time         Lambda
       32000000    16000.00000        0.00000

   Energies (kJ/mol)
           Bond          Angle    Proper Dih.          LJ-14     Coulomb-14
    7.25197e+01    8.63333e+01    1.15328e+02   -4.66842e+01    0.00000e+00
        LJ (SR)   Coulomb (SR)   COM Pull En.      Potential    Kinetic En.
    1.06219e-01    0.00000e+00    2.94332e-01    2.27897e+02    2.39632e+02
   Total Energy    Temperature Pressure (bar)
    4.67529e+02    1.45560e+02   -4.34683e-04

           Step           Time         Lambda
       33000000    16500.00000        0.00000

   Energies (kJ/mol)
           Bond          Angle    Proper Dih.          LJ-14     Coulomb-14
    7.96046e+01    7.32322e+01    1.04856e+02   -4.92897e+01    0.00000e+00
        LJ (SR)   Coulomb (SR)   COM Pull En.      Potential    Kinetic En.
    9.25932e-01    0.00000e+00    1.06643e+00    2.10395e+02    2.18897e+02
   Total Energy    Temperature Pressure (bar)
    4.29292e+02    1.32965e+02   -9.73608e-04

Writing checkpoint, step 33636160 at Wed Jul  8 14:44:46 2015


           Step           Time         Lambda
       34000000    17000.00000        0.00000

   Energies (kJ/mol)
           Bond          Angle    Proper Dih.          LJ-14     Coulomb-14
    5.49586e+01    8.40504e+01    1.24895e+02   -5.00326e+01    0.00000e+00
        LJ (SR)   Coulomb (SR)   COM Pull En.      Potential    Kinetic En.
    6.46372e-02    0.00000e+00    8.21083e-02    2.14018e+02    2.11502e+02
   Total Energy    Temperature Pressure (bar)
    4.25520e+02    1.28473e+02   -2.82809e-05

           Step           Time         Lambda
       35000000    17500.00000        0.00000

   Energies (kJ/mol)
           Bond          Angle    Proper Dih.          LJ-14     Coulomb-14
    7.02939e+01    7.66052e+01    1.08326e+02   -4.54669e+01    0.00000e+00
        LJ (SR)   Coulomb (SR)   COM Pull En.      Potential    Kinetic En.
    9.27410e-02    0.00000e+00    4.60342e-01    2.10311e+02    2.27531e+02
   Total Energy    Temperature Pressure (bar)
    4.37842e+02    1.38210e+02   -1.19814e-03

           Step           Time         Lambda
       36000000    18000.00000        0.00000

   Energies (kJ/mol)
           Bond          Angle    Proper Dih.          LJ-14     Coulomb-14
    7.90763e+01    7.43831e+01    1.26223e+02   -4.56154e+01    0.00000e+00
        LJ (SR)   Coulomb (SR)   COM Pull En.      Potential    Kinetic En.
    2.87585e-02    0.00000e+00    2.95440e+00    2.37050e+02    2.26053e+02
   Total Energy    Temperature Pressure (bar)
    4.63103e+02    1.37312e+02   -3.48751e-04

Writing checkpoint, step 36429180 at Wed Jul  8 14:59:46 2015


           Step           Time         Lambda
       37000000    18500.00000        0.00000

   Energies (kJ/mol)
           Bond          Angle    Proper Dih.          LJ-14     Coulomb-14
    8.81892e+01    7.27000e+01    1.11348e+02   -5.20129e+01    0.00000e+00
        LJ (SR)   Coulomb (SR)   COM Pull En.      Potential    Kinetic En.
    2.16644e-02    0.00000e+00    4.97992e-01    2.20744e+02    2.51895e+02
   Total Energy    Temperature Pressure (bar)
    4.72639e+02    1.53009e+02   -1.71504e-04

           Step           Time         Lambda
       38000000    19000.00000        0.00000

   Energies (kJ/mol)
           Bond          Angle    Proper Dih.          LJ-14     Coulomb-14
    7.47355e+01    7.63772e+01    9.86630e+01   -6.19704e+01    0.00000e+00
        LJ (SR)   Coulomb (SR)   COM Pull En.      Potential    Kinetic En.
    4.69226e-02    0.00000e+00    1.97270e-02    1.87872e+02    2.45532e+02
   Total Energy    Temperature Pressure (bar)
    4.33404e+02    1.49144e+02    9.48222e-04

           Step           Time         Lambda
       39000000    19500.00000        0.00000

   Energies (kJ/mol)
           Bond          Angle    Proper Dih.          LJ-14     Coulomb-14
    8.97047e+01    7.06091e+01    1.07416e+02   -3.94780e+01    0.00000e+00
        LJ (SR)   Coulomb (SR)   COM Pull En.      Potential    Kinetic En.
    5.51940e-01    0.00000e+00    1.07195e+00    2.29875e+02    2.43110e+02
   Total Energy    Temperature Pressure (bar)
    4.72985e+02    1.47673e+02   -3.11271e-04

Writing checkpoint, step 39053520 at Wed Jul  8 15:14:46 2015


           Step           Time         Lambda
       40000000    20000.00000        0.00000

   Energies (kJ/mol)
           Bond          Angle    Proper Dih.          LJ-14     Coulomb-14
    8.85816e+01    8.82769e+01    1.24545e+02   -5.02558e+01    0.00000e+00
        LJ (SR)   Coulomb (SR)   COM Pull En.      Potential    Kinetic En.
    1.33404e+00    0.00000e+00    3.70666e-01    2.52852e+02    2.21216e+02
   Total Energy    Temperature Pressure (bar)
    4.74068e+02    1.34374e+02   -4.63953e-04

           Step           Time         Lambda
       41000000    20500.00000        0.00000

   Energies (kJ/mol)
           Bond          Angle    Proper Dih.          LJ-14     Coulomb-14
    6.01207e+01    9.69186e+01    1.32299e+02   -3.71083e+01    0.00000e+00
        LJ (SR)   Coulomb (SR)   COM Pull En.      Potential    Kinetic En.
    7.12953e-01    0.00000e+00    1.93705e+00    2.54880e+02    2.52274e+02
   Total Energy    Temperature Pressure (bar)
    5.07153e+02    1.53239e+02    1.11635e-03

Writing checkpoint, step 41810760 at Wed Jul  8 15:29:46 2015


           Step           Time         Lambda
       42000000    21000.00000        0.00000

   Energies (kJ/mol)
           Bond          Angle    Proper Dih.          LJ-14     Coulomb-14
    7.88053e+01    6.54940e+01    1.07209e+02   -4.41773e+01    0.00000e+00
        LJ (SR)   Coulomb (SR)   COM Pull En.      Potential    Kinetic En.
    1.59469e-02    0.00000e+00    1.21851e+00    2.08565e+02    2.38464e+02
   Total Energy    Temperature Pressure (bar)
    4.47030e+02    1.44851e+02    3.25443e-04

           Step           Time         Lambda
       43000000    21500.00000        0.00000

   Energies (kJ/mol)
           Bond          Angle    Proper Dih.          LJ-14     Coulomb-14
    9.28666e+01    8.18998e+01    9.97682e+01   -5.01066e+01    0.00000e+00
        LJ (SR)   Coulomb (SR)   COM Pull En.      Potential    Kinetic En.
    1.15242e-02    0.00000e+00    1.38333e+00    2.25823e+02    2.48478e+02
   Total Energy    Temperature Pressure (bar)
    4.74301e+02    1.50934e+02   -8.51041e-04

           Step           Time         Lambda
       44000000    22000.00000        0.00000

   Energies (kJ/mol)
           Bond          Angle    Proper Dih.          LJ-14     Coulomb-14
    7.42227e+01    8.67181e+01    1.39918e+02   -4.69503e+01    0.00000e+00
        LJ (SR)   Coulomb (SR)   COM Pull En.      Potential    Kinetic En.
    1.00657e-01    0.00000e+00    2.46978e+00    2.56479e+02    2.14258e+02
   Total Energy    Temperature Pressure (bar)
    4.70737e+02    1.30147e+02    1.54719e-04

Writing checkpoint, step 44917000 at Wed Jul  8 15:44:46 2015


           Step           Time         Lambda
       45000000    22500.00000        0.00000

   Energies (kJ/mol)
           Bond          Angle    Proper Dih.          LJ-14     Coulomb-14
    8.18533e+01    6.62380e+01    1.10647e+02   -4.67904e+01    0.00000e+00
        LJ (SR)   Coulomb (SR)   COM Pull En.      Potential    Kinetic En.
    1.40876e-01    0.00000e+00    1.73360e+00    2.13822e+02    2.35458e+02
   Total Energy    Temperature Pressure (bar)
    4.49280e+02    1.43025e+02   -2.51977e-04

           Step           Time         Lambda
       46000000    23000.00000        0.00000

   Energies (kJ/mol)
           Bond          Angle    Proper Dih.          LJ-14     Coulomb-14
    7.22941e+01    7.10251e+01    1.08784e+02   -4.23349e+01    0.00000e+00
        LJ (SR)   Coulomb (SR)   COM Pull En.      Potential    Kinetic En.
    4.54887e-02    0.00000e+00    6.34579e+00    2.16159e+02    2.15854e+02
   Total Energy    Temperature Pressure (bar)
    4.32013e+02    1.31117e+02    9.35347e-04

           Step           Time         Lambda
       47000000    23500.00000        0.00000

   Energies (kJ/mol)
           Bond          Angle    Proper Dih.          LJ-14     Coulomb-14
    7.70819e+01    6.32823e+01    1.20853e+02   -3.52362e+01    0.00000e+00
        LJ (SR)   Coulomb (SR)   COM Pull En.      Potential    Kinetic En.
    5.09070e-01    0.00000e+00    5.91626e+00    2.32406e+02    2.14918e+02
   Total Energy    Temperature Pressure (bar)
    4.47324e+02    1.30548e+02   -1.00918e-03

Writing checkpoint, step 47934700 at Wed Jul  8 15:59:46 2015


           Step           Time         Lambda
       48000000    24000.00000        0.00000

   Energies (kJ/mol)
           Bond          Angle    Proper Dih.          LJ-14     Coulomb-14
    7.77584e+01    6.25404e+01    1.05316e+02   -4.70974e+01    0.00000e+00
        LJ (SR)   Coulomb (SR)   COM Pull En.      Potential    Kinetic En.
    2.56157e-02    0.00000e+00    7.27024e+00    2.05813e+02    2.10808e+02
   Total Energy    Temperature Pressure (bar)
    4.16621e+02    1.28052e+02    5.20861e-04

           Step           Time         Lambda
       49000000    24500.00000        0.00000

   Energies (kJ/mol)
           Bond          Angle    Proper Dih.          LJ-14     Coulomb-14
    9.35701e+01    7.01927e+01    1.12264e+02   -4.91645e+01    0.00000e+00
        LJ (SR)   Coulomb (SR)   COM Pull En.      Potential    Kinetic En.
    1.07019e-02    0.00000e+00    5.57051e+00    2.32444e+02    2.29523e+02
   Total Energy    Temperature Pressure (bar)
    4.61967e+02    1.39420e+02   -2.43394e-03

           Step           Time         Lambda
       50000000    25000.00000        0.00000

   Energies (kJ/mol)
           Bond          Angle    Proper Dih.          LJ-14     Coulomb-14
    6.31837e+01    6.36569e+01    1.25521e+02   -3.82862e+01    0.00000e+00
        LJ (SR)   Coulomb (SR)   COM Pull En.      Potential    Kinetic En.
    1.02683e-02    0.00000e+00    4.37693e+00    2.18463e+02    2.25571e+02
   Total Energy    Temperature Pressure (bar)
    4.44034e+02    1.37019e+02   -1.01076e-03

Writing checkpoint, step 50588080 at Wed Jul  8 16:14:46 2015


           Step           Time         Lambda
       51000000    25500.00000        0.00000

   Energies (kJ/mol)
           Bond          Angle    Proper Dih.          LJ-14     Coulomb-14
    8.01420e+01    7.69744e+01    1.15808e+02   -3.56046e+01    0.00000e+00
        LJ (SR)   Coulomb (SR)   COM Pull En.      Potential    Kinetic En.
    8.65398e-03    0.00000e+00    8.99637e+00    2.46325e+02    2.39379e+02
   Total Energy    Temperature Pressure (bar)
    4.85703e+02    1.45406e+02    5.75153e-04

           Step           Time         Lambda
       52000000    26000.00000        0.00000

   Energies (kJ/mol)
           Bond          Angle    Proper Dih.          LJ-14     Coulomb-14
    9.30585e+01    8.26830e+01    1.34065e+02   -3.29754e+01    0.00000e+00
        LJ (SR)   Coulomb (SR)   COM Pull En.      Potential    Kinetic En.
    3.50229e-03    0.00000e+00    5.81373e+00    2.82648e+02    2.62357e+02
   Total Energy    Temperature Pressure (bar)
    5.45006e+02    1.59364e+02   -7.43187e-04

           Step           Time         Lambda
       53000000    26500.00000        0.00000

   Energies (kJ/mol)
           Bond          Angle    Proper Dih.          LJ-14     Coulomb-14
    7.12022e+01    6.44482e+01    1.15273e+02   -3.82943e+01    0.00000e+00
        LJ (SR)   Coulomb (SR)   COM Pull En.      Potential    Kinetic En.
    2.82099e-02    0.00000e+00    1.07508e+01    2.23408e+02    2.17339e+02
   Total Energy    Temperature Pressure (bar)
    4.40747e+02    1.32019e+02    2.97187e-04

Writing checkpoint, step 53330580 at Wed Jul  8 16:29:46 2015


           Step           Time         Lambda
       54000000    27000.00000        0.00000

   Energies (kJ/mol)
           Bond          Angle    Proper Dih.          LJ-14     Coulomb-14
    9.18369e+01    6.78952e+01    1.20563e+02   -3.59062e+01    0.00000e+00
        LJ (SR)   Coulomb (SR)   COM Pull En.      Potential    Kinetic En.
    4.16182e-03    0.00000e+00    1.75802e+01    2.61974e+02    2.44090e+02
   Total Energy    Temperature Pressure (bar)
    5.06064e+02    1.48268e+02   -6.19980e-04

           Step           Time         Lambda
       55000000    27500.00000        0.00000

   Energies (kJ/mol)
           Bond          Angle    Proper Dih.          LJ-14     Coulomb-14
    5.93445e+01    5.89160e+01    1.25907e+02   -2.84173e+01    0.00000e+00
        LJ (SR)   Coulomb (SR)   COM Pull En.      Potential    Kinetic En.
    6.08016e-03    0.00000e+00    1.74862e+01    2.33242e+02    1.97364e+02
   Total Energy    Temperature Pressure (bar)
    4.30606e+02    1.19885e+02    6.42427e-04

           Step           Time         Lambda
       56000000    28000.00000        0.00000

   Energies (kJ/mol)
           Bond          Angle    Proper Dih.          LJ-14     Coulomb-14
    6.95419e+01    6.52404e+01    1.28263e+02   -2.84780e+01    0.00000e+00
        LJ (SR)   Coulomb (SR)   COM Pull En.      Potential    Kinetic En.
    1.92645e-01    0.00000e+00    7.18784e+00    2.41947e+02    2.47801e+02
   Total Energy    Temperature Pressure (bar)
    4.89748e+02    1.50522e+02    1.59221e-03

Writing checkpoint, step 56155940 at Wed Jul  8 16:44:46 2015


           Step           Time         Lambda
       57000000    28500.00000        0.00000

   Energies (kJ/mol)
           Bond          Angle    Proper Dih.          LJ-14     Coulomb-14
    9.17132e+01    7.03613e+01    1.40607e+02   -3.02549e+01    0.00000e+00
        LJ (SR)   Coulomb (SR)   COM Pull En.      Potential    Kinetic En.
    3.51525e-03    0.00000e+00    1.11739e+01    2.83605e+02    2.15018e+02
   Total Energy    Temperature Pressure (bar)
    4.98623e+02    1.30609e+02    6.26558e-04

           Step           Time         Lambda
       58000000    29000.00000        0.00000

   Energies (kJ/mol)
           Bond          Angle    Proper Dih.          LJ-14     Coulomb-14
    7.80052e+01    9.44851e+01    1.22828e+02   -2.75914e+01    0.00000e+00
        LJ (SR)   Coulomb (SR)   COM Pull En.      Potential    Kinetic En.
    4.06336e-03    0.00000e+00    1.17759e+01    2.79507e+02    2.00503e+02
   Total Energy    Temperature Pressure (bar)
    4.80011e+02    1.21792e+02   -5.95984e-04

           Step           Time         Lambda
       59000000    29500.00000        0.00000

   Energies (kJ/mol)
           Bond          Angle    Proper Dih.          LJ-14     Coulomb-14
    9.83896e+01    6.21451e+01    1.18132e+02   -3.02266e+01    0.00000e+00
        LJ (SR)   Coulomb (SR)   COM Pull En.      Potential    Kinetic En.
    6.63868e-03    0.00000e+00    1.68335e+01    2.65280e+02    2.48681e+02
   Total Energy    Temperature Pressure (bar)
    5.13962e+02    1.51057e+02   -1.81757e-04

Writing checkpoint, step 59065560 at Wed Jul  8 16:59:46 2015


           Step           Time         Lambda
       60000000    30000.00000        0.00000

   Energies (kJ/mol)
           Bond          Angle    Proper Dih.          LJ-14     Coulomb-14
    9.64720e+01    7.72014e+01    1.04258e+02   -3.24309e+01    0.00000e+00
        LJ (SR)   Coulomb (SR)   COM Pull En.      Potential    Kinetic En.
    1.83304e-03    0.00000e+00    1.20112e+01    2.57513e+02    2.45860e+02
   Total Energy    Temperature Pressure (bar)
    5.03373e+02    1.49343e+02    6.33459e-05

           Step           Time         Lambda
       61000000    30500.00000        0.00000

   Energies (kJ/mol)
           Bond          Angle    Proper Dih.          LJ-14     Coulomb-14
    8.61782e+01    7.20667e+01    1.20303e+02   -2.67091e+01    0.00000e+00
        LJ (SR)   Coulomb (SR)   COM Pull En.      Potential    Kinetic En.
    2.76213e-03    0.00000e+00    1.85852e+01    2.70427e+02    2.08592e+02
   Total Energy    Temperature Pressure (bar)
    4.79019e+02    1.26706e+02   -1.73103e-03

Writing checkpoint, step 61919380 at Wed Jul  8 17:14:46 2015


           Step           Time         Lambda
       62000000    31000.00000        0.00000

   Energies (kJ/mol)
           Bond          Angle    Proper Dih.          LJ-14     Coulomb-14
    8.31388e+01    7.68948e+01    1.48858e+02   -2.07009e+01    0.00000e+00
        LJ (SR)   Coulomb (SR)   COM Pull En.      Potential    Kinetic En.
    1.62077e-03    0.00000e+00    1.48198e+01    3.03013e+02    2.36523e+02
   Total Energy    Temperature Pressure (bar)
    5.39536e+02    1.43672e+02   -1.31381e-03

           Step           Time         Lambda
       63000000    31500.00000        0.00000

   Energies (kJ/mol)
           Bond          Angle    Proper Dih.          LJ-14     Coulomb-14
    7.79203e+01    7.10608e+01    1.38232e+02   -2.27285e+01    0.00000e+00
        LJ (SR)   Coulomb (SR)   COM Pull En.      Potential    Kinetic En.
    2.04915e-03    0.00000e+00    1.59460e+01    2.80433e+02    2.16128e+02
   Total Energy    Temperature Pressure (bar)
    4.96561e+02    1.31283e+02   -2.27306e-03

           Step           Time         Lambda
       64000000    32000.00000        0.00000

   Energies (kJ/mol)
           Bond          Angle    Proper Dih.          LJ-14     Coulomb-14
    6.38101e+01    7.16731e+01    1.29667e+02   -2.38229e+01    0.00000e+00
        LJ (SR)   Coulomb (SR)   COM Pull En.      Potential    Kinetic En.
    1.10700e-03    0.00000e+00    1.75051e+01    2.58833e+02    2.75936e+02
   Total Energy    Temperature Pressure (bar)
    5.34769e+02    1.67613e+02    1.42722e-04

Writing checkpoint, step 64718480 at Wed Jul  8 17:29:46 2015


           Step           Time         Lambda
       65000000    32500.00000        0.00000

   Energies (kJ/mol)
           Bond          Angle    Proper Dih.          LJ-14     Coulomb-14
    8.50006e+01    7.40650e+01    1.45399e+02   -2.09556e+01    0.00000e+00
        LJ (SR)   Coulomb (SR)   COM Pull En.      Potential    Kinetic En.
    7.69390e-04    0.00000e+00    1.77238e+01    3.01233e+02    2.16491e+02
   Total Energy    Temperature Pressure (bar)
    5.17725e+02    1.31504e+02   -1.08753e-03

           Step           Time         Lambda
       66000000    33000.00000        0.00000

   Energies (kJ/mol)
           Bond          Angle    Proper Dih.          LJ-14     Coulomb-14
    8.13220e+01    6.32601e+01    1.45149e+02   -1.99576e+01    0.00000e+00
        LJ (SR)   Coulomb (SR)   COM Pull En.      Potential    Kinetic En.
    1.64856e-03    0.00000e+00    2.80094e+01    2.97785e+02    2.02859e+02
   Total Energy    Temperature Pressure (bar)
    5.00643e+02    1.23223e+02    6.85778e-04

           Step           Time         Lambda
       67000000    33500.00000        0.00000

   Energies (kJ/mol)
           Bond          Angle    Proper Dih.          LJ-14     Coulomb-14
    9.32679e+01    7.58666e+01    1.27308e+02   -2.46896e+01    0.00000e+00
        LJ (SR)   Coulomb (SR)   COM Pull En.      Potential    Kinetic En.
    1.83959e-03    0.00000e+00    3.34891e+01    3.05244e+02    2.36256e+02
   Total Energy    Temperature Pressure (bar)
    5.41500e+02    1.43509e+02   -5.09541e-04

Writing checkpoint, step 67131780 at Wed Jul  8 17:44:46 2015


           Step           Time         Lambda
       68000000    34000.00000        0.00000

   Energies (kJ/mol)
           Bond          Angle    Proper Dih.          LJ-14     Coulomb-14
    7.90236e+01    8.44742e+01    1.41626e+02   -2.07287e+01    0.00000e+00
        LJ (SR)   Coulomb (SR)   COM Pull En.      Potential    Kinetic En.
    9.94211e-04    0.00000e+00    2.86009e+01    3.12997e+02    2.36983e+02
   Total Energy    Temperature Pressure (bar)
    5.49980e+02    1.43951e+02   -3.67635e-04

           Step           Time         Lambda
       69000000    34500.00000        0.00000

   Energies (kJ/mol)
           Bond          Angle    Proper Dih.          LJ-14     Coulomb-14
    9.02640e+01    6.88047e+01    1.43377e+02   -1.89234e+01    0.00000e+00
        LJ (SR)   Coulomb (SR)   COM Pull En.      Potential    Kinetic En.
    1.26980e-03    0.00000e+00    4.38978e+01    3.27422e+02    2.54441e+02
   Total Energy    Temperature Pressure (bar)
    5.81863e+02    1.54556e+02    7.87000e-04

Writing checkpoint, step 69889240 at Wed Jul  8 17:59:46 2015


           Step           Time         Lambda
       70000000    35000.00000        0.00000

   Energies (kJ/mol)
           Bond          Angle    Proper Dih.          LJ-14     Coulomb-14
    7.70368e+01    7.38896e+01    1.32885e+02   -2.74642e+01    0.00000e+00
        LJ (SR)   Coulomb (SR)   COM Pull En.      Potential    Kinetic En.
    1.38134e-03    0.00000e+00    4.20856e+01    2.98434e+02    2.39381e+02
   Total Energy    Temperature Pressure (bar)
    5.37815e+02    1.45408e+02   -9.88030e-04

           Step           Time         Lambda
       71000000    35500.00000        0.00000

   Energies (kJ/mol)
           Bond          Angle    Proper Dih.          LJ-14     Coulomb-14
    9.37172e+01    6.20459e+01    1.36650e+02   -1.84669e+01    0.00000e+00
        LJ (SR)   Coulomb (SR)   COM Pull En.      Potential    Kinetic En.
    1.46107e-03    0.00000e+00    5.19222e+01    3.25870e+02    2.21172e+02
   Total Energy    Temperature Pressure (bar)
    5.47042e+02    1.34347e+02    1.64439e-04

           Step           Time         Lambda
       72000000    36000.00000        0.00000

   Energies (kJ/mol)
           Bond          Angle    Proper Dih.          LJ-14     Coulomb-14
    8.08715e+01    7.86016e+01    1.40027e+02   -1.51034e+01    0.00000e+00
        LJ (SR)   Coulomb (SR)   COM Pull En.      Potential    Kinetic En.
    6.33996e-04    0.00000e+00    3.87320e+01    3.23129e+02    2.09875e+02
   Total Energy    Temperature Pressure (bar)
    5.33004e+02    1.27485e+02    1.66399e-03

Writing checkpoint, step 72675300 at Wed Jul  8 18:14:46 2015


           Step           Time         Lambda
       73000000    36500.00000        0.00000

   Energies (kJ/mol)
           Bond          Angle    Proper Dih.          LJ-14     Coulomb-14
    6.72710e+01    9.23917e+01    1.34504e+02   -2.05204e+01    0.00000e+00
        LJ (SR)   Coulomb (SR)   COM Pull En.      Potential    Kinetic En.
    9.05173e-04    0.00000e+00    4.46830e+01    3.18331e+02    2.09006e+02
   Total Energy    Temperature Pressure (bar)
    5.27336e+02    1.26957e+02   -2.16318e-04

           Step           Time         Lambda
       74000000    37000.00000        0.00000

   Energies (kJ/mol)
           Bond          Angle    Proper Dih.          LJ-14     Coulomb-14
    7.55641e+01    7.51692e+01    1.28732e+02   -1.93258e+01    0.00000e+00
        LJ (SR)   Coulomb (SR)   COM Pull En.      Potential    Kinetic En.
    6.17537e-04    0.00000e+00    5.09875e+01    3.11128e+02    2.62001e+02
   Total Energy    Temperature Pressure (bar)
    5.73128e+02    1.59148e+02    3.41823e-04

           Step           Time         Lambda
       75000000    37500.00000        0.00000

   Energies (kJ/mol)
           Bond          Angle    Proper Dih.          LJ-14     Coulomb-14
    8.24386e+01    9.77734e+01    1.53572e+02   -1.52008e+01    0.00000e+00
        LJ (SR)   Coulomb (SR)   COM Pull En.      Potential    Kinetic En.
    1.07795e-03    0.00000e+00    4.39323e+01    3.62517e+02    2.45255e+02
   Total Energy    Temperature Pressure (bar)
    6.07772e+02    1.48976e+02   -5.77281e-04

Writing checkpoint, step 75691420 at Wed Jul  8 18:29:46 2015


           Step           Time         Lambda
       76000000    38000.00000        0.00000

   Energies (kJ/mol)
           Bond          Angle    Proper Dih.          LJ-14     Coulomb-14
    7.87187e+01    8.22264e+01    1.50054e+02   -1.59716e+01    0.00000e+00
        LJ (SR)   Coulomb (SR)   COM Pull En.      Potential    Kinetic En.
    6.47633e-04    0.00000e+00    6.15448e+01    3.56573e+02    2.49114e+02
   Total Energy    Temperature Pressure (bar)
    6.05687e+02    1.51320e+02    2.04626e-04

           Step           Time         Lambda
       77000000    38500.00000        0.00000

   Energies (kJ/mol)
           Bond          Angle    Proper Dih.          LJ-14     Coulomb-14
    8.25286e+01    7.88627e+01    1.47888e+02   -5.37396e+00    0.00000e+00
        LJ (SR)   Coulomb (SR)   COM Pull En.      Potential    Kinetic En.
    2.64579e-04    0.00000e+00    4.52078e+01    3.49114e+02    2.38067e+02
   Total Energy    Temperature Pressure (bar)
    5.87181e+02    1.44610e+02   -2.08753e-03

           Step           Time         Lambda
       78000000    39000.00000        0.00000

   Energies (kJ/mol)
           Bond          Angle    Proper Dih.          LJ-14     Coulomb-14
    8.50967e+01    9.79664e+01    1.34952e+02   -1.63606e+01    0.00000e+00
        LJ (SR)   Coulomb (SR)   COM Pull En.      Potential    Kinetic En.
    7.41187e-04    0.00000e+00    7.76479e+01    3.79303e+02    2.49414e+02
   Total Energy    Temperature Pressure (bar)
    6.28717e+02    1.51502e+02    1.13229e-03

Writing checkpoint, step 78408700 at Wed Jul  8 18:44:46 2015


           Step           Time         Lambda
       79000000    39500.00000        0.00000

   Energies (kJ/mol)
           Bond          Angle    Proper Dih.          LJ-14     Coulomb-14
    8.68063e+01    9.29879e+01    1.51093e+02   -9.89443e+00    0.00000e+00
        LJ (SR)   Coulomb (SR)   COM Pull En.      Potential    Kinetic En.
    9.19071e-04    0.00000e+00    6.89719e+01    3.89966e+02    2.27470e+02
   Total Energy    Temperature Pressure (bar)
    6.17436e+02    1.38172e+02    9.31185e-04

           Step           Time         Lambda
       80000000    40000.00000        0.00000

   Energies (kJ/mol)
           Bond          Angle    Proper Dih.          LJ-14     Coulomb-14
    9.24647e+01    8.25659e+01    1.38459e+02   -9.73280e+00    0.00000e+00
        LJ (SR)   Coulomb (SR)   COM Pull En.      Potential    Kinetic En.
    6.60344e-04    0.00000e+00    9.74141e+01    4.01171e+02    2.44493e+02
   Total Energy    Temperature Pressure (bar)
    6.45665e+02    1.48513e+02    1.24309e-03

           Step           Time         Lambda
       81000000    40500.00000        0.00000

   Energies (kJ/mol)
           Bond          Angle    Proper Dih.          LJ-14     Coulomb-14
    9.01613e+01    9.31064e+01    1.59468e+02   -6.40607e+00    0.00000e+00
        LJ (SR)   Coulomb (SR)   COM Pull En.      Potential    Kinetic En.
    8.85772e-04    0.00000e+00    7.72085e+01    4.13539e+02    2.34616e+02
   Total Energy    Temperature Pressure (bar)
    6.48155e+02    1.42514e+02   -3.62606e-04

Writing checkpoint, step 81173360 at Wed Jul  8 18:59:46 2015


           Step           Time         Lambda
       82000000    41000.00000        0.00000

   Energies (kJ/mol)
           Bond          Angle    Proper Dih.          LJ-14     Coulomb-14
    9.70922e+01    7.47790e+01    1.56995e+02   -4.25498e+00    0.00000e+00
        LJ (SR)   Coulomb (SR)   COM Pull En.      Potential    Kinetic En.
    1.21235e-03    0.00000e+00    7.96610e+01    4.04273e+02    2.63740e+02
   Total Energy    Temperature Pressure (bar)
    6.68013e+02    1.60204e+02   -2.54667e-03

           Step           Time         Lambda
       83000000    41500.00000        0.00000

   Energies (kJ/mol)
           Bond          Angle    Proper Dih.          LJ-14     Coulomb-14
    9.17409e+01    1.03359e+02    1.51368e+02   -5.78069e+00    0.00000e+00
        LJ (SR)   Coulomb (SR)   COM Pull En.      Potential    Kinetic En.
    2.42121e-04    0.00000e+00    7.10175e+01    4.11705e+02    2.40861e+02
   Total Energy    Temperature Pressure (bar)
    6.52566e+02    1.46307e+02   -1.77309e-03

           Step           Time         Lambda
       84000000    42000.00000        0.00000

   Energies (kJ/mol)
           Bond          Angle    Proper Dih.          LJ-14     Coulomb-14
    8.85747e+01    7.99418e+01    1.45920e+02   -5.97417e+00    0.00000e+00
        LJ (SR)   Coulomb (SR)   COM Pull En.      Potential    Kinetic En.
    2.55567e-04    0.00000e+00    9.16442e+01    4.00106e+02    2.36521e+02
   Total Energy    Temperature Pressure (bar)
    6.36628e+02    1.43671e+02   -2.31664e-03

Writing checkpoint, step 84070840 at Wed Jul  8 19:14:46 2015


           Step           Time         Lambda
       85000000    42500.00000        0.00000

   Energies (kJ/mol)
           Bond          Angle    Proper Dih.          LJ-14     Coulomb-14
    9.71594e+01    8.62399e+01    1.56887e+02   -2.86194e+00    0.00000e+00
        LJ (SR)   Coulomb (SR)   COM Pull En.      Potential    Kinetic En.
    1.42378e-04    0.00000e+00    9.46095e+01    4.32034e+02    2.35154e+02
   Total Energy    Temperature Pressure (bar)
    6.67188e+02    1.42840e+02   -6.65850e-04

           Step           Time         Lambda
       86000000    43000.00000        0.00000

   Energies (kJ/mol)
           Bond          Angle    Proper Dih.          LJ-14     Coulomb-14
    7.55993e+01    1.08332e+02    1.54599e+02   -3.68605e+00    0.00000e+00
        LJ (SR)   Coulomb (SR)   COM Pull En.      Potential    Kinetic En.
    2.10531e-04    0.00000e+00    1.09423e+02    4.44268e+02    2.17982e+02
   Total Energy    Temperature Pressure (bar)
    6.62250e+02    1.32410e+02    1.02461e-03

Writing checkpoint, step 86710060 at Wed Jul  8 19:29:46 2015


           Step           Time         Lambda
       87000000    43500.00000        0.00000

   Energies (kJ/mol)
           Bond          Angle    Proper Dih.          LJ-14     Coulomb-14
    8.29972e+01    1.00563e+02    1.52311e+02   -4.00296e+00    0.00000e+00
        LJ (SR)   Coulomb (SR)   COM Pull En.      Potential    Kinetic En.
    1.30361e-04    0.00000e+00    1.17934e+02    4.49802e+02    2.31565e+02
   Total Energy    Temperature Pressure (bar)
    6.81368e+02    1.40660e+02   -9.75913e-05

           Step           Time         Lambda
       88000000    44000.00000        0.00000

   Energies (kJ/mol)
           Bond          Angle    Proper Dih.          LJ-14     Coulomb-14
    8.28873e+01    7.31780e+01    1.68819e+02   -3.06895e+00    0.00000e+00
        LJ (SR)   Coulomb (SR)   COM Pull En.      Potential    Kinetic En.
    1.42658e-04    0.00000e+00    1.16028e+02    4.37844e+02    2.48090e+02
   Total Energy    Temperature Pressure (bar)
    6.85933e+02    1.50698e+02   -1.08933e-03

           Step           Time         Lambda
       89000000    44500.00000        0.00000

   Energies (kJ/mol)
           Bond          Angle    Proper Dih.          LJ-14     Coulomb-14
    7.97550e+01    8.84913e+01    1.64293e+02   -3.53753e+00    0.00000e+00
        LJ (SR)   Coulomb (SR)   COM Pull En.      Potential    Kinetic En.
    1.70535e-04    0.00000e+00    1.49236e+02    4.78238e+02    2.15424e+02
   Total Energy    Temperature Pressure (bar)
    6.93662e+02    1.30855e+02    1.52383e-03

Writing checkpoint, step 89110980 at Wed Jul  8 19:44:46 2015


           Step           Time         Lambda
       90000000    45000.00000        0.00000

   Energies (kJ/mol)
           Bond          Angle    Proper Dih.          LJ-14     Coulomb-14
    9.42080e+01    8.66705e+01    1.68446e+02   -2.78991e+00    0.00000e+00
        LJ (SR)   Coulomb (SR)   COM Pull En.      Potential    Kinetic En.
    1.93774e-04    0.00000e+00    1.53866e+02    5.00400e+02    2.29861e+02
   Total Energy    Temperature Pressure (bar)
    7.30261e+02    1.39625e+02   -1.55123e-04

           Step           Time         Lambda
       91000000    45500.00000        0.00000

   Energies (kJ/mol)
           Bond          Angle    Proper Dih.          LJ-14     Coulomb-14
    8.76829e+01    8.80010e+01    1.57357e+02   -2.42357e+00    0.00000e+00
        LJ (SR)   Coulomb (SR)   COM Pull En.      Potential    Kinetic En.
    1.43680e-04    0.00000e+00    1.63561e+02    4.94179e+02    2.21258e+02
   Total Energy    Temperature Pressure (bar)
    7.15436e+02    1.34399e+02    1.47201e-03

Writing checkpoint, step 91834760 at Wed Jul  8 19:59:46 2015


           Step           Time         Lambda
       92000000    46000.00000        0.00000

   Energies (kJ/mol)
           Bond          Angle    Proper Dih.          LJ-14     Coulomb-14
    8.38589e+01    8.89337e+01    1.59208e+02   -2.96893e+00    0.00000e+00
        LJ (SR)   Coulomb (SR)   COM Pull En.      Potential    Kinetic En.
    1.16390e-04    0.00000e+00    1.64254e+02    4.93286e+02    2.01701e+02
   Total Energy    Temperature Pressure (bar)
    6.94987e+02    1.22520e+02    1.69457e-03

           Step           Time         Lambda
       93000000    46500.00000        0.00000

   Energies (kJ/mol)
           Bond          Angle    Proper Dih.          LJ-14     Coulomb-14
    7.99086e+01    1.00341e+02    1.63608e+02   -2.37049e+00    0.00000e+00
        LJ (SR)   Coulomb (SR)   COM Pull En.      Potential    Kinetic En.
    1.03189e-04    0.00000e+00    1.74379e+02    5.15867e+02    2.67504e+02
   Total Energy    Temperature Pressure (bar)
    7.83371e+02    1.62491e+02   -6.38545e-04

           Step           Time         Lambda
       94000000    47000.00000        0.00000

   Energies (kJ/mol)
           Bond          Angle    Proper Dih.          LJ-14     Coulomb-14
    8.91619e+01    1.03570e+02    1.71134e+02   -2.62249e+00    0.00000e+00
        LJ (SR)   Coulomb (SR)   COM Pull En.      Potential    Kinetic En.
    1.56579e-04    0.00000e+00    2.15583e+02    5.76827e+02    2.13132e+02
   Total Energy    Temperature Pressure (bar)
    7.89958e+02    1.29463e+02   -1.25000e-03

Writing checkpoint, step 94537220 at Wed Jul  8 20:14:46 2015


           Step           Time         Lambda
       95000000    47500.00000        0.00000

   Energies (kJ/mol)
           Bond          Angle    Proper Dih.          LJ-14     Coulomb-14
    9.93693e+01    1.06496e+02    1.63054e+02   -1.99012e+00    0.00000e+00
        LJ (SR)   Coulomb (SR)   COM Pull En.      Potential    Kinetic En.
    9.81921e-05    0.00000e+00    1.97810e+02    5.64739e+02    2.29072e+02
   Total Energy    Temperature Pressure (bar)
    7.93811e+02    1.39146e+02   -6.24871e-04

           Step           Time         Lambda
       96000000    48000.00000        0.00000

   Energies (kJ/mol)
           Bond          Angle    Proper Dih.          LJ-14     Coulomb-14
    8.76137e+01    1.01555e+02    1.64033e+02   -2.74311e+00    0.00000e+00
        LJ (SR)   Coulomb (SR)   COM Pull En.      Potential    Kinetic En.
    1.00289e-04    0.00000e+00    2.29633e+02    5.80092e+02    2.34340e+02
   Total Energy    Temperature Pressure (bar)
    8.14432e+02    1.42346e+02    1.29404e-03

           Step           Time         Lambda
       97000000    48500.00000        0.00000

   Energies (kJ/mol)
           Bond          Angle    Proper Dih.          LJ-14     Coulomb-14
    8.58383e+01    1.03439e+02    1.64029e+02   -2.34323e+00    0.00000e+00
        LJ (SR)   Coulomb (SR)   COM Pull En.      Potential    Kinetic En.
    1.37689e-04    0.00000e+00    2.52178e+02    6.03141e+02    2.23828e+02
   Total Energy    Temperature Pressure (bar)
    8.26969e+02    1.35960e+02   -5.87671e-04

Writing checkpoint, step 97348940 at Wed Jul  8 20:29:46 2015


           Step           Time         Lambda
       98000000    49000.00000        0.00000

   Energies (kJ/mol)
           Bond          Angle    Proper Dih.          LJ-14     Coulomb-14
    8.58830e+01    1.02324e+02    1.55089e+02   -2.05568e+00    0.00000e+00
        LJ (SR)   Coulomb (SR)   COM Pull En.      Potential    Kinetic En.
    1.03269e-04    0.00000e+00    2.58977e+02    6.00217e+02    2.28384e+02
   Total Energy    Temperature Pressure (bar)
    8.28601e+02    1.38728e+02   -1.34290e-03

           Step           Time         Lambda
       99000000    49500.00000        0.00000

   Energies (kJ/mol)
           Bond          Angle    Proper Dih.          LJ-14     Coulomb-14
    8.22695e+01    8.97743e+01    1.63384e+02   -2.61747e+00    0.00000e+00
        LJ (SR)   Coulomb (SR)   COM Pull En.      Potential    Kinetic En.
    1.17127e-04    0.00000e+00    2.99295e+02    6.32105e+02    2.41568e+02
   Total Energy    Temperature Pressure (bar)
    8.73673e+02    1.46736e+02    4.64916e-04

           Step           Time         Lambda
      100000000    50000.00000        0.00000

   Energies (kJ/mol)
           Bond          Angle    Proper Dih.          LJ-14     Coulomb-14
    8.63948e+01    1.08713e+02    1.62679e+02   -1.85417e+00    0.00000e+00
        LJ (SR)   Coulomb (SR)   COM Pull En.      Potential    Kinetic En.
    1.21603e-04    0.00000e+00    3.09220e+02    6.65153e+02    2.28807e+02
   Total Energy    Temperature Pressure (bar)
    8.93960e+02    1.38985e+02   -4.67441e-04

Writing checkpoint, step 100288240 at Wed Jul  8 20:44:46 2015


           Step           Time         Lambda
      101000000    50500.00000        0.00000

   Energies (kJ/mol)
           Bond          Angle    Proper Dih.          LJ-14     Coulomb-14
    8.09490e+01    1.24281e+02    1.53218e+02   -1.92306e+00    0.00000e+00
        LJ (SR)   Coulomb (SR)   COM Pull En.      Potential    Kinetic En.
    9.69631e-05    0.00000e+00    3.12041e+02    6.68565e+02    2.28651e+02
   Total Energy    Temperature Pressure (bar)
    8.97216e+02    1.38890e+02   -9.76852e-05

           Step           Time         Lambda
      101840000    50920.00000        0.00000

Writing checkpoint, step 101840000 at Wed Jul  8 20:53:15 2015


   Energies (kJ/mol)
           Bond          Angle    Proper Dih.          LJ-14     Coulomb-14
    9.47246e+01    1.19949e+02    1.65220e+02   -2.30676e+00    0.00000e+00
        LJ (SR)   Coulomb (SR)   COM Pull En.      Potential    Kinetic En.
    8.07110e-05    0.00000e+00    3.19335e+02    6.96922e+02    2.40118e+02
   Total Energy    Temperature Pressure (bar)
    9.37039e+02    1.45855e+02    4.52010e-04

	<======  ###############  ==>
	<====  A V E R A G E S  ====>
	<==  ###############  ======>

	Statistics over 101840001 steps using 5092001 frames

   Energies (kJ/mol)
           Bond          Angle    Proper Dih.          LJ-14     Coulomb-14
    8.01474e+01    7.67039e+01    1.14110e+02   -7.77378e+01    0.00000e+00
        LJ (SR)   Coulomb (SR)   COM Pull En.      Potential    Kinetic En.
    1.68279e-01    0.00000e+00    4.75844e+01    2.40977e+02    2.32621e+02
   Total Energy    Temperature Pressure (bar)
    4.73598e+02    1.41302e+02   -7.90918e-07

   Total Virial (kJ/mol)
    7.66734e+01   -8.43780e-02   -1.42993e+00
   -8.43804e-02    7.92062e+01   -1.14733e+01
   -1.42993e+00   -1.14732e+01    7.69915e+01

   Pressure (bar)
   -1.45670e-06    6.15137e-07    1.35023e-05
    6.15160e-07   -2.43717e-05    1.07645e-04
    1.35023e-05    1.07645e-04    2.34557e-05

   Total Dipole (D)
    0.00000e+00    0.00000e+00    0.00000e+00


	M E G A - F L O P S   A C C O U N T I N G

   RF=Reaction-Field  FE=Free Energy  SCFE=Soft-Core/Free Energy
   T=Tabulated        W3=SPC/TIP3p    W4=TIP4p (single or pairs)
   NF=No Forces

 Computing:                               M-Number         M-Flops  % Flops
-----------------------------------------------------------------------------
 VdW(T)                              235669.164537    12726134.885    47.4
 Outer nonbonded loop                 13385.677051      133856.771     0.5
 1,4 nonbonded interactions           41754.400410     3757896.037    14.0
 NS-Pairs                             20624.720740      433119.136     1.6
 Reset In Box                           682.328134        2046.984     0.0
 Shift-X                              27293.120268      163758.722     0.6
 CG-CoM                                 682.328134        2046.984     0.0
 Bonds                                13544.720133      799138.488     3.0
 Angles                               13442.880132     2258403.862     8.4
 Propers                              26682.080262     6110196.380    22.7
 Virial                                 911.468179       16406.427     0.1
 Update                               13646.560134      423043.364     1.6
 Stop-CM                                682.328268        6823.283     0.0
 Calc-Ekin                             1364.656268       36845.719     0.1
-----------------------------------------------------------------------------
 Total                                                26869717.042   100.0
-----------------------------------------------------------------------------


     R E A L   C Y C L E   A N D   T I M E   A C C O U N T I N G

 Computing:         Nodes     Number     G-Cycles    Seconds     %
-----------------------------------------------------------------------
 Neighbor search        1    5092001    21351.167     6672.2    18.7
 Force                  1  101840001    78271.336    24459.8    68.7
 Write traj.            1       1059       18.727        5.9     0.0
 Update                 1  101840001     6902.950     2157.2     6.1
 Rest                   1                7405.013     2314.1     6.5
-----------------------------------------------------------------------
 Total                  1              113949.192    35609.2   100.0
-----------------------------------------------------------------------

               NODE (s)   Real (s)      (%)
       Time:  27143.470  35609.156     76.2
                       7h32:23
               (Mnbf/s)   (MFlops)   (ns/day)  (hour/ns)
Performance:      8.682    989.915    162.083      0.148
Finished mdrun on node 0 Wed Jul  8 20:53:15 2015
